"nucl","prot","category"
"c.1A>G","p.M1V","Missense/nonsense"
"c.133G>A","p.A45T","Missense/nonsense"
"c.143G>A","p.S48N","Missense/nonsense"
"c.145C>T","p.R49C","Missense/nonsense"
"c.146G>A","p.R49H","Missense/nonsense"
"c.149A>G","p.N50S","Missense/nonsense"
"c.193C>G","p.H65D","Missense/nonsense"
"c.224A>G","p.Y75C","Missense/nonsense"
"c.229G>A","p.D77N","Missense/nonsense"
"c.245C>T","p.P82L","Missense/nonsense"
"c.257C>T","p.S86F","Missense/nonsense"
"c.302G>A","p.R101K","Missense/nonsense"
"c.328C>T","p.R110*","Missense/nonsense"
"c.416C>T","p.T139I","Missense/nonsense"
"c.424C>T","p.Q142*","Missense/nonsense"
"c.439C>T","p.R147*","Missense/nonsense"
"c.479C>G","p.A160G","Missense/nonsense"
"c.509A>G","p.Y170C","Missense/nonsense"
"c.533T>C","p.I178T","Missense/nonsense"
"c.551C>T","p.T184M","Missense/nonsense"
"c.566T>C","p.L189P","Missense/nonsense"
"c.575C>T","p.T192I","Missense/nonsense"
"c.595G>C","p.E199Q","Missense/nonsense"
"c.614T>C","p.L205P","Missense/nonsense"
"c.616G>A","p.E206K","Missense/nonsense"
"c.620A>C","p.K207T","Missense/nonsense"
"c.640G>A","p.G214S","Missense/nonsense"
"c.649G>A","p.E217K","Missense/nonsense"
"c.664G>A","p.G222R","Missense/nonsense"
"c.689A>G","p.D230G","Missense/nonsense"
"c.697G>C","p.G233R","Missense/nonsense"
"c.698G>T","p.G233V","Missense/nonsense"
"c.701G>A","p.G234E","Missense/nonsense"
"c.706G>A","p.A236T","Missense/nonsense"
"c.743T>G","p.M248R","Missense/nonsense"
"c.755T>A","p.M252K","Missense/nonsense"
"c.760A>G","p.K254E","Missense/nonsense"
"c.779C>T","p.S260F","Missense/nonsense"
"c.848T>C","p.M283T","Missense/nonsense"
"c.853G>T","p.E285*","Missense/nonsense"
"c.865C>T","p.R289W","Missense/nonsense"
"c.967G>T","p.E323*","Missense/nonsense"
"c.984C>T","p.C328C","Missense/nonsense"
"c.1006T>A","p.Y336N","Missense/nonsense"
"c.1061T>G","p.V354G","Missense/nonsense"
"c.1063C>T","p.R355W","Missense/nonsense"
"c.1070G>A","p.R357Q","Missense/nonsense"
"c.1069C>T","p.R357W","Missense/nonsense"
"c.1076C>T","p.P359L","Missense/nonsense"
"c.1079G>A","p.W360*","Missense/nonsense"
"c.1094G>A","p.W365*","Missense/nonsense"
"c.1106G>A","p.W369*","Missense/nonsense"
"c.1117T>C","p.W373R","Missense/nonsense"
"c.1202A>G","p.Y401C","Missense/nonsense"
"c.1250C>T","p.T417M","Missense/nonsense"
"c.1257T>G","p.D419E","Missense/nonsense"
"c.1256A>G","p.D419G","Missense/nonsense"
"c.1259C>A","p.A420D","Missense/nonsense"
"c.1291G>A","p.V431M","Missense/nonsense"
"c.1309C>T","p.R437C","Missense/nonsense"
"c.1309C>G","p.R437G","Missense/nonsense"
"c.1319G>A","p.R440Q","Missense/nonsense"
"c.1318C>T","p.R440W","Missense/nonsense"
"c.1322G>A","p.G441D","Missense/nonsense"
"c.1336G>A","p.G446S","Missense/nonsense"
"c.1342C>T","p.R448C","Missense/nonsense"
"c.1342C>G","p.R448G","Missense/nonsense"
"c.1343G>A","p.R448H","Missense/nonsense"
"c.1343G>T","p.R448L","Missense/nonsense"
"c.1345A>C","p.N449H","Missense/nonsense"
"c.1354G>C","p.D452H","Missense/nonsense"
"c.1381C>T","p.R461C","Missense/nonsense"
"c.1435A>G","p.S479G","Missense/nonsense"
"c.1451T>C","p.L484P","Missense/nonsense"
"c.1466G>A","p.R489Q","Missense/nonsense"
"c.1465C>T","p.R489W","Missense/nonsense"
"c.1469G>A","p.R490Q","Missense/nonsense"
"c.1468C>T","p.R490W","Missense/nonsense"
"c.1477C>T","p.R493W","Missense/nonsense"
"c.1486G>A","p.G496R","Missense/nonsense"
"c.1505T>G","p.I502S","Missense/nonsense"
"c.1611C>A","p.Y537*","Missense/nonsense"
"c.1622G>A","p.R541Q","Missense/nonsense"
"c.1621C>T","p.R541W","Missense/nonsense"
"c.1657G>A","p.E553K","Missense/nonsense"
"c.1694A>C","p.Q565P","Missense/nonsense"
"c.1699G>T","p.G567W","Missense/nonsense"
"c.1706T>C","p.F569S","Missense/nonsense"
"c.1714C>T","p.R572W","Missense/nonsense"
"c.1742C>G","p.S581C","Missense/nonsense"
"c.1823G>A","p.R608K","Missense/nonsense"
"c.1855C>T","p.Q619*","Missense/nonsense"
"c.1897C>T","p.Q633*","Missense/nonsense"
"c.2092C>T","p.R698C","Missense/nonsense"
"c.2093G>A","p.R698H","Missense/nonsense"
"c.2093G>C","p.R698P","Missense/nonsense"
"c.2092C>A","p.R698S","Missense/nonsense"
"c.2105C>T","p.A702V","Missense/nonsense"
"c.2114A>G","p.D705G","Missense/nonsense"
"c.2117C>A","p.T706K","Missense/nonsense"
"c.2120A>G","p.D707G","Missense/nonsense"
"c.2212C>T","p.Q738*","Missense/nonsense"
"c.2243G>A","p.R748Q","Missense/nonsense"
"c.2242C>T","p.R748*","Missense/nonsense"
"c.2245A>C","p.N749H","Missense/nonsense"
"c.2306G>C","p.R769P","Missense/nonsense"
"c.2330T>C","p.I777T","Missense/nonsense"
"c.2338G>C","p.D780H","Missense/nonsense"
"c.2384C>T","p.A795V","Missense/nonsense"
"c.2393C>A","p.A798E","Missense/nonsense"
"c.309G>A","","Splicing"
"c.380-13T>A","","Splicing"
"c.499-1G>A","","Splicing"
"c.632+4A>G","","Splicing"
"c.633G>C","","Splicing"
"c.801+1G>A","","Splicing"
"c.801+1G>C","","Splicing"
"c.802-9G>A","","Splicing"
"c.946-2A>G","","Splicing"
"c.1029+3A>G","","Splicing"
"c.1115+5G>T","","Splicing"
"c.1194-9A>G","","Splicing"
"c.1524+1G>C","","Splicing"
"c.1524+1G>T","","Splicing"
"c.1746-20C>G","","Splicing"
"c.1782+1072G>C","","Splicing"
"c.1800+1G>A","","Splicing"
"c.1800+2T>C","","Splicing"
"c.1992+1G>T","","Splicing"
"c.1993-1G>A","","Splicing"
"c.1993-1G>T","","Splicing"
"c.2050+1G>A","","Splicing"
"c.2185-16A>G","","Splicing"
"c.2263+1G>C","","Splicing"
"c.2380+2T>G","","Splicing"
"c.2381-2A>G","","Splicing"
"c.2440-3C>G","","Splicing"
"c.19_23delGCATC","","Small deletions"
"c.327_328delCC","","Small deletions"
"c.402delC","","Small deletions"
"c.550delA","","Small deletions"
"c.566delT","","Small deletions"
"c.598_612del15","","Small deletions"
"c.759_761delGAA","","Small deletions"
"c.1043delG","","Small deletions"
"c.1178delA","","Small deletions"
"c.1298_1299delTG","","Small deletions"
"c.1322delG","","Small deletions"
"c.1373delC","","Small deletions"
"c.1470delG","","Small deletions"
"c.1507_1511delGGCTT","","Small deletions"
"c.1693delC","","Small deletions"
"c.1722delC","","Small deletions"
"c.1788_1793delGAAAAA","","Small deletions"
"c.1811_1812delTC","","Small deletions"
"c.1838delA","","Small deletions"
"c.1890delT","","Small deletions"
"c.1910delC","","Small deletions"
"c.1983delA","","Small deletions"
"c.1981delA","","Small deletions"
"c.2069_2070delAC","","Small deletions"
"c.2314_2317delGACA","","Small deletions"
"c.220dupC","","Small insertions"
"c.260dupT","","Small insertions"
"c.258dupT","","Small insertions"
"c.418dupC","","Small insertions"
"c.724dupA","","Small insertions"
"c.1795dupA","","Small insertions"
"c.1999dupG","","Small insertions"
"c.2279dupA","","Small insertions"
"c.260_265delTCTTTTinsGA","","Small indels"
"c.2257delGinsAA","","Small indels"
"c.2362_2363delAGinsTCATCT","","Small indels"
