nucl,biological.pathogenicity,biological.pathogenicity.basis.of.decision.by.hand
c.1A>G,TRUE,
c.309G>A,TRUE,
c.380-13T>A,TRUE,
c.632+4A>G,TRUE,
c.664C>A,TRUE,
c.706G>A,FALSE,
c.802-9G>A,TRUE,
c.984C>T,TRUE,
c.1029+3A>G,FALSE,
c.1115+5G>T,TRUE,
c.1194-9A>G,TRUE,
c.1343C>T,TRUE,
c.1355-6G>A,FALSE,
c.1468G>T,TRUE,
c.1742C>G,TRUE,
c.1746-20C>G,FALSE,
c.2185-16A>G,TRUE,
c.2185-12_2194del,TRUE,
c.2212T>C,TRUE,
c.2440-3C>G,FALSE,
c.143G>A,TRUE,
c.575C>T,TRUE,
c.1336G>A,TRUE,
c.2330T>C,TRUE,
