Input	Errors and warnings	AccNo	Genesymbol	Variant	Reference Sequence Start Descr.	Coding DNA Descr.	Protein Descr.	GeneSymbol Coding DNA Descr.	GeneSymbol Protein Descr.	Genomic Reference	Coding Reference	Protein Reference	Affected Transcripts	Affected Proteins	Restriction Sites Created	Restriction Sites Deleted
NM_000255.3:c.1A>G	(GenRecord): Mutation in start codon of gene MUT transcript 001.	NM_000255.3	MUT_v001	c.1A>G	n.266A>G	c.1A>G	p.?	MUT_v001:c.1A>G	MUT_v001:p.?		NM_000255.3	NP_000246.2	NM_000255.3(MUT_v001):c.1A>G	NM_000255.3(MUT_i001):p.?	HpyCH4III		
NM_000255.3:c.7delA		NM_000255.3	MUT_v001	c.7delA	n.272del	c.7del	p.(Arg3Glufs*14)	MUT_v001:c.7del	MUT_v001:p.(Arg3Glufs*14)		NM_000255.3	NP_000246.2	NM_000255.3(MUT_v001):c.7del	NM_000255.3(MUT_i001):p.(Arg3Glufs*14)		MseI	
NM_000255.3:c.19C>T		NM_000255.3	MUT_v001	c.19C>T	n.284C>T	c.19C>T	p.(Gln7*)	MUT_v001:c.19C>T	MUT_v001:p.(Gln7*)		NM_000255.3	NP_000246.2	NM_000255.3(MUT_v001):c.19C>T	NM_000255.3(MUT_i001):p.(Gln7*)	MluCI	HinfI,TfiI	
NM_000255.3:c.91C>T		NM_000255.3	MUT_v001	c.91C>T	n.356C>T	c.91C>T	p.(Arg31*)	MUT_v001:c.91C>T	MUT_v001:p.(Arg31*)		NM_000255.3	NP_000246.2	NM_000255.3(MUT_v001):c.91C>T	NM_000255.3(MUT_i001):p.(Arg31*)	BsrDI		
NM_000255.3:c.141_142insTTTT		NM_000255.3	MUT_v001	c.141_142insTTTT	n.406_407insTTTT	c.141_142insTTTT	p.(Lys48Phefs*2)	MUT_v001:c.141_142insTTTT	MUT_v001:p.(Lys48Phefs*2)		NM_000255.3	NP_000246.2	NM_000255.3(MUT_v001):c.141_142insTTTT	NM_000255.3(MUT_i001):p.(Lys48Phefs*2)	DraI,MseI		
NM_000255.3:c.146dupA		NM_000255.3	MUT_v001	c.146dupA	n.411dup	c.146dup	p.(Gln50Alafs*34)	MUT_v001:c.146dup	MUT_v001:p.(Gln50Alafs*34)		NM_000255.3	NP_000246.2	NM_000255.3(MUT_v001):c.146dup	NM_000255.3(MUT_i001):p.(Gln50Alafs*34)			
NM_000255.3:c.160A>T		NM_000255.3	MUT_v001	c.160A>T	n.425A>T	c.160A>T	p.(Lys54*)	MUT_v001:c.160A>T	MUT_v001:p.(Lys54*)		NM_000255.3	NP_000246.2	NM_000255.3(MUT_v001):c.160A>T	NM_000255.3(MUT_i001):p.(Lys54*)			
NM_000255.3:c.257C>T		NM_000255.3	MUT_v001	c.257C>T	n.522C>T	c.257C>T	p.(Pro86Leu)	MUT_v001:c.257C>T	MUT_v001:p.(Pro86Leu)		NM_000255.3	NP_000246.2	NM_000255.3(MUT_v001):c.257C>T	NM_000255.3(MUT_i001):p.(Pro86Leu)	BfaI	BssKI,BstNI,PspGI,ScrFI,StyD4I	
NM_000255.3:c.260G>A		NM_000255.3	MUT_v001	c.260G>A	n.525G>A	c.260G>A	p.(Gly87Glu)	MUT_v001:c.260G>A	MUT_v001:p.(Gly87Glu)		NM_000255.3	NP_000246.2	NM_000255.3(MUT_v001):c.260G>A	NM_000255.3(MUT_i001):p.(Gly87Glu)	Hpy188III	BssKI,BstNI,PspGI,ScrFI,StyD4I	
NM_000255.3:c.278G>A		NM_000255.3	MUT_v001	c.278G>A	n.543G>A	c.278G>A	p.(Arg93His)	MUT_v001:c.278G>A	MUT_v001:p.(Arg93His)		NM_000255.3	NP_000246.2	NM_000255.3(MUT_v001):c.278G>A	NM_000255.3(MUT_i001):p.(Arg93His)		AflIII,BsaAI,HpyCH4IV,PmlI	
NM_000255.3:c.280G>A		NM_000255.3	MUT_v001	c.280G>A	n.545G>A	c.280G>A	p.(Gly94Arg)	MUT_v001:c.280G>A	MUT_v001:p.(Gly94Arg)		NM_000255.3	NP_000246.2	NM_000255.3(MUT_v001):c.280G>A	NM_000255.3(MUT_i001):p.(Gly94Arg)		AvaII,PmlI,Sau96I	
NM_000255.3:c.281G>T		NM_000255.3	MUT_v001	c.281G>T	n.546G>T	c.281G>T	p.(Gly94Val)	MUT_v001:c.281G>T	MUT_v001:p.(Gly94Val)		NM_000255.3	NP_000246.2	NM_000255.3(MUT_v001):c.281G>T	NM_000255.3(MUT_i001):p.(Gly94Val)	BaeI (2),CviQI,RsaI	AvaII,Sau96I	
NM_000255.3:c.281G>A		NM_000255.3	MUT_v001	c.281G>A	n.546G>A	c.281G>A	p.(Gly94Glu)	MUT_v001:c.281G>A	MUT_v001:p.(Gly94Glu)		NM_000255.3	NP_000246.2	NM_000255.3(MUT_v001):c.281G>A	NM_000255.3(MUT_i001):p.(Gly94Glu)		AvaII,Sau96I	
NM_000255.3:c.284C>G		NM_000255.3	MUT_v001	c.284C>G	n.549C>G	c.284C>G	p.(Pro95Arg)	MUT_v001:c.284C>G	MUT_v001:p.(Pro95Arg)		NM_000255.3	NP_000246.2	NM_000255.3(MUT_v001):c.284C>G	NM_000255.3(MUT_i001):p.(Pro95Arg)	EcoRV	AvaII,Sau96I	
NM_000255.3:c.299A>G		NM_000255.3	MUT_v001	c.299A>G	n.564A>G	c.299A>G	p.(Tyr100Cys)	MUT_v001:c.299A>G	MUT_v001:p.(Tyr100Cys)		NM_000255.3	NP_000246.2	NM_000255.3(MUT_v001):c.299A>G	NM_000255.3(MUT_i001):p.(Tyr100Cys)	CviQI,RsaI	AccI,BstZ17I	
NM_000255.3:c.313T>C		NM_000255.3	MUT_v001	c.313T>C	n.578T>C	c.313T>C	p.(Trp105Arg)	MUT_v001:c.313T>C	MUT_v001:p.(Trp105Arg)		NM_000255.3	NP_000246.2	NM_000255.3(MUT_v001):c.313T>C	NM_000255.3(MUT_i001):p.(Trp105Arg)	HpaII,MspI,NciI,NlaIV	BstNI,PspGI	
NM_000255.3:c.322C>T		NM_000255.3	MUT_v001	c.322C>T	n.587C>T	c.322C>T	p.(Arg108Cys)	MUT_v001:c.322C>T	MUT_v001:p.(Arg108Cys)		NM_000255.3	NP_000246.2	NM_000255.3(MUT_v001):c.322C>T	NM_000255.3(MUT_i001):p.(Arg108Cys)		AciI,BtsCI,EciI,FokI	
NM_000255.3:c.322C>G		NM_000255.3	MUT_v001	c.322C>G	n.587C>G	c.322C>G	p.(Arg108Gly)	MUT_v001:c.322C>G	MUT_v001:p.(Arg108Gly)		NM_000255.3	NP_000246.2	NM_000255.3(MUT_v001):c.322C>G	NM_000255.3(MUT_i001):p.(Arg108Gly)	EaeI	AciI,BtsCI,EciI,FokI	
NM_000255.3:c.323G>A		NM_000255.3	MUT_v001	c.323G>A	n.588G>A	c.323G>A	p.(Arg108His)	MUT_v001:c.323G>A	MUT_v001:p.(Arg108His)		NM_000255.3	NP_000246.2	NM_000255.3(MUT_v001):c.323G>A	NM_000255.3(MUT_i001):p.(Arg108His)	MslI,XcmI	AciI,EciI	
NM_000255.3:c.326A>G		NM_000255.3	MUT_v001	c.326A>G	n.591A>G	c.326A>G	p.(Gln109Arg)	MUT_v001:c.326A>G	MUT_v001:p.(Gln109Arg)		NM_000255.3	NP_000246.2	NM_000255.3(MUT_v001):c.326A>G	NM_000255.3(MUT_i001):p.(Gln109Arg)	BslI,BsrFI,HpaII,MspI	BsrI,BstXI	
NM_000255.3:c.349G>T		NM_000255.3	MUT_v001	c.349G>T	n.614G>T	c.349G>T	p.(Glu117*)	MUT_v001:c.349G>T	MUT_v001:p.(Glu117*)		NM_000255.3	NP_000246.2	NM_000255.3(MUT_v001):c.349G>T	NM_000255.3(MUT_i001):p.(Glu117*)		MboII	
NM_000255.3:c.360dupT		NM_000255.3	MUT_v001	c.360dupT	n.625dup	c.360dup	p.(Lys121*)	MUT_v001:c.360dup	MUT_v001:p.(Lys121*)		NM_000255.3	NP_000246.2	NM_000255.3(MUT_v001):c.360dup	NM_000255.3(MUT_i001):p.(Lys121*)	MluCI		
NM_000255.3:c.385+5G>A	(variantchecker): Intronic position given for a non-genomic reference sequence.	
NM_000255.3:c.385+2T>G	(variantchecker): Intronic position given for a non-genomic reference sequence.	
NM_000255.3:c.385+3_385+4insTAAGGGT	(variantchecker): Intronic position given for a non-genomic reference sequence.	
NM_000255.3:c.394C>T		NM_000255.3	MUT_v001	c.394C>T	n.659C>T	c.394C>T	p.(Gln132*)	MUT_v001:c.394C>T	MUT_v001:p.(Gln132*)		NM_000255.3	NP_000246.2	NM_000255.3(MUT_v001):c.394C>T	NM_000255.3(MUT_i001):p.(Gln132*)			
NM_000255.3:c.404C>A		NM_000255.3	MUT_v001	c.404C>A	n.669C>A	c.404C>A	p.(Ser135*)	MUT_v001:c.404C>A	MUT_v001:p.(Ser135*)		NM_000255.3	NP_000246.2	NM_000255.3(MUT_v001):c.404C>A	NM_000255.3(MUT_i001):p.(Ser135*)	PsiI		
NM_000255.3:c.410C>G		NM_000255.3	MUT_v001	c.410C>G	n.675C>G	c.410C>G	p.(Ala137Gly)	MUT_v001:c.410C>G	MUT_v001:p.(Ala137Gly)		NM_000255.3	NP_000246.2	NM_000255.3(MUT_v001):c.410C>G	NM_000255.3(MUT_i001):p.(Ala137Gly)	CviKI_1		
NM_000255.3:c.410C>T		NM_000255.3	MUT_v001	c.410C>T	n.675C>T	c.410C>T	p.(Ala137Val)	MUT_v001:c.410C>T	MUT_v001:p.(Ala137Val)		NM_000255.3	NP_000246.2	NM_000255.3(MUT_v001):c.410C>T	NM_000255.3(MUT_i001):p.(Ala137Val)			
NM_000255.3:c.421delG		NM_000255.3	MUT_v001	c.421delG	n.686del	c.421del	p.(Ala141Argfs*39)	MUT_v001:c.421del	MUT_v001:p.(Ala141Argfs*39)		NM_000255.3	NP_000246.2	NM_000255.3(MUT_v001):c.421del	NM_000255.3(MUT_i001):p.(Ala141Argfs*39)		LpnPI	
NM_000255.3:c.427C>T		NM_000255.3	MUT_v001	c.427C>T	n.692C>T	c.427C>T	p.(His143Tyr)	MUT_v001:c.427C>T	MUT_v001:p.(His143Tyr)		NM_000255.3	NP_000246.2	NM_000255.3(MUT_v001):c.427C>T	NM_000255.3(MUT_i001):p.(His143Tyr)		DraIII	
NM_000255.3:c.433G>A		NM_000255.3	MUT_v001	c.433G>A	n.698G>A	c.433G>A	p.(Gly145Ser)	MUT_v001:c.433G>A	MUT_v001:p.(Gly145Ser)		NM_000255.3	NP_000246.2	NM_000255.3(MUT_v001):c.433G>A	NM_000255.3(MUT_i001):p.(Gly145Ser)	AluI	DraIII	
NM_000255.3:c.443C>T		NM_000255.3	MUT_v001	c.443C>T	n.708C>T	c.443C>T	p.(Ser148Leu)	MUT_v001:c.443C>T	MUT_v001:p.(Ser148Leu)		NM_000255.3	NP_000246.2	NM_000255.3(MUT_v001):c.443C>T	NM_000255.3(MUT_i001):p.(Ser148Leu)		HinfI,Hpy188I,TfiI	
NM_000255.3:c.454C>T		NM_000255.3	MUT_v001	c.454C>T	n.719C>T	c.454C>T	p.(Arg152*)	MUT_v001:c.454C>T	MUT_v001:p.(Arg152*)		NM_000255.3	NP_000246.2	NM_000255.3(MUT_v001):c.454C>T	NM_000255.3(MUT_i001):p.(Arg152*)	BpuEI	AvaI,BsoBI,MnlI,PaeR7I,PspXI,TaqI,XhoI	
NM_000255.3:c.457G>A		NM_000255.3	MUT_v001	c.457G>A	n.722G>A	c.457G>A	p.(Val153Ile)	MUT_v001:c.457G>A	MUT_v001:p.(Val153Ile)		NM_000255.3	NP_000246.2	NM_000255.3(MUT_v001):c.457G>A	NM_000255.3(MUT_i001):p.(Val153Ile)	ApoI,EcoRI,MluCI	AvaI,BsoBI,PaeR7I,PspXI,SmlI,XhoI	
NM_000255.3:c.459delT		NM_000255.3	MUT_v001	c.459delT	n.724del	c.459del	p.(Arg154Valfs*26)	MUT_v001:c.459del	MUT_v001:p.(Arg154Valfs*26)		NM_000255.3	NP_000246.2	NM_000255.3(MUT_v001):c.459del	NM_000255.3(MUT_i001):p.(Arg154Valfs*26)	MlyI,PleI		
NM_000255.3:c.466G>A		NM_000255.3	MUT_v001	c.466G>A	n.731G>A	c.466G>A	p.(Asp156Asn)	MUT_v001:c.466G>A	MUT_v001:p.(Asp156Asn)		NM_000255.3	NP_000246.2	NM_000255.3(MUT_v001):c.466G>A	NM_000255.3(MUT_i001):p.(Asp156Asn)		HphI	
NM_000255.3:c.473G>T		NM_000255.3	MUT_v001	c.473G>T	n.738G>T	c.473G>T	p.(Gly158Val)	MUT_v001:c.473G>T	MUT_v001:p.(Gly158Val)		NM_000255.3	NP_000246.2	NM_000255.3(MUT_v001):c.473G>T	NM_000255.3(MUT_i001):p.(Gly158Val)		MmeI	
NM_000255.3:c.481G>T		NM_000255.3	MUT_v001	c.481G>T	n.746G>T	c.481G>T	p.(Gly161*)	MUT_v001:c.481G>T	MUT_v001:p.(Gly161*)		NM_000255.3	NP_000246.2	NM_000255.3(MUT_v001):c.481G>T	NM_000255.3(MUT_i001):p.(Gly161*)	BpuEI,SmlI	BpmI,LpnPI	
NM_000255.3:c.481G>A		NM_000255.3	MUT_v001	c.481G>A	n.746G>A	c.481G>A	p.(Gly161Arg)	MUT_v001:c.481G>A	MUT_v001:p.(Gly161Arg)		NM_000255.3	NP_000246.2	NM_000255.3(MUT_v001):c.481G>A	NM_000255.3(MUT_i001):p.(Gly161Arg)	BfaI	BpmI,LpnPI	
NM_000255.3:c.484G>T		NM_000255.3	MUT_v001	c.484G>T	n.749G>T	c.484G>T	p.(Val162Phe)	MUT_v001:c.484G>T	MUT_v001:p.(Val162Phe)		NM_000255.3	NP_000246.2	NM_000255.3(MUT_v001):c.484G>T	NM_000255.3(MUT_i001):p.(Val162Phe)		BpmI	
NM_000255.3:c.521T>C		NM_000255.3	MUT_v001	c.521T>C	n.786T>C	c.521T>C	p.(Phe174Ser)	MUT_v001:c.521T>C	MUT_v001:p.(Phe174Ser)		NM_000255.3	NP_000246.2	NM_000255.3(MUT_v001):c.521T>C	NM_000255.3(MUT_i001):p.(Phe174Ser)	Hpy188I		
NM_000255.3:c.544dupA		NM_000255.3	MUT_v001	c.544dupA	n.809dup	c.544dup	p.(Met182Asnfs*29)	MUT_v001:c.544dup	MUT_v001:p.(Met182Asnfs*29)		NM_000255.3	NP_000246.2	NM_000255.3(MUT_v001):c.544dup	NM_000255.3(MUT_i001):p.(Met182Asnfs*29)			
NM_000255.3:c.550G>T		NM_000255.3	MUT_v001	c.550G>T	n.815G>T	c.550G>T	p.(Val184Phe)	MUT_v001:c.550G>T	MUT_v001:p.(Val184Phe)		NM_000255.3	NP_000246.2	NM_000255.3(MUT_v001):c.550G>T	NM_000255.3(MUT_i001):p.(Val184Phe)			
NM_000255.3:c.556A>G		NM_000255.3	MUT_v001	c.556A>G	n.821A>G	c.556A>G	p.(Met186Val)	MUT_v001:c.556A>G	MUT_v001:p.(Met186Val)		NM_000255.3	NP_000246.2	NM_000255.3(MUT_v001):c.556A>G	NM_000255.3(MUT_i001):p.(Met186Val)	Tsp45I	CviAII,FatI,MslI,NlaIII	
NM_000255.3:c.567T>G		NM_000255.3	MUT_v001	c.567T>G	n.832T>G	c.567T>G	p.(Asn189Lys)	MUT_v001:c.567T>G	MUT_v001:p.(Asn189Lys)		NM_000255.3	NP_000246.2	NM_000255.3(MUT_v001):c.567T>G	NM_000255.3(MUT_i001):p.(Asn189Lys)	HpyAV		
NM_000255.3:c.572C>A		NM_000255.3	MUT_v001	c.572C>A	n.837C>A	c.572C>A	p.(Ala191Glu)	MUT_v001:c.572C>A	MUT_v001:p.(Ala191Glu)		NM_000255.3	NP_000246.2	NM_000255.3(MUT_v001):c.572C>A	NM_000255.3(MUT_i001):p.(Ala191Glu)	XmnI		
NM_000255.3:c.590C>A		NM_000255.3	MUT_v001	c.590C>A	n.855C>A	c.590C>A	p.(Ala197Glu)	MUT_v001:c.590C>A	MUT_v001:p.(Ala197Glu)		NM_000255.3	NP_000246.2	NM_000255.3(MUT_v001):c.590C>A	NM_000255.3(MUT_i001):p.(Ala197Glu)	Hpy188III	HpyCH4V	
NM_000255.3:c.593delA		NM_000255.3	MUT_v001	c.593delA	n.858del	c.593del	p.(Asn198Ilefs*3)	MUT_v001:c.593del	MUT_v001:p.(Asn198Ilefs*3)		NM_000255.3	NP_000246.2	NM_000255.3(MUT_v001):c.593del	NM_000255.3(MUT_i001):p.(Asn198Ilefs*3)		ApoI	
NM_000255.3:c.597T>C		NM_000255.3	MUT_v001	c.597T>C	n.862T>C	c.597T>C	p.(=)	MUT_v001:c.597T>C	MUT_v001:p.(=)		NM_000255.3	NP_000246.2	NM_000255.3(MUT_v001):c.597T>C	NM_000255.3(MUT_i001):p.(=)			
NM_000255.3:c.607G>A		NM_000255.3	MUT_v001	c.607G>A	n.872G>A	c.607G>A	p.(Gly203Arg)	MUT_v001:c.607G>A	MUT_v001:p.(Gly203Arg)		NM_000255.3	NP_000246.2	NM_000255.3(MUT_v001):c.607G>A	NM_000255.3(MUT_i001):p.(Gly203Arg)	BfaI	BpmI,BsrI,LpnPI	
NM_000255.3:c.623_624delTA		NM_000255.3	MUT_v001	c.623_624delTA	n.888_889del	c.623_624del	p.(Val208Alafs*2)	MUT_v001:c.623_624del	MUT_v001:p.(Val208Alafs*2)		NM_000255.3	NP_000246.2	NM_000255.3(MUT_v001):c.623_624del	NM_000255.3(MUT_i001):p.(Val208Alafs*2)		Hpy166II	
NM_000255.3:c.643G>A		NM_000255.3	MUT_v001	c.643G>A	n.908G>A	c.643G>A	p.(Gly215Ser)	MUT_v001:c.643G>A	MUT_v001:p.(Gly215Ser)		NM_000255.3	NP_000246.2	NM_000255.3(MUT_v001):c.643G>A	NM_000255.3(MUT_i001):p.(Gly215Ser)	BfaI,SpeI	Acc65I,BanI,BsrI,KpnI,LpnPI,NlaIV	
NM_000255.3:c.643G>T		NM_000255.3	MUT_v001	c.643G>T	n.908G>T	c.643G>T	p.(Gly215Cys)	MUT_v001:c.643G>T	MUT_v001:p.(Gly215Cys)		NM_000255.3	NP_000246.2	NM_000255.3(MUT_v001):c.643G>T	NM_000255.3(MUT_i001):p.(Gly215Cys)		Acc65I,BanI,BsrI,KpnI,LpnPI,NlaIV	
NM_000255.3:c.648C>A		NM_000255.3	MUT_v001	c.648C>A	n.913C>A	c.648C>A	p.(=)	MUT_v001:c.648C>A	MUT_v001:p.(=)		NM_000255.3	NP_000246.2	NM_000255.3(MUT_v001):c.648C>A	NM_000255.3(MUT_i001):p.(=)		Acc65I,BanI,BccI,BtsCI,FokI,KpnI,NlaIV	
NM_000255.3:c.654A>C		NM_000255.3	MUT_v001	c.654A>C	n.919A>C	c.654A>C	p.(Gln218His)	MUT_v001:c.654A>C	MUT_v001:p.(Gln218His)		NM_000255.3	NP_000246.2	NM_000255.3(MUT_v001):c.654A>C	NM_000255.3(MUT_i001):p.(Gln218His)			
NM_000255.3:c.655A>T		NM_000255.3	MUT_v001	c.655A>T	n.920A>T	c.655A>T	p.(Asn219Tyr)	MUT_v001:c.655A>T	MUT_v001:p.(Asn219Tyr)		NM_000255.3	NP_000246.2	NM_000255.3(MUT_v001):c.655A>T	NM_000255.3(MUT_i001):p.(Asn219Tyr)			
NM_000255.3:c.656delA		NM_000255.3	MUT_v001	c.656delA	n.921del	c.656del	p.(Asn219Metfs*4)	MUT_v001:c.656del	MUT_v001:p.(Asn219Metfs*4)		NM_000255.3	NP_000246.2	NM_000255.3(MUT_v001):c.656del	NM_000255.3(MUT_i001):p.(Asn219Metfs*4)	MslI		
NM_000255.3:c.662delT		NM_000255.3	MUT_v001	c.662delT	n.927del	c.662del	p.(Ile221Asnfs*2)	MUT_v001:c.662del	MUT_v001:p.(Ile221Asnfs*2)		NM_000255.3	NP_000246.2	NM_000255.3(MUT_v001):c.662del	NM_000255.3(MUT_i001):p.(Ile221Asnfs*2)			
NM_000255.3:c.670G>T		NM_000255.3	MUT_v001	c.670G>T	n.935G>T	c.670G>T	p.(Glu224*)	MUT_v001:c.670G>T	MUT_v001:p.(Glu224*)		NM_000255.3	NP_000246.2	NM_000255.3(MUT_v001):c.670G>T	NM_000255.3(MUT_i001):p.(Glu224*)		ApoI	
NM_000255.3:c.671_678dupAATTTATG		NM_000255.3	MUT_v001	c.671_678dupAATTTATG	n.936_943dup	c.671_678dup	p.(Val227Asnfs*16)	MUT_v001:c.671_678dup	MUT_v001:p.(Val227Asnfs*16)		NM_000255.3	NP_000246.2	NM_000255.3(MUT_v001):c.671_678dup	NM_000255.3(MUT_i001):p.(Val227Asnfs*16)			
NM_000255.3:c.682C>T		NM_000255.3	MUT_v001	c.682C>T	n.947C>T	c.682C>T	p.(Arg228*)	MUT_v001:c.682C>T	MUT_v001:p.(Arg228*)		NM_000255.3	NP_000246.2	NM_000255.3(MUT_v001):c.682C>T	NM_000255.3(MUT_i001):p.(Arg228*)		BstBI,TaqI	
NM_000255.3:c.683G>A		NM_000255.3	MUT_v001	c.683G>A	n.948G>A	c.683G>A	p.(Arg228Gln)	MUT_v001:c.683G>A	MUT_v001:p.(Arg228Gln)		NM_000255.3	NP_000246.2	NM_000255.3(MUT_v001):c.683G>A	NM_000255.3(MUT_i001):p.(Arg228Gln)		BstBI,TaqI	
NM_000255.3:c.689C>T		NM_000255.3	MUT_v001	c.689C>T	n.954C>T	c.689C>T	p.(Thr230Ile)	MUT_v001:c.689C>T	MUT_v001:p.(Thr230Ile)		NM_000255.3	NP_000246.2	NM_000255.3(MUT_v001):c.689C>T	NM_000255.3(MUT_i001):p.(Thr230Ile)			
NM_000255.3:c.689_690delCA		NM_000255.3	MUT_v001	c.689_690delCA	n.954_955del	c.689_690del	p.(Thr230Ilefs*14)	MUT_v001:c.689_690del	MUT_v001:p.(Thr230Ilefs*14)		NM_000255.3	NP_000246.2	NM_000255.3(MUT_v001):c.689_690del	NM_000255.3(MUT_i001):p.(Thr230Ilefs*14)			
NM_000255.3:c.691T>A		NM_000255.3	MUT_v001	c.691T>A	n.956T>A	c.691T>A	p.(Tyr231Asn)	MUT_v001:c.691T>A	MUT_v001:p.(Tyr231Asn)		NM_000255.3	NP_000246.2	NM_000255.3(MUT_v001):c.691T>A	NM_000255.3(MUT_i001):p.(Tyr231Asn)			
NM_000255.3:c.694dupA		NM_000255.3	MUT_v001	c.694dupA	n.959dup	c.694dup	p.(Ile232Asnfs*13)	MUT_v001:c.694dup	MUT_v001:p.(Ile232Asnfs*13)		NM_000255.3	NP_000246.2	NM_000255.3(MUT_v001):c.694dup	NM_000255.3(MUT_i001):p.(Ile232Asnfs*13)			
NM_000255.3:c.729_730insTT		NM_000255.3	MUT_v001	c.729_730insTT	n.994_995insTT	c.729_730insTT	p.(Asp244Leufs*39)	MUT_v001:c.729_730insTT	MUT_v001:p.(Asp244Leufs*39)		NM_000255.3	NP_000246.2	NM_000255.3(MUT_v001):c.729_730insTT	NM_000255.3(MUT_i001):p.(Asp244Leufs*39)			
NM_000255.3:c.753_753+5delGGTATA	(variantchecker): Intronic position given for a non-genomic reference sequence.	
NM_000255.3:c.753+2T>A	(variantchecker): Intronic position given for a non-genomic reference sequence.	
NM_000255.3:c.753+1G>A	(variantchecker): Intronic position given for a non-genomic reference sequence.	
NM_000255.3:c.759G>A		NM_000255.3	MUT_v001	c.759G>A	n.1024G>A	c.759G>A	p.(Met253Ile)	MUT_v001:c.759G>A	MUT_v001:p.(Met253Ile)		NM_000255.3	NP_000246.2	NM_000255.3(MUT_v001):c.759G>A	NM_000255.3(MUT_i001):p.(Met253Ile)		CviAII,FatI,NlaIII,NspI	
NM_000255.3:c.767T>A		NM_000255.3	MUT_v001	c.767T>A	n.1032T>A	c.767T>A	p.(Phe256Tyr)	MUT_v001:c.767T>A	MUT_v001:p.(Phe256Tyr)		NM_000255.3	NP_000246.2	NM_000255.3(MUT_v001):c.767T>A	NM_000255.3(MUT_i001):p.(Phe256Tyr)		ApoI,MseI	
NM_000255.3:c.785G>A		NM_000255.3	MUT_v001	c.785G>A	n.1050G>A	c.785G>A	p.(Ser262Asn)	MUT_v001:c.785G>A	MUT_v001:p.(Ser262Asn)		NM_000255.3	NP_000246.2	NM_000255.3(MUT_v001):c.785G>A	NM_000255.3(MUT_i001):p.(Ser262Asn)	AseI		
NM_000255.3:c.788G>T		NM_000255.3	MUT_v001	c.788G>T	n.1053G>T	c.788G>T	p.(Gly263Val)	MUT_v001:c.788G>T	MUT_v001:p.(Gly263Val)		NM_000255.3	NP_000246.2	NM_000255.3(MUT_v001):c.788G>T	NM_000255.3(MUT_i001):p.(Gly263Val)	AccI,BstZ17I,Hpy166II	BciVI	
NM_000255.3:c.793C>T		NM_000255.3	MUT_v001	c.793C>T	n.1058C>T	c.793C>T	p.(His265Tyr)	MUT_v001:c.793C>T	MUT_v001:p.(His265Tyr)		NM_000255.3	NP_000246.2	NM_000255.3(MUT_v001):c.793C>T	NM_000255.3(MUT_i001):p.(His265Tyr)		BslI,NdeI	
NM_000255.3:c.809_812dupGGGC		NM_000255.3	MUT_v001	c.809_812dupGGGC	n.1074_1077dup	c.809_812dup	p.(Asp272Glyfs*2)	MUT_v001:c.809_812dup	MUT_v001:p.(Asp272Glyfs*2)		NM_000255.3	NP_000246.2	NM_000255.3(MUT_v001):c.809_812dup	NM_000255.3(MUT_i001):p.(Asp272Glyfs*2)	AciI,FauI	AlwNI	
NM_000255.3:c.842T>C		NM_000255.3	MUT_v001	c.842T>C	n.1107T>C	c.842T>C	p.(Leu281Ser)	MUT_v001:c.842T>C	MUT_v001:p.(Leu281Ser)		NM_000255.3	NP_000246.2	NM_000255.3(MUT_v001):c.842T>C	NM_000255.3(MUT_i001):p.(Leu281Ser)	AcuI		
NM_000255.3:c.850G>T		NM_000255.3	MUT_v001	c.850G>T	n.1115G>T	c.850G>T	p.(Gly284*)	MUT_v001:c.850G>T	MUT_v001:p.(Gly284*)		NM_000255.3	NP_000246.2	NM_000255.3(MUT_v001):c.850G>T	NM_000255.3(MUT_i001):p.(Gly284*)		BccI	
NM_000255.3:c.862T>C		NM_000255.3	MUT_v001	c.862T>C	n.1127T>C	c.862T>C	p.(Ser288Pro)	MUT_v001:c.862T>C	MUT_v001:p.(Ser288Pro)		NM_000255.3	NP_000246.2	NM_000255.3(MUT_v001):c.862T>C	NM_000255.3(MUT_i001):p.(Ser288Pro)	BslI	Hpy188III,ScaI,XbaI	
NM_000255.3:c.872G>A		NM_000255.3	MUT_v001	c.872G>A	n.1137G>A	c.872G>A	p.(Gly291Glu)	MUT_v001:c.872G>A	MUT_v001:p.(Gly291Glu)		NM_000255.3	NP_000246.2	NM_000255.3(MUT_v001):c.872G>A	NM_000255.3(MUT_i001):p.(Gly291Glu)		BsrI,HinfI,MlyI,PleI	
NM_000255.3:c.878A>C		NM_000255.3	MUT_v001	c.878A>C	n.1143A>C	c.878A>C	p.(Gln293Pro)	MUT_v001:c.878A>C	MUT_v001:p.(Gln293Pro)		NM_000255.3	NP_000246.2	NM_000255.3(MUT_v001):c.878A>C	NM_000255.3(MUT_i001):p.(Gln293Pro)	HpaII,MspI,NciI	BpmI,BstNI,PspGI	
NM_000255.3:c.914T>C		NM_000255.3	MUT_v001	c.914T>C	n.1179T>C	c.914T>C	p.(Leu305Ser)	MUT_v001:c.914T>C	MUT_v001:p.(Leu305Ser)		NM_000255.3	NP_000246.2	NM_000255.3(MUT_v001):c.914T>C	NM_000255.3(MUT_i001):p.(Leu305Ser)	BcgI (2)		
NM_000255.3:c.917C>T		NM_000255.3	MUT_v001	c.917C>T	n.1182C>T	c.917C>T	p.(Ser306Phe)	MUT_v001:c.917C>T	MUT_v001:p.(Ser306Phe)		NM_000255.3	NP_000246.2	NM_000255.3(MUT_v001):c.917C>T	NM_000255.3(MUT_i001):p.(Ser306Phe)			
NM_000255.3:c.935G>T		NM_000255.3	MUT_v001	c.935G>T	n.1200G>T	c.935G>T	p.(Gly312Val)	MUT_v001:c.935G>T	MUT_v001:p.(Gly312Val)		NM_000255.3	NP_000246.2	NM_000255.3(MUT_v001):c.935G>T	NM_000255.3(MUT_i001):p.(Gly312Val)			
NM_000255.3:c.947A>G		NM_000255.3	MUT_v001	c.947A>G	n.1212A>G	c.947A>G	p.(Tyr316Cys)	MUT_v001:c.947A>G	MUT_v001:p.(Tyr316Cys)		NM_000255.3	NP_000246.2	NM_000255.3(MUT_v001):c.947A>G	NM_000255.3(MUT_i001):p.(Tyr316Cys)			
NM_000255.3:c.970G>A		NM_000255.3	MUT_v001	c.970G>A	n.1235G>A	c.970G>A	p.(Ala324Thr)	MUT_v001:c.970G>A	MUT_v001:p.(Ala324Thr)		NM_000255.3	NP_000246.2	NM_000255.3(MUT_v001):c.970G>A	NM_000255.3(MUT_i001):p.(Ala324Thr)	BsrI	AluI	
NM_000255.3:c.972delT		NM_000255.3	MUT_v001	c.972delT	n.1237del	c.972del	p.(Gly325Valfs*8)	MUT_v001:c.972del	MUT_v001:p.(Gly325Valfs*8)		NM_000255.3	NP_000246.2	NM_000255.3(MUT_v001):c.972del	NM_000255.3(MUT_i001):p.(Gly325Valfs*8)	AciI,BsrBI	AluI	
NM_000255.3:c.982C>T		NM_000255.3	MUT_v001	c.982C>T	n.1247C>T	c.982C>T	p.(Leu328Phe)	MUT_v001:c.982C>T	MUT_v001:p.(Leu328Phe)		NM_000255.3	NP_000246.2	NM_000255.3(MUT_v001):c.982C>T	NM_000255.3(MUT_i001):p.(Leu328Phe)	TfiI	BbsI,MlyI,PleI	
NM_000255.3:c.983T>C		NM_000255.3	MUT_v001	c.983T>C	n.1248T>C	c.983T>C	p.(Leu328Pro)	MUT_v001:c.983T>C	MUT_v001:p.(Leu328Pro)		NM_000255.3	NP_000246.2	NM_000255.3(MUT_v001):c.983T>C	NM_000255.3(MUT_i001):p.(Leu328Pro)	BsaJI,BssKI,BstNI,PspGI,ScrFI,StyD4I	HinfI,MlyI,PleI	
NM_000255.3:c.1022_1023dupA		NM_000255.3	MUT_v001	c.1022_1023dupA	n.1287_1288dup	c.1022_1023dup	p.(Ser342Thrfs*7)	MUT_v001:c.1022_1023dup	MUT_v001:p.(Ser342Thrfs*7)		NM_000255.3	NP_000246.2	NM_000255.3(MUT_v001):c.1022_1023dup	NM_000255.3(MUT_i001):p.(Ser342Thrfs*7)			
NM_000255.3:c.1022dupA		NM_000255.3	MUT_v001	c.1022dupA	n.1287dup	c.1022dup	p.(Asn341Lysfs*20)	MUT_v001:c.1022dup	MUT_v001:p.(Asn341Lysfs*20)		NM_000255.3	NP_000246.2	NM_000255.3(MUT_v001):c.1022dup	NM_000255.3(MUT_i001):p.(Asn341Lysfs*20)			
NM_000255.3:c.1025C>A		NM_000255.3	MUT_v001	c.1025C>A	n.1290C>A	c.1025C>A	p.(Ser342*)	MUT_v001:c.1025C>A	MUT_v001:p.(Ser342*)		NM_000255.3	NP_000246.2	NM_000255.3(MUT_v001):c.1025C>A	NM_000255.3(MUT_i001):p.(Ser342*)			
NM_000255.3:c.1029delA		NM_000255.3	MUT_v001	c.1029delA	n.1294del	c.1029del	p.(Lys343Asnfs*5)	MUT_v001:c.1029del	MUT_v001:p.(Lys343Asnfs*5)		NM_000255.3	NP_000246.2	NM_000255.3(MUT_v001):c.1029del	NM_000255.3(MUT_i001):p.(Lys343Asnfs*5)			
NM_000255.3:c.1038_1040delTCT		NM_000255.3	MUT_v001	c.1038_1040delTCT	n.1303_1305del	c.1038_1040del	p.(Leu347del)	MUT_v001:c.1038_1040del	MUT_v001:p.(Leu347del)		NM_000255.3	NP_000246.2	NM_000255.3(MUT_v001):c.1038_1040del	NM_000255.3(MUT_i001):p.(Leu347del)			
NM_000255.3:c.1040T>G		NM_000255.3	MUT_v001	c.1040T>G	n.1305T>G	c.1040T>G	p.(Leu347Arg)	MUT_v001:c.1040T>G	MUT_v001:p.(Leu347Arg)		NM_000255.3	NP_000246.2	NM_000255.3(MUT_v001):c.1040T>G	NM_000255.3(MUT_i001):p.(Leu347Arg)	BspQI,BstBI,SapI,TaqI	DdeI	
NM_000255.3:c.1048C>T		NM_000255.3	MUT_v001	c.1048C>T	n.1313C>T	c.1048C>T	p.(His350Tyr)	MUT_v001:c.1048C>T	MUT_v001:p.(His350Tyr)		NM_000255.3	NP_000246.2	NM_000255.3(MUT_v001):c.1048C>T	NM_000255.3(MUT_i001):p.(His350Tyr)		BsiHKAI,Bsp1286I,BtsIMutI,TspRI	
NM_000255.3:c.1054C>T		NM_000255.3	MUT_v001	c.1054C>T	n.1319C>T	c.1054C>T	p.(Gln352*)	MUT_v001:c.1054C>T	MUT_v001:p.(Gln352*)		NM_000255.3	NP_000246.2	NM_000255.3(MUT_v001):c.1054C>T	NM_000255.3(MUT_i001):p.(Gln352*)		Hpy188I	
NM_000255.3:c.1062delTinsCATCCAGA		NM_000255.3	MUT_v001	c.1062delTinsCATCCAGA	n.1327delinsCATCCAGA	c.1062delinsCATCCAGA	p.(Gly355Ilefs*8)	MUT_v001:c.1062delinsCATCCAGA	MUT_v001:p.(Gly355Ilefs*8)		NM_000255.3	NP_000246.2	NM_000255.3(MUT_v001):c.1062delinsCATCCAGA	NM_000255.3(MUT_i001):p.(Gly355Ilefs*8)	BslI,MnlI,PflMI,XcmI	MslI	
NM_000255.3:c.1068G>A		NM_000255.3	MUT_v001	c.1068G>A	n.1333G>A	c.1068G>A	p.(Trp356*)	MUT_v001:c.1068G>A	MUT_v001:p.(Trp356*)		NM_000255.3	NP_000246.2	NM_000255.3(MUT_v001):c.1068G>A	NM_000255.3(MUT_i001):p.(Trp356*)	BclI	BccI,Tsp45I	
NM_000255.3:c.1073T>C		NM_000255.3	MUT_v001	c.1073T>C	n.1338T>C	c.1073T>C	p.(Leu358Pro)	MUT_v001:c.1073T>C	MUT_v001:p.(Leu358Pro)		NM_000255.3	NP_000246.2	NM_000255.3(MUT_v001):c.1073T>C	NM_000255.3(MUT_i001):p.(Leu358Pro)	BstEII,HphI		
NM_000255.3:c.1083+2T>A	(variantchecker): Intronic position given for a non-genomic reference sequence.	
NM_000255.3:c.1097A>G		NM_000255.3	MUT_v001	c.1097A>G	n.1362A>G	c.1097A>G	p.(Asn366Ser)	MUT_v001:c.1097A>G	MUT_v001:p.(Asn366Ser)		NM_000255.3	NP_000246.2	NM_000255.3(MUT_v001):c.1097A>G	NM_000255.3(MUT_i001):p.(Asn366Ser)		SspI	
NM_000255.3:c.1105C>T		NM_000255.3	MUT_v001	c.1105C>T	n.1370C>T	c.1105C>T	p.(Arg369Cys)	MUT_v001:c.1105C>T	MUT_v001:p.(Arg369Cys)		NM_000255.3	NP_000246.2	NM_000255.3(MUT_v001):c.1105C>T	NM_000255.3(MUT_i001):p.(Arg369Cys)			
NM_000255.3:c.1106G>A		NM_000255.3	MUT_v001	c.1106G>A	n.1371G>A	c.1106G>A	p.(Arg369His)	MUT_v001:c.1106G>A	MUT_v001:p.(Arg369His)		NM_000255.3	NP_000246.2	NM_000255.3(MUT_v001):c.1106G>A	NM_000255.3(MUT_i001):p.(Arg369His)		CviQI,RsaI	
NM_000255.3:c.1108A>C		NM_000255.3	MUT_v001	c.1108A>C	n.1373A>C	c.1108A>C	p.(Thr370Pro)	MUT_v001:c.1108A>C	MUT_v001:p.(Thr370Pro)		NM_000255.3	NP_000246.2	NM_000255.3(MUT_v001):c.1108A>C	NM_000255.3(MUT_i001):p.(Thr370Pro)	LpnPI	CviQI,RsaI	
NM_000255.3:c.1130C>A		NM_000255.3	MUT_v001	c.1130C>A	n.1395C>A	c.1130C>A	p.(Ala377Glu)	MUT_v001:c.1130C>A	MUT_v001:p.(Ala377Glu)		NM_000255.3	NP_000246.2	NM_000255.3(MUT_v001):c.1130C>A	NM_000255.3(MUT_i001):p.(Ala377Glu)		ApeKI,BbvI,Fnu4HI,TseI	
NM_000255.3:c.1148A>C		NM_000255.3	MUT_v001	c.1148A>C	n.1413A>C	c.1148A>C	p.(Gln383Pro)	MUT_v001:c.1148A>C	MUT_v001:p.(Gln383Pro)		NM_000255.3	NP_000246.2	NM_000255.3(MUT_v001):c.1148A>C	NM_000255.3(MUT_i001):p.(Gln383Pro)		BspCNI,DdeI	
NM_000255.3:c.1149G>T		NM_000255.3	MUT_v001	c.1149G>T	n.1414G>T	c.1149G>T	p.(Gln383His)	MUT_v001:c.1149G>T	MUT_v001:p.(Gln383His)		NM_000255.3	NP_000246.2	NM_000255.3(MUT_v001):c.1149G>T	NM_000255.3(MUT_i001):p.(Gln383His)		BspCNI,DdeI,PflFI,Tth111I	
NM_000255.3:c.1156C>A		NM_000255.3	MUT_v001	c.1156C>A	n.1421C>A	c.1156C>A	p.(His386Asn)	MUT_v001:c.1156C>A	MUT_v001:p.(His386Asn)		NM_000255.3	NP_000246.2	NM_000255.3(MUT_v001):c.1156C>A	NM_000255.3(MUT_i001):p.(His386Asn)		HpyCH4V	
NM_000255.3:c.1157A>G		NM_000255.3	MUT_v001	c.1157A>G	n.1422A>G	c.1157A>G	p.(His386Arg)	MUT_v001:c.1157A>G	MUT_v001:p.(His386Arg)		NM_000255.3	NP_000246.2	NM_000255.3(MUT_v001):c.1157A>G	NM_000255.3(MUT_i001):p.(His386Arg)	FspI,HhaI,HinP1I	HpyCH4V	
NM_000255.3:c.1160C>T		NM_000255.3	MUT_v001	c.1160C>T	n.1425C>T	c.1160C>T	p.(Thr387Ile)	MUT_v001:c.1160C>T	MUT_v001:p.(Thr387Ile)		NM_000255.3	NP_000246.2	NM_000255.3(MUT_v001):c.1160C>T	NM_000255.3(MUT_i001):p.(Thr387Ile)			
NM_000255.3:c.1162A>C		NM_000255.3	MUT_v001	c.1162A>C	n.1427A>C	c.1162A>C	p.(Asn388His)	MUT_v001:c.1162A>C	MUT_v001:p.(Asn388His)		NM_000255.3	NP_000246.2	NM_000255.3(MUT_v001):c.1162A>C	NM_000255.3(MUT_i001):p.(Asn388His)		ApoI,MluCI	
NM_000255.3:c.1166_1168delCTT		NM_000255.3	MUT_v001	c.1166_1168delCTT	n.1431_1433del	c.1166_1168del	p.(Ser389del)	MUT_v001:c.1166_1168del	MUT_v001:p.(Ser389del)		NM_000255.3	NP_000246.2	NM_000255.3(MUT_v001):c.1166_1168del	NM_000255.3(MUT_i001):p.(Ser389del)			
NM_000255.3:c.1182G>A		NM_000255.3	MUT_v001	c.1182G>A	n.1447G>A	c.1182G>A	p.(=)	MUT_v001:c.1182G>A	MUT_v001:p.(=)		NM_000255.3	NP_000246.2	NM_000255.3(MUT_v001):c.1182G>A	NM_000255.3(MUT_i001):p.(=)			
NM_000255.3:c.1196_1197delTG		NM_000255.3	MUT_v001	c.1196_1197delTG	n.1461_1462del	c.1196_1197del	p.(Val399Glufs*24)	MUT_v001:c.1196_1197del	MUT_v001:p.(Val399Glufs*24)		NM_000255.3	NP_000246.2	NM_000255.3(MUT_v001):c.1196_1197del	NM_000255.3(MUT_i001):p.(Val399Glufs*24)		HpyCH4III	
NM_000255.3:c.1207C>T		NM_000255.3	MUT_v001	c.1207C>T	n.1472C>T	c.1207C>T	p.(Arg403*)	MUT_v001:c.1207C>T	MUT_v001:p.(Arg403*)		NM_000255.3	NP_000246.2	NM_000255.3(MUT_v001):c.1207C>T	NM_000255.3(MUT_i001):p.(Arg403*)		BsiHKAI,Bsp1286I,TaqI	
NM_000255.3:c.1233_1235delCAT		NM_000255.3	MUT_v001	c.1233_1235delCAT	n.1498_1500del	c.1233_1235del	p.(Ile412del)	MUT_v001:c.1233_1235del	MUT_v001:p.(Ile412del)		NM_000255.3	NP_000246.2	NM_000255.3(MUT_v001):c.1233_1235del	NM_000255.3(MUT_i001):p.(Ile412del)			
NM_000255.3:c.1237C>T		NM_000255.3	MUT_v001	c.1237C>T	n.1502C>T	c.1237C>T	p.(Gln413*)	MUT_v001:c.1237C>T	MUT_v001:p.(Gln413*)		NM_000255.3	NP_000246.2	NM_000255.3(MUT_v001):c.1237C>T	NM_000255.3(MUT_i001):p.(Gln413*)	MseI	Hpy188III	
NM_000255.3:c.1276G>A		NM_000255.3	MUT_v001	c.1276G>A	n.1541G>A	c.1276G>A	p.(Gly426Arg)	MUT_v001:c.1276G>A	MUT_v001:p.(Gly426Arg)		NM_000255.3	NP_000246.2	NM_000255.3(MUT_v001):c.1276G>A	NM_000255.3(MUT_i001):p.(Gly426Arg)			
NM_000255.3:c.1276G>T		NM_000255.3	MUT_v001	c.1276G>T	n.1541G>T	c.1276G>T	p.(Gly426*)	MUT_v001:c.1276G>T	MUT_v001:p.(Gly426*)		NM_000255.3	NP_000246.2	NM_000255.3(MUT_v001):c.1276G>T	NM_000255.3(MUT_i001):p.(Gly426*)	HphI		
NM_000255.3:c.1280G>A		NM_000255.3	MUT_v001	c.1280G>A	n.1545G>A	c.1280G>A	p.(Gly427Asp)	MUT_v001:c.1280G>A	MUT_v001:p.(Gly427Asp)		NM_000255.3	NP_000246.2	NM_000255.3(MUT_v001):c.1280G>A	NM_000255.3(MUT_i001):p.(Gly427Asp)	HinfI,TfiI	BslI,EcoNI,MnlI	
NM_000255.3:c.1287C>G		NM_000255.3	MUT_v001	c.1287C>G	n.1552C>G	c.1287C>G	p.(Tyr429*)	MUT_v001:c.1287C>G	MUT_v001:p.(Tyr429*)		NM_000255.3	NP_000246.2	NM_000255.3(MUT_v001):c.1287C>G	NM_000255.3(MUT_i001):p.(Tyr429*)	DdeI	CviAII,FatI,NlaIII	
NM_000255.3:c.1301_1302delTC		NM_000255.3	MUT_v001	c.1301_1302delTC	n.1566_1567del	c.1301_1302del	p.(Leu434Hisfs*3)	MUT_v001:c.1301_1302del	MUT_v001:p.(Leu434Hisfs*3)		NM_000255.3	NP_000246.2	NM_000255.3(MUT_v001):c.1301_1302del	NM_000255.3(MUT_i001):p.(Leu434Hisfs*3)	Tsp45I	BcoDI,BsmAI	
NM_000255.3:c.1328dupT		NM_000255.3	MUT_v001	c.1328dupT	n.1593dup	c.1328dup	p.(Leu443Phefs*5)	MUT_v001:c.1328dup	MUT_v001:p.(Leu443Phefs*5)		NM_000255.3	NP_000246.2	NM_000255.3(MUT_v001):c.1328dup	NM_000255.3(MUT_i001):p.(Leu443Phefs*5)	MwoI		
NM_000255.3:c.1332+1delG	(variantchecker): Intronic position given for a non-genomic reference sequence.	
NM_000255.3:c.1361G>A		NM_000255.3	MUT_v001	c.1361G>A	n.1626G>A	c.1361G>A	p.(Gly454Glu)	MUT_v001:c.1361G>A	MUT_v001:p.(Gly454Glu)		NM_000255.3	NP_000246.2	NM_000255.3(MUT_v001):c.1361G>A	NM_000255.3(MUT_i001):p.(Gly454Glu)	HphI		
NM_000255.3:c.1399C>T		NM_000255.3	MUT_v001	c.1399C>T	n.1664C>T	c.1399C>T	p.(Arg467*)	MUT_v001:c.1399C>T	MUT_v001:p.(Arg467*)		NM_000255.3	NP_000246.2	NM_000255.3(MUT_v001):c.1399C>T	NM_000255.3(MUT_i001):p.(Arg467*)		BstBI,TaqI	
NM_000255.3:c.1420C>T		NM_000255.3	MUT_v001	c.1420C>T	n.1685C>T	c.1420C>T	p.(Arg474*)	MUT_v001:c.1420C>T	MUT_v001:p.(Arg474*)		NM_000255.3	NP_000246.2	NM_000255.3(MUT_v001):c.1420C>T	NM_000255.3(MUT_i001):p.(Arg474*)	AcuI		
NM_000255.3:c.1426C>T		NM_000255.3	MUT_v001	c.1426C>T	n.1691C>T	c.1426C>T	p.(Gln476*)	MUT_v001:c.1426C>T	MUT_v001:p.(Gln476*)		NM_000255.3	NP_000246.2	NM_000255.3(MUT_v001):c.1426C>T	NM_000255.3(MUT_i001):p.(Gln476*)		BbsI	
NM_000255.3:c.1481T>A		NM_000255.3	MUT_v001	c.1481T>A	n.1746T>A	c.1481T>A	p.(Leu494*)	MUT_v001:c.1481T>A	MUT_v001:p.(Leu494*)		NM_000255.3	NP_000246.2	NM_000255.3(MUT_v001):c.1481T>A	NM_000255.3(MUT_i001):p.(Leu494*)		MmeI	
NM_000255.3:c.1482_1501del20		NM_000255.3	MUT_v001	c.1482_1501del20	n.1747_1766del	c.1482_1501del	p.(Glu495Serfs*5)	MUT_v001:c.1482_1501del	MUT_v001:p.(Glu495Serfs*5)		NM_000255.3	NP_000246.2	NM_000255.3(MUT_v001):c.1482_1501del	NM_000255.3(MUT_i001):p.(Glu495Serfs*5)	MseI,XcmI	BbsI,HgaI,MboII,MmeI,SfcI	
NM_000255.3:c.1531C>T		NM_000255.3	MUT_v001	c.1531C>T	n.1796C>T	c.1531C>T	p.(Arg511*)	MUT_v001:c.1531C>T	MUT_v001:p.(Arg511*)		NM_000255.3	NP_000246.2	NM_000255.3(MUT_v001):c.1531C>T	NM_000255.3(MUT_i001):p.(Arg511*)		MwoI	
NM_000255.3:c.1541delA		NM_000255.3	MUT_v001	c.1541delA	n.1806del	c.1541del	p.(Gln514Argfs*24)	MUT_v001:c.1541del	MUT_v001:p.(Gln514Argfs*24)		NM_000255.3	NP_000246.2	NM_000255.3(MUT_v001):c.1541del	NM_000255.3(MUT_i001):p.(Gln514Argfs*24)			
NM_000255.3:c.1553T>C		NM_000255.3	MUT_v001	c.1553T>C	n.1818T>C	c.1553T>C	p.(Leu518Pro)	MUT_v001:c.1553T>C	MUT_v001:p.(Leu518Pro)		NM_000255.3	NP_000246.2	NM_000255.3(MUT_v001):c.1553T>C	NM_000255.3(MUT_i001):p.(Leu518Pro)	DdeI	AflII,MseI,SmlI	
NM_000255.3:c.1560+3A>G	(variantchecker): Intronic position given for a non-genomic reference sequence.	
NM_000255.3:c.1560+1G>T	(variantchecker): Intronic position given for a non-genomic reference sequence.	
NM_000255.3:c.1560G>C		NM_000255.3	MUT_v001	c.1560G>C	n.1825G>C	c.1560G>C	p.(Lys520Asn)	MUT_v001:c.1560G>C	MUT_v001:p.(Lys520Asn)		NM_000255.3	NP_000246.2	NM_000255.3(MUT_v001):c.1560G>C	NM_000255.3(MUT_i001):p.(Lys520Asn)		MboII	
NM_000255.3:c.1560+1G>A	(variantchecker): Intronic position given for a non-genomic reference sequence.	
NM_000255.3:c.1571G>A		NM_000255.3	MUT_v001	c.1571G>A	n.1836G>A	c.1571G>A	p.(Ser524Asn)	MUT_v001:c.1571G>A	MUT_v001:p.(Ser524Asn)		NM_000255.3	NP_000246.2	NM_000255.3(MUT_v001):c.1571G>A	NM_000255.3(MUT_i001):p.(Ser524Asn)	MmeI		
NM_000255.3:c.1588_1595delGCTGAACG		NM_000255.3	MUT_v001	c.1588_1595delGCTGAACG	n.1853_1860del	c.1588_1595del	p.(Ala530Leufs*11)	MUT_v001:c.1588_1595del	MUT_v001:p.(Ala530Leufs*11)		NM_000255.3	NP_000246.2	NM_000255.3(MUT_v001):c.1588_1595del	NM_000255.3(MUT_i001):p.(Ala530Leufs*11)		AclI,HpyCH4IV	
NM_000255.3:c.1620T>A		NM_000255.3	MUT_v001	c.1620T>A	n.1885T>A	c.1620T>A	p.(Cys540*)	MUT_v001:c.1620T>A	MUT_v001:p.(Cys540*)		NM_000255.3	NP_000246.2	NM_000255.3(MUT_v001):c.1620T>A	NM_000255.3(MUT_i001):p.(Cys540*)	AluI,CviKI_1		
NM_000255.3:c.1630_1631delGGinsTA		NM_000255.3	MUT_v001	c.1630_1631delGGinsTA	n.1895_1896delinsTA	c.1630_1631delinsTA	p.(Gly544*)	MUT_v001:c.1630_1631delinsTA	MUT_v001:p.(Gly544*)		NM_000255.3	NP_000246.2	NM_000255.3(MUT_v001):c.1630_1631delinsTA	NM_000255.3(MUT_i001):p.(Gly544*)	AluI,DdeI	AciI	
NM_000255.3:c.1658delT		NM_000255.3	MUT_v001	c.1658delT	n.1923del	c.1658del	p.(Val553Glyfs*17)	MUT_v001:c.1658del	MUT_v001:p.(Val553Glyfs*17)		NM_000255.3	NP_000246.2	NM_000255.3(MUT_v001):c.1658del	NM_000255.3(MUT_i001):p.(Val553Glyfs*17)		BstAPI,BtsI,BtsIMutI,TspRI	
NM_000255.3:c.1677-2A>C	(variantchecker): Intronic position given for a non-genomic reference sequence.	
NM_000255.3:c.1677-1G>C	(variantchecker): Intronic position given for a non-genomic reference sequence.	
NM_000255.3:c.1677-1G>A	(variantchecker): Intronic position given for a non-genomic reference sequence.	
NM_000255.3:c.1679G>A		NM_000255.3	MUT_v001	c.1679G>A	n.1944G>A	c.1679G>A	p.(Cys560Tyr)	MUT_v001:c.1679G>A	MUT_v001:p.(Cys560Tyr)		NM_000255.3	NP_000246.2	NM_000255.3(MUT_v001):c.1679G>A	NM_000255.3(MUT_i001):p.(Cys560Tyr)		BsrGI,CviQI,RsaI	
NM_000255.3:c.1697C>G		NM_000255.3	MUT_v001	c.1697C>G	n.1962C>G	c.1697C>G	p.(Thr566Arg)	MUT_v001:c.1697C>G	MUT_v001:p.(Thr566Arg)		NM_000255.3	NP_000246.2	NM_000255.3(MUT_v001):c.1697C>G	NM_000255.3(MUT_i001):p.(Thr566Arg)	Hpy188I		
NM_000255.3:c.1718T>C		NM_000255.3	MUT_v001	c.1718T>C	n.1983T>C	c.1718T>C	p.(Phe573Ser)	MUT_v001:c.1718T>C	MUT_v001:p.(Phe573Ser)		NM_000255.3	NP_000246.2	NM_000255.3(MUT_v001):c.1718T>C	NM_000255.3(MUT_i001):p.(Phe573Ser)			
NM_000255.3:c.1741C>T		NM_000255.3	MUT_v001	c.1741C>T	n.2006C>T	c.1741C>T	p.(Arg581*)	MUT_v001:c.1741C>T	MUT_v001:p.(Arg581*)		NM_000255.3	NP_000246.2	NM_000255.3(MUT_v001):c.1741C>T	NM_000255.3(MUT_i001):p.(Arg581*)		BfuCI,DpnI,DpnII,MboI,Sau3AI,TaqI	
NM_000255.3:c.1760A>G		NM_000255.3	MUT_v001	c.1760A>G	n.2025A>G	c.1760A>G	p.(Tyr587Cys)	MUT_v001:c.1760A>G	MUT_v001:p.(Tyr587Cys)		NM_000255.3	NP_000246.2	NM_000255.3(MUT_v001):c.1760A>G	NM_000255.3(MUT_i001):p.(Tyr587Cys)	CviAII,FatI,NlaIII,NspI		
NM_000255.3:c.1765C>T		NM_000255.3	MUT_v001	c.1765C>T	n.2030C>T	c.1765C>T	p.(Gln589*)	MUT_v001:c.1765C>T	MUT_v001:p.(Gln589*)		NM_000255.3	NP_000246.2	NM_000255.3(MUT_v001):c.1765C>T	NM_000255.3(MUT_i001):p.(Gln589*)	BfaI	BssKI,BstNI,BstXI,LpnPI,PspGI,ScrFI,StyD4I	
NM_000255.3:c.1782_1786delTAAAG		NM_000255.3	MUT_v001	c.1782_1786delTAAAG	n.2047_2051del	c.1782_1786del	p.(Ser594Argfs*11)	MUT_v001:c.1782_1786del	MUT_v001:p.(Ser594Argfs*11)		NM_000255.3	NP_000246.2	NM_000255.3(MUT_v001):c.1782_1786del	NM_000255.3(MUT_i001):p.(Ser594Argfs*11)			
NM_000255.3:c.1808G>C		NM_000255.3	MUT_v001	c.1808G>C	n.2073G>C	c.1808G>C	p.(Arg603Thr)	MUT_v001:c.1808G>C	MUT_v001:p.(Arg603Thr)		NM_000255.3	NP_000246.2	NM_000255.3(MUT_v001):c.1808G>C	NM_000255.3(MUT_i001):p.(Arg603Thr)	HpyCH4III	MnlI	
NM_000255.3:c.1843C>A		NM_000255.3	MUT_v001	c.1843C>A	n.2108C>A	c.1843C>A	p.(Pro615Thr)	MUT_v001:c.1843C>A	MUT_v001:p.(Pro615Thr)		NM_000255.3	NP_000246.2	NM_000255.3(MUT_v001):c.1843C>A	NM_000255.3(MUT_i001):p.(Pro615Thr)		MnlI,PflFI,Tth111I	
NM_000255.3:c.1844C>T		NM_000255.3	MUT_v001	c.1844C>T	n.2109C>T	c.1844C>T	p.(Pro615Leu)	MUT_v001:c.1844C>T	MUT_v001:p.(Pro615Leu)		NM_000255.3	NP_000246.2	NM_000255.3(MUT_v001):c.1844C>T	NM_000255.3(MUT_i001):p.(Pro615Leu)		MnlI	
NM_000255.3:c.1844C>G		NM_000255.3	MUT_v001	c.1844C>G	n.2109C>G	c.1844C>G	p.(Pro615Arg)	MUT_v001:c.1844C>G	MUT_v001:p.(Pro615Arg)		NM_000255.3	NP_000246.2	NM_000255.3(MUT_v001):c.1844C>G	NM_000255.3(MUT_i001):p.(Pro615Arg)	AatII,BsaHI,Hpy99I,ZraI	MnlI	
NM_000255.3:c.1846C>T		NM_000255.3	MUT_v001	c.1846C>T	n.2111C>T	c.1846C>T	p.(Arg616Cys)	MUT_v001:c.1846C>T	MUT_v001:p.(Arg616Cys)		NM_000255.3	NP_000246.2	NM_000255.3(MUT_v001):c.1846C>T	NM_000255.3(MUT_i001):p.(Arg616Cys)		MnlI	
NM_000255.3:c.1850T>G		NM_000255.3	MUT_v001	c.1850T>G	n.2115T>G	c.1850T>G	p.(Leu617Arg)	MUT_v001:c.1850T>G	MUT_v001:p.(Leu617Arg)		NM_000255.3	NP_000246.2	NM_000255.3(MUT_v001):c.1850T>G	NM_000255.3(MUT_i001):p.(Leu617Arg)	DrdI,Hpy99I	BbsI,MboII	
NM_000255.3:c.1863A>T		NM_000255.3	MUT_v001	c.1863A>T	n.2128A>T	c.1863A>T	p.(Lys621Asn)	MUT_v001:c.1863A>T	MUT_v001:p.(Lys621Asn)		NM_000255.3	NP_000246.2	NM_000255.3(MUT_v001):c.1863A>T	NM_000255.3(MUT_i001):p.(Lys621Asn)			
NM_000255.3:c.1867G>A		NM_000255.3	MUT_v001	c.1867G>A	n.2132G>A	c.1867G>A	p.(Gly623Arg)	MUT_v001:c.1867G>A	MUT_v001:p.(Gly623Arg)		NM_000255.3	NP_000246.2	NM_000255.3(MUT_v001):c.1867G>A	NM_000255.3(MUT_i001):p.(Gly623Arg)	BcoDI,BsmAI	BsmFI	
NM_000255.3:c.1867G>C		NM_000255.3	MUT_v001	c.1867G>C	n.2132G>C	c.1867G>C	p.(Gly623Arg)	MUT_v001:c.1867G>C	MUT_v001:p.(Gly623Arg)		NM_000255.3	NP_000246.2	NM_000255.3(MUT_v001):c.1867G>C	NM_000255.3(MUT_i001):p.(Gly623Arg)		BsmFI	
NM_000255.3:c.1871A>G		NM_000255.3	MUT_v001	c.1871A>G	n.2136A>G	c.1871A>G	p.(Gln624Arg)	MUT_v001:c.1871A>G	MUT_v001:p.(Gln624Arg)		NM_000255.3	NP_000246.2	NM_000255.3(MUT_v001):c.1871A>G	NM_000255.3(MUT_i001):p.(Gln624Arg)			
NM_000255.3:c.1874A>T		NM_000255.3	MUT_v001	c.1874A>T	n.2139A>T	c.1874A>T	p.(Asp625Val)	MUT_v001:c.1874A>T	MUT_v001:p.(Asp625Val)		NM_000255.3	NP_000246.2	NM_000255.3(MUT_v001):c.1874A>T	NM_000255.3(MUT_i001):p.(Asp625Val)		BccI	
NM_000255.3:c.1876G>T		NM_000255.3	MUT_v001	c.1876G>T	n.2141G>T	c.1876G>T	p.(Gly626Cys)	MUT_v001:c.1876G>T	MUT_v001:p.(Gly626Cys)		NM_000255.3	NP_000246.2	NM_000255.3(MUT_v001):c.1876G>T	NM_000255.3(MUT_i001):p.(Gly626Cys)		BccI,CviKI_1,EaeI,HaeIII,MscI	
NM_000255.3:c.1877_1889del13		NM_000255.3	MUT_v001	c.1877_1889del13	n.2142_2154del	c.1877_1889del	p.(Gly626Glufs*18)	MUT_v001:c.1877_1889del	MUT_v001:p.(Gly626Glufs*18)		NM_000255.3	NP_000246.2	NM_000255.3(MUT_v001):c.1877_1889del	NM_000255.3(MUT_i001):p.(Gly626Glufs*18)		BccI,BsaXI (2),BseRI,CviAII,CviKI_1,EaeI,FatI,HaeIII,MnlI,MscI,NlaIII	
NM_000255.3:c.1880A>G		NM_000255.3	MUT_v001	c.1880A>G	n.2145A>G	c.1880A>G	p.(His627Arg)	MUT_v001:c.1880A>G	MUT_v001:p.(His627Arg)		NM_000255.3	NP_000246.2	NM_000255.3(MUT_v001):c.1880A>G	NM_000255.3(MUT_i001):p.(His627Arg)	BceAI,Tsp45I	CviAII,FatI,MscI,NlaIII	
NM_000255.3:c.1885dupA		NM_000255.3	MUT_v001	c.1885dupA	n.2150dup	c.1885dup	p.(Arg629Lysfs*12)	MUT_v001:c.1885dup	MUT_v001:p.(Arg629Lysfs*12)		NM_000255.3	NP_000246.2	NM_000255.3(MUT_v001):c.1885dup	NM_000255.3(MUT_i001):p.(Arg629Lysfs*12)			
NM_000255.3:c.1885A>G		NM_000255.3	MUT_v001	c.1885A>G	n.2150A>G	c.1885A>G	p.(Arg629Gly)	MUT_v001:c.1885A>G	MUT_v001:p.(Arg629Gly)		NM_000255.3	NP_000246.2	NM_000255.3(MUT_v001):c.1885A>G	NM_000255.3(MUT_i001):p.(Arg629Gly)			
NM_000255.3:c.1889G>A		NM_000255.3	MUT_v001	c.1889G>A	n.2154G>A	c.1889G>A	p.(Gly630Glu)	MUT_v001:c.1889G>A	MUT_v001:p.(Gly630Glu)		NM_000255.3	NP_000246.2	NM_000255.3(MUT_v001):c.1889G>A	NM_000255.3(MUT_i001):p.(Gly630Glu)		BsaXI (2),BseRI,MnlI	
NM_000255.3:c.1891delG		NM_000255.3	MUT_v001	c.1891delG	n.2156del	c.1891del	p.(Ala631Glnfs*17)	MUT_v001:c.1891del	MUT_v001:p.(Ala631Glnfs*17)		NM_000255.3	NP_000246.2	NM_000255.3(MUT_v001):c.1891del	NM_000255.3(MUT_i001):p.(Ala631Glnfs*17)		BsaXI (2),BseRI	
NM_000255.3:c.1898T>G		NM_000255.3	MUT_v001	c.1898T>G	n.2163T>G	c.1898T>G	p.(Val633Gly)	MUT_v001:c.1898T>G	MUT_v001:p.(Val633Gly)		NM_000255.3	NP_000246.2	NM_000255.3(MUT_v001):c.1898T>G	NM_000255.3(MUT_i001):p.(Val633Gly)		BsaXI (2)	
NM_000255.3:c.1909G>A		NM_000255.3	MUT_v001	c.1909G>A	n.2174G>A	c.1909G>A	p.(Gly637Arg)	MUT_v001:c.1909G>A	MUT_v001:p.(Gly637Arg)		NM_000255.3	NP_000246.2	NM_000255.3(MUT_v001):c.1909G>A	NM_000255.3(MUT_i001):p.(Gly637Arg)		LpnPI,SfcI	
NM_000255.3:c.1910G>A		NM_000255.3	MUT_v001	c.1910G>A	n.2175G>A	c.1910G>A	p.(Gly637Glu)	MUT_v001:c.1910G>A	MUT_v001:p.(Gly637Glu)		NM_000255.3	NP_000246.2	NM_000255.3(MUT_v001):c.1910G>A	NM_000255.3(MUT_i001):p.(Gly637Glu)	ApoI,MluCI	LpnPI	
NM_000255.3:c.1912T>A		NM_000255.3	MUT_v001	c.1912T>A	n.2177T>A	c.1912T>A	p.(Phe638Ile)	MUT_v001:c.1912T>A	MUT_v001:p.(Phe638Ile)		NM_000255.3	NP_000246.2	NM_000255.3(MUT_v001):c.1912T>A	NM_000255.3(MUT_i001):p.(Phe638Ile)	MluCI		
NM_000255.3:c.1918G>T		NM_000255.3	MUT_v001	c.1918G>T	n.2183G>T	c.1918G>T	p.(Asp640Tyr)	MUT_v001:c.1918G>T	MUT_v001:p.(Asp640Tyr)		NM_000255.3	NP_000246.2	NM_000255.3(MUT_v001):c.1918G>T	NM_000255.3(MUT_i001):p.(Asp640Tyr)		BfuCI,DpnI,DpnII,MboI,Sau3AI	
NM_000255.3:c.1924G>C		NM_000255.3	MUT_v001	c.1924G>C	n.2189G>C	c.1924G>C	p.(Gly642Arg)	MUT_v001:c.1924G>C	MUT_v001:p.(Gly642Arg)		NM_000255.3	NP_000246.2	NM_000255.3(MUT_v001):c.1924G>C	NM_000255.3(MUT_i001):p.(Gly642Arg)	MboII		
NM_000255.3:c.1939A>T		NM_000255.3	MUT_v001	c.1939A>T	n.2204A>T	c.1939A>T	p.(Ile647Leu)	MUT_v001:c.1939A>T	MUT_v001:p.(Ile647Leu)		NM_000255.3	NP_000246.2	NM_000255.3(MUT_v001):c.1939A>T	NM_000255.3(MUT_i001):p.(Ile647Leu)	DdeI		
NM_000255.3:c.1943G>A		NM_000255.3	MUT_v001	c.1943G>A	n.2208G>A	c.1943G>A	p.(Gly648Asp)	MUT_v001:c.1943G>A	MUT_v001:p.(Gly648Asp)		NM_000255.3	NP_000246.2	NM_000255.3(MUT_v001):c.1943G>A	NM_000255.3(MUT_i001):p.(Gly648Asp)		CviKI_1,EcoO109I,HaeIII,Sau96I	
NM_000255.3:c.1946delC		NM_000255.3	MUT_v001	c.1946delC	n.2211del	c.1946del	p.(Pro649Leufs*23)	MUT_v001:c.1946del	MUT_v001:p.(Pro649Leufs*23)		NM_000255.3	NP_000246.2	NM_000255.3(MUT_v001):c.1946del	NM_000255.3(MUT_i001):p.(Pro649Leufs*23)	StuI	EcoO109I,Sau96I	
NM_000255.3:c.1956+1G>A	(variantchecker): Intronic position given for a non-genomic reference sequence.	
NM_000255.3:c.1957-2A>G	(variantchecker): Intronic position given for a non-genomic reference sequence.	
NM_000255.3:c.1957_2124del		NM_000255.3	MUT_v001	c.1957_2124del	n.2222_2389del	c.1957_2124del	p.(Thr653_Gln708del)	MUT_v001:c.1957_2124del	MUT_v001:p.(Thr653_Gln708del)		NM_000255.3	NP_000246.2	NM_000255.3(MUT_v001):c.1957_2124del	NM_000255.3(MUT_i001):p.(Thr653_Gln708del)	BssKI,BstNI,PspGI,ScrFI,StyD4I	AciI,ApeKI,BbvI,BceAI,BfaI,BglI,BsaJI,BseRI,BseYI,BslI,BspCNI,BssSI,Bsu36I,BtsCI (2),Cac8I (2),CviAII (2),DdeI,EaeI,FatI (2),Fnu4HI,FokI (2),HinfI,HphI,Hpy188III (4),HpyCH4V,MlyI,MseI,MwoI,NlaIII (2),NspI,PleI,SfaNI,SphI,StyI,TseI	
NM_000255.3:c.1957-898A>G	(variantchecker): Intronic position given for a non-genomic reference sequence.	
NM_000255.3:c.1962delT		NM_000255.3	MUT_v001	c.1962delT	n.2227del	c.1962del	p.(Arg655Valfs*17)	MUT_v001:c.1962del	MUT_v001:p.(Arg655Valfs*17)		NM_000255.3	NP_000246.2	NM_000255.3(MUT_v001):c.1962del	NM_000255.3(MUT_i001):p.(Arg655Valfs*17)	BslI	BseRI,BssSI	
NM_000255.3:c.1962_1963delTC		NM_000255.3	MUT_v001	c.1962_1963delTC	n.2227_2228del	c.1962_1963del	p.(Arg655*)	MUT_v001:c.1962_1963del	MUT_v001:p.(Arg655*)		NM_000255.3	NP_000246.2	NM_000255.3(MUT_v001):c.1962_1963del	NM_000255.3(MUT_i001):p.(Arg655*)	BslI	BseRI,BssSI	
NM_000255.3:c.2006T>A		NM_000255.3	MUT_v001	c.2006T>A	n.2271T>A	c.2006T>A	p.(Val669Glu)	MUT_v001:c.2006T>A	MUT_v001:p.(Val669Glu)		NM_000255.3	NP_000246.2	NM_000255.3(MUT_v001):c.2006T>A	NM_000255.3(MUT_i001):p.(Val669Glu)	BbvCI,Bpu10I,BspCNI,DdeI		
NM_000255.3:c.2009delG		NM_000255.3	MUT_v001	c.2009delG	n.2274del	c.2009del	p.(Gly670Alafs*2)	MUT_v001:c.2009del	MUT_v001:p.(Gly670Alafs*2)		NM_000255.3	NP_000246.2	NM_000255.3(MUT_v001):c.2009del	NM_000255.3(MUT_i001):p.(Gly670Alafs*2)			
NM_000255.3:c.2020C>T		NM_000255.3	MUT_v001	c.2020C>T	n.2285C>T	c.2020C>T	p.(Leu674Phe)	MUT_v001:c.2020C>T	MUT_v001:p.(Leu674Phe)		NM_000255.3	NP_000246.2	NM_000255.3(MUT_v001):c.2020C>T	NM_000255.3(MUT_i001):p.(Leu674Phe)	HpyAV	MnlI	
NM_000255.3:c.2033A>G		NM_000255.3	MUT_v001	c.2033A>G	n.2298A>G	c.2033A>G	p.(His678Arg)	MUT_v001:c.2033A>G	MUT_v001:p.(His678Arg)		NM_000255.3	NP_000246.2	NM_000255.3(MUT_v001):c.2033A>G	NM_000255.3(MUT_i001):p.(His678Arg)			
NM_000255.3:c.2053_2055dupCTC		NM_000255.3	MUT_v001	c.2053_2055dupCTC	n.2318_2320dup	c.2053_2055dup	p.(Leu685dup)	MUT_v001:c.2053_2055dup	MUT_v001:p.(Leu685dup)		NM_000255.3	NP_000246.2	NM_000255.3(MUT_v001):c.2053_2055dup	NM_000255.3(MUT_i001):p.(Leu685dup)	BseRI,MnlI		
NM_000255.3:c.2054T>G		NM_000255.3	MUT_v001	c.2054T>G	n.2319T>G	c.2054T>G	p.(Leu685Arg)	MUT_v001:c.2054T>G	MUT_v001:p.(Leu685Arg)		NM_000255.3	NP_000246.2	NM_000255.3(MUT_v001):c.2054T>G	NM_000255.3(MUT_i001):p.(Leu685Arg)	SfaNI		
NM_000255.3:c.2062G>T		NM_000255.3	MUT_v001	c.2062G>T	n.2327G>T	c.2062G>T	p.(Glu688*)	MUT_v001:c.2062G>T	MUT_v001:p.(Glu688*)		NM_000255.3	NP_000246.2	NM_000255.3(MUT_v001):c.2062G>T	NM_000255.3(MUT_i001):p.(Glu688*)			
NM_000255.3:c.2080C>T		NM_000255.3	MUT_v001	c.2080C>T	n.2345C>T	c.2080C>T	p.(Arg694Trp)	MUT_v001:c.2080C>T	MUT_v001:p.(Arg694Trp)		NM_000255.3	NP_000246.2	NM_000255.3(MUT_v001):c.2080C>T	NM_000255.3(MUT_i001):p.(Arg694Trp)	BccI,BtsCI,FokI,MscI	BceAI	
NM_000255.3:c.2081G>T		NM_000255.3	MUT_v001	c.2081G>T	n.2346G>T	c.2081G>T	p.(Arg694Leu)	MUT_v001:c.2081G>T	MUT_v001:p.(Arg694Leu)		NM_000255.3	NP_000246.2	NM_000255.3(MUT_v001):c.2081G>T	NM_000255.3(MUT_i001):p.(Arg694Leu)		BceAI,BslI,CviKI_1,EaeI,HaeIII	
NM_000255.3:c.2089_2101del13		NM_000255.3	MUT_v001	c.2089_2101del13	n.2354_2366del	c.2089_2101del	p.(Ile697Valfs*4)	MUT_v001:c.2089_2101del	MUT_v001:p.(Ile697Valfs*4)		NM_000255.3	NP_000246.2	NM_000255.3(MUT_v001):c.2089_2101del	NM_000255.3(MUT_i001):p.(Ile697Valfs*4)		CviAII,FatI,NlaIII	
NM_000255.3:c.2098_2099delAT		NM_000255.3	MUT_v001	c.2098_2099delAT	n.2363_2364del	c.2098_2099del	p.(Met700Valfs*11)	MUT_v001:c.2098_2099del	MUT_v001:p.(Met700Valfs*11)		NM_000255.3	NP_000246.2	NM_000255.3(MUT_v001):c.2098_2099del	NM_000255.3(MUT_i001):p.(Met700Valfs*11)		CviAII,FatI,NlaIII	
NM_000255.3:c.2099T>A		NM_000255.3	MUT_v001	c.2099T>A	n.2364T>A	c.2099T>A	p.(Met700Lys)	MUT_v001:c.2099T>A	MUT_v001:p.(Met700Lys)		NM_000255.3	NP_000246.2	NM_000255.3(MUT_v001):c.2099T>A	NM_000255.3(MUT_i001):p.(Met700Lys)		CviAII,FatI,NlaIII	
NM_000255.3:c.2107G>C		NM_000255.3	MUT_v001	c.2107G>C	n.2372G>C	c.2107G>C	p.(Gly703Arg)	MUT_v001:c.2107G>C	MUT_v001:p.(Gly703Arg)		NM_000255.3	NP_000246.2	NM_000255.3(MUT_v001):c.2107G>C	NM_000255.3(MUT_i001):p.(Gly703Arg)	Hpy166II		
NM_000255.3:c.2115dupA		NM_000255.3	MUT_v001	c.2115dupA	n.2380dup	c.2115dup	p.(Pro706Thrfs*6)	MUT_v001:c.2115dup	MUT_v001:p.(Pro706Thrfs*6)		NM_000255.3	NP_000246.2	NM_000255.3(MUT_v001):c.2115dup	NM_000255.3(MUT_i001):p.(Pro706Thrfs*6)			
NM_000255.3:c.2124+1G>A	(variantchecker): Intronic position given for a non-genomic reference sequence.	
NM_000255.3:c.2125-1G>A	(variantchecker): Intronic position given for a non-genomic reference sequence.	
NM_000255.3:c.2130T>G		NM_000255.3	MUT_v001	c.2130T>G	n.2395T>G	c.2130T>G	p.(Tyr710*)	MUT_v001:c.2130T>G	MUT_v001:p.(Tyr710*)		NM_000255.3	NP_000246.2	NM_000255.3(MUT_v001):c.2130T>G	NM_000255.3(MUT_i001):p.(Tyr710*)			
NM_000255.3:c.2150G>T		NM_000255.3	MUT_v001	c.2150G>T	n.2415G>T	c.2150G>T	p.(Gly717Val)	MUT_v001:c.2150G>T	MUT_v001:p.(Gly717Val)		NM_000255.3	NP_000246.2	NM_000255.3(MUT_v001):c.2150G>T	NM_000255.3(MUT_i001):p.(Gly717Val)			
NM_000255.3:c.2156C>T		NM_000255.3	MUT_v001	c.2156C>T	n.2421C>T	c.2156C>T	p.(Ser719Phe)	MUT_v001:c.2156C>T	MUT_v001:p.(Ser719Phe)		NM_000255.3	NP_000246.2	NM_000255.3(MUT_v001):c.2156C>T	NM_000255.3(MUT_i001):p.(Ser719Phe)			
NM_000255.3:c.2159_2160delAT		NM_000255.3	MUT_v001	c.2159_2160delAT	n.2424_2425del	c.2159_2160del	p.(Asn720Serfs*17)	MUT_v001:c.2159_2160del	MUT_v001:p.(Asn720Serfs*17)		NM_000255.3	NP_000246.2	NM_000255.3(MUT_v001):c.2159_2160del	NM_000255.3(MUT_i001):p.(Asn720Serfs*17)	BslI,BsrI,PflMI		
NM_000255.3:c.2179C>T		NM_000255.3	MUT_v001	c.2179C>T	n.2444C>T	c.2179C>T	p.(Arg727*)	MUT_v001:c.2179C>T	MUT_v001:p.(Arg727*)		NM_000255.3	NP_000246.2	NM_000255.3(MUT_v001):c.2179C>T	NM_000255.3(MUT_i001):p.(Arg727*)		HinfI,MlyI,PleI,TaqI	
NM_000255.3:c.2194_2197delGCCGinsTGA		NM_000255.3	MUT_v001	c.2194_2197delGCCGinsTGA	n.2459_2462delinsTGA	c.2194_2197delinsTGA	p.(Ala732*)	MUT_v001:c.2194_2197delinsTGA	MUT_v001:p.(Ala732*)		NM_000255.3	NP_000246.2	NM_000255.3(MUT_v001):c.2194_2197delinsTGA	NM_000255.3(MUT_i001):p.(Ala732*)	TfiI	ApeKI,BbvI,BceAI,Fnu4HI,TseI	
NM_000255.3:c.2216T>C		NM_000255.3	MUT_v001	c.2216T>C	n.2481T>C	c.2216T>C	p.(Ile739Thr)	MUT_v001:c.2216T>C	MUT_v001:p.(Ile739Thr)		NM_000255.3	NP_000246.2	NM_000255.3(MUT_v001):c.2216T>C	NM_000255.3(MUT_i001):p.(Ile739Thr)	BspCNI,DdeI		
