nucl,position,prot,balmer HWE.null.vs.hypomorphic,HWE.null.vs.hypomorphic,HWE.truncating.vs.missense,HWE.translatable,HWE.domain
c.35G>A,35,p.(Arg12Gln),hypomorphic,hypomorphic,missense,translatable,1
c.91G>A,91,p.(Asp31Asn),hypomorphic,hypomorphic,missense,translatable,1
c.133T>A,133,p.(Tyr45Asn),,,missense,translatable,1
c.175G>A,175,p.(Glu59Lys),,,missense,translatable,1
c.257A>C,257,p.(Glu86Ala),null,null,missense,translatable,1
c.260A>G,260,p.(Asp87Gly),null,null,missense,translatable,1
c.280C>T,280,p.(Arg94Cys),null,null,missense,translatable,1
c.281G>A,281,p.(Arg94His),,,missense,translatable,1
c.284G>A,284,p.(Arg95His),,,missense,translatable,1
c.299T>C,299,p.(Ile100Thr),hypomorphic,hypomorphic,missense,translatable,1
c.337C>T,337,p.(Arg113Trp),null,null,missense,translatable,2
c.338G>A,338,p.(Arg113Gln),null,null,missense,translatable,2
c.360C>A,360,p.(Asp120Glu),null,null,missense,translatable,2
c.376C>T,376,p.(Arg126Trp),,,missense,translatable,2
c.377G>C,377,p.(Arg126Pro),,,missense,translatable,2
c.436C>T,436,p.(Arg146Trp),,,missense,translatable,2
c.461T>C,461,p.(Leu154Pro),,,missense,translatable,2
c.467C>G,467,p.(Pro156Arg),,,missense,translatable,2
c.476C>A,476,p.(Thr159Asn),,,missense,translatable,2
c.478C>A,478,p.(His160Asn),,,missense,translatable,2
c.532G>A,532,p.(Val178Met),hypomorphic,hypomorphic,missense,translatable,2
c.544C>G,544,p.(Arg182Gly),,,missense,translatable,2
c.545G>A,545,p.(Arg182Gln),,,missense,translatable,2
c.556C>T,556,p.(Arg186Trp),null,null,missense,translatable,2
c.557G>A,557,p.(Arg186Gln),null,null,missense,translatable,2
c.566A>G,566,p.(Glu189Gly),hypomorphic,hypomorphic,missense,translatable,2
c.575_580dupAGCGGA,575,p.(Lys192_Arg193dup),,,,,
c.577C>T,577,p.(Arg193Trp),,,missense,translatable,2
c.578G>A,578,p.(Arg193Gln),,,missense,translatable,2
c.614C>T,614,p.(Ala205Val),,,missense,translatable,2
c.617G>T,617,p.(Gly206Val),,,missense,translatable,2
c.638G>A,638,p.(Arg213Gln),,,missense,translatable,2
c.706C>T,706,p.(Arg236Trp),null,null,missense,translatable,2
c.709G>A,709,p.(Asp237Asn),null,null,missense,translatable,2
c.721G>A,721,p.(Glu241Lys),null,null,missense,translatable,2
c.762C>A,762,p.(Ser254Arg),,,missense,translatable,2
c.767T>C,767,p.(Met256Thr),,,missense,translatable,2
c.857A>G,857,p.(Gln286Arg),null,null,missense,translatable,2
c.884T>C,884,p.(Leu295Pro),,,missense,translatable,2
c.890G>A,890,p.(Arg297Gln),,,missense,translatable,2
c.901G>A,901,p.(Gly301Arg),,,missense,translatable,2
c.947G>A,947,p.(Gly316Glu),,,missense,translatable,2
c.978G>C,978,p.(Gln326His),null,null,missense,translatable,
c.1003G>T,1003,p.(Val335Leu),hypomorphic,hypomorphic,missense,translatable,2
c.1028T>C,1028,p.(Leu343Pro),,,missense,translatable,2
c.1102A>G,1102,p.(Met368Val),,,missense,translatable,2
c.1135C>T,1135,p.(Arg379Cys),hypomorphic,hypomorphic,missense,translatable,3
c.1145T>G,1145,p.(Met382Arg),null,null,missense,translatable,3
c.1153C>T,1153,p.(Arg385Cys),hypomorphic,hypomorphic,missense,translatable,3
c.1154G>A,1154,p.(Arg385His),,,missense,translatable,3
c.1164C>G,1164,p.(His388Gln),null,null,missense,translatable,3
c.1193C>A,1193,p.(Ala398Asp),,,missense,translatable,3
c.1267G>C,1267,p.(Asp423His),,,missense,translatable,3
c.1331C>T,1331,p.(Ala444Val),,,missense,translatable,3
c.1340G>A,1340,p.(Ser447Asn),,,missense,translatable,3
c.1366C>T,1366,p.(Arg456Trp),null,null,missense,translatable,3
c.1367G>A,1367,p.(Arg456Gln),,,missense,translatable,3
c.1297A>C,,p.(Ser433Arg),,,missense,translatable,3
c.1300G>C,,p.(Val434Leu),,,missense,translatable,3
c.311C>T,,p.(Ala104Val),,,missense,translatable,1
c.343G>T,,p.(Asp115Tyr),null,null,missense,translatable,2
c.509G>A,,p.(Ser170Asn),,,missense,translatable,2
c.571C>T,,p.(Arg191Trp),,,missense,translatable,2
c.392C>T,,p.Thr131Met,,,missense,translatable,2
c.889C>T,,p.Arg297Trp,,,missense,translatable,2
c.107delA,107,p.(Glu36Glyfs*32),,null,truncating,nontranslatable,
c.292delG,292,p.(Glu98Serfs*77),,null,truncating,nontranslatable,
c.292G>T,292,p.(Glu98*),null,null,truncating,nontranslatable,
c.446+1G>A,446,,null,null,truncating,nontranslatable,
c.533_557dup,533,p.(Leu187Glyfs*7),,null,truncating,nontranslatable,
c.544C>T,544,p.(Arg182*),,null,truncating,nontranslatable,
c.551_552delCT,551,p.(Ser184*),null,null,truncating,nontranslatable,
c.584_585delAT,584,p.(Asn195Serfs*39),null,null,truncating,nontranslatable,
c.603-1G>C,603,,null,null,truncating,nontranslatable,
c.637C>T,637,p.(Arg213*),null,null,truncating,nontranslatable,
c.649C>T,649,p.(Arg217*),null,null,truncating,nontranslatable,
c.655+1G>A,655,,,null,truncating,nontranslatable,
c.656-1G>A,656,,null,null,truncating,nontranslatable,
c.735G>A,735,p.(Trp245*),null,null,truncating,nontranslatable,
c.793_795delACCinsT,793,p.(Thr265*),null,null,truncating,nontranslatable,
c.834-1G>A,834,,null,null,truncating,nontranslatable,
c.839delG,839,p.(Gly280Glufs*4),,null,truncating,nontranslatable,
c.1030C>T,1030,p.(Gln344*),,,truncating,nontranslatable,
c.328G>T,,p.(Gly110*),,,truncating,nontranslatable,
c.208-3C>G,208,,,,,,
c.447_524del78,447,p.(Glu150_Ser175del),,,,,
c.447-1G>A,447,,,null,truncating,nontranslatable,
c.524+2T>G,524,,null,null,truncating,nontranslatable,
c.602+1G>A,602,,null,null,truncating,nontranslatable,
c.765_766insG,765,p.(Met256Aspfs*79),null,null,truncating,nontranslatable,
c.918+5G>A,918,,,,,,
c.1034_1035delinsC,1034,p.(Val345Alafs*80),,,,,
c.1045_1057del13,1045,p.(Val349Cysfs*72),null,null,,,
c.1255_1256delCT,1255,p.(Leu419Valfs*54),,,,,
c.1290C>A,1290,p.(Tyr430*),,,,,
c.1311T>A,1311,p.(Tyr437*),,,,,
c.1378C>T,1378,p.(Gln460*),null,null,,,1
c.1044delC,,p.(Val349Serfs*76),null,null,,,1
,,,,,,,
c.348+2T>C,,,,,truncating,,
c.718+2T>C,,,,,truncating,,
c.719-1G>A,,,,,truncating,,
c.834-1G>T,,,,,truncating,,
c.915dupG,,p.Arg306AlafsTer29,,,truncating,,
c.973_976delTTAC,,p.Leu325ArgfsTer14,,,truncating,,
c.974T>G,,p.Leu325Ter,,,truncating,,
c.1045_1057delGTCATCTCTACGC,,p.Val349CysfsTer72,,,truncating,,
c.1128C>A,,p.Tyr376Ter,,,truncating,,
c.1144-1G>C,,,,,truncating,,
,,,,,,,
c.217G>A,,p.(Glu73Lys),,,missense,,
c.622C>A,,p.(Pro208Thr),,,missense,,
c.977A>T,,p.(Gln326Leu),,,missense,,
c.1154G>T,,p.(Arg385Leu),,,missense,,
