nucl,biological.pathogenicity,biological.pathogenicity.basis.of.decision.by.hand
c.1A>G,TRUE,mutation taster
c.332A>G,TRUE,mutation taster
c.405_422+1del19,TRUE,netgene
c.422+2dupT,TRUE,netgene
c.449C>T,TRUE,mutation taster
c.500A>C,TRUE,mutation taster
c.758+4A>T,FALSE,netgene
c.1158G>A,TRUE,mutation taster
c.1226G>C,TRUE,mutation taster
c.1472C>T,FALSE,mutation taster
c.448C>T,TRUE,mutation taster
c.1157G>A,TRUE,mutation taster
c.491A>C,TRUE,mutation taster
