Input Variant	Errors	Chromosomal Variant	Coding Variant(s)
NM_000512.4:c.1A>G		NC_000016.9:g.88923285T>C	XM_005256313.1:c.-199T>C	XM_005256314.1:c.-341T>C	XM_005256315.1:c.-341T>C	NM_016209.3:c.-274T>C	XM_005256302.1:c.-152A>G	XM_005256303.1:c.-431A>G	NM_000512.4:c.1A>G	XM_005256301.1:c.1A>G	NM_001080487.1:c.*4749A>G
NM_000512.4:c.3G>A		NC_000016.9:g.88923283C>T	XM_005256313.1:c.-201C>T	XM_005256314.1:c.-343C>T	XM_005256315.1:c.-343C>T	NM_016209.3:c.-276C>T	XM_005256302.1:c.-150G>A	XM_005256303.1:c.-429G>A	NM_000512.4:c.3G>A	XM_005256301.1:c.3G>A	NM_001080487.1:c.*4751G>A
NM_000512.4:c.29G>A		NC_000016.9:g.88923257C>T	XM_005256313.1:c.-227C>T	XM_005256314.1:c.-369C>T	XM_005256315.1:c.-369C>T	NM_016209.3:c.-302C>T	XM_005256302.1:c.-124G>A	XM_005256303.1:c.-403G>A	NM_000512.4:c.29G>A	XM_005256301.1:c.29G>A	NM_001080487.1:c.*4777G>A
NM_000512.4:c.47T>A		NC_000016.9:g.88923239A>T	XM_005256313.1:c.-245A>T	XM_005256314.1:c.-387A>T	XM_005256315.1:c.-387A>T	NM_016209.3:c.-320A>T	XM_005256302.1:c.-106T>A	XM_005256303.1:c.-385T>A	NM_000512.4:c.47T>A	XM_005256301.1:c.47T>A	NM_001080487.1:c.*4795T>A
NM_000512.4:c.67G>C		NC_000016.9:g.88923219C>G	XM_005256313.1:c.-265C>G	XM_005256314.1:c.-407C>G	XM_005256315.1:c.-407C>G	NM_016209.3:c.-340C>G	XM_005256302.1:c.-86G>C	XM_005256303.1:c.-365G>C	NM_000512.4:c.67G>C	XM_005256301.1:c.67G>C	NM_001080487.1:c.*4815G>C
NM_000512.4:c.106_111delCTGCTC		NC_000016.9:g.88923175_88923180delGAGCAG	XM_005256313.1:c.-309_-304delGAGCAG	XM_005256314.1:c.-451_-446delGAGCAG	XM_005256315.1:c.-451_-446delGAGCAG	NM_016209.3:c.-384_-379delGAGCAG	XM_005256302.1:c.-47_-42delCTGCTC	XM_005256303.1:c.-326_-321delCTGCTC	NM_000512.4:c.106_111delCTGCTC	XM_005256301.1:c.106_111delCTGCTC	NM_001080487.1:c.*4854_*4859delCTGCTC
NM_000512.4:c.107T>G		NC_000016.9:g.88923179A>C	XM_005256313.1:c.-305A>C	XM_005256314.1:c.-447A>C	XM_005256315.1:c.-447A>C	NM_016209.3:c.-380A>C	XM_005256302.1:c.-46T>G	XM_005256303.1:c.-325T>G	NM_000512.4:c.107T>G	XM_005256301.1:c.107T>G	NM_001080487.1:c.*4855T>G
NM_000512.4:c.118G>A		NC_000016.9:g.88923168C>T	XM_005256313.1:c.-316C>T	XM_005256314.1:c.-458C>T	XM_005256315.1:c.-458C>T	NM_016209.3:c.-391C>T	XM_005256302.1:c.-35G>A	XM_005256303.1:c.-314G>A	NM_000512.4:c.118G>A	XM_005256301.1:c.118G>A	NM_001080487.1:c.*4866G>A
NM_000512.4:c.120+1G>C		NC_000016.9:g.88923165C>G	XM_005256313.1:c.-319C>G	XM_005256314.1:c.-461C>G	XM_005256315.1:c.-461C>G	NM_016209.3:c.-394C>G	XM_005256302.1:c.-33+1G>C	XM_005256303.1:c.-312+1G>C	NM_000512.4:c.120+1G>C	XM_005256301.1:c.120+1G>C	NM_001080487.1:c.*4869G>C
NM_000512.4:c.120+1G>A		NC_000016.9:g.88923165C>T	XM_005256313.1:c.-319C>T	XM_005256314.1:c.-461C>T	XM_005256315.1:c.-461C>T	NM_016209.3:c.-394C>T	XM_005256302.1:c.-33+1G>A	XM_005256303.1:c.-312+1G>A	NM_000512.4:c.120+1G>A	XM_005256301.1:c.120+1G>A	NM_001080487.1:c.*4869G>A
NM_000512.4:c.121A>T		NC_000016.9:g.88909237T>A	XM_005256302.1:c.139A>T	XM_005256303.1:c.-311-858A>T	NM_000512.4:c.121A>T	XM_005256301.1:c.121A>T
NM_000512.4:c.121-1G>A		NC_000016.9:g.88909238C>T	XM_005256302.1:c.139-1G>A	XM_005256303.1:c.-311-859G>A	NM_000512.4:c.121-1G>A	XM_005256301.1:c.121-1G>A
NM_000512.4:c.121-1G>C		NC_000016.9:g.88909238C>G	XM_005256302.1:c.139-1G>C	XM_005256303.1:c.-311-859G>C	NM_000512.4:c.121-1G>C	XM_005256301.1:c.121-1G>C
NM_000512.4:c.122T>A		NC_000016.9:g.88909236A>T	XM_005256302.1:c.140T>A	XM_005256303.1:c.-311-857T>A	NM_000512.4:c.122T>A	XM_005256301.1:c.122T>A
NM_000512.4:c.125G>A		NC_000016.9:g.88909233C>T	XM_005256302.1:c.143G>A	XM_005256303.1:c.-311-854G>A	NM_000512.4:c.125G>A	XM_005256301.1:c.125G>A
NM_000512.4:c.139G>A		NC_000016.9:g.88909219C>T	XM_005256302.1:c.157G>A	XM_005256303.1:c.-311-840G>A	NM_000512.4:c.139G>A	XM_005256301.1:c.139G>A
NM_000512.4:c.143T>G		NC_000016.9:g.88909215A>C	XM_005256302.1:c.161T>G	XM_005256303.1:c.-311-836T>G	NM_000512.4:c.143T>G	XM_005256301.1:c.143T>G
NM_000512.4:c.151G>A		NC_000016.9:g.88909207C>T	XM_005256302.1:c.169G>A	XM_005256303.1:c.-311-828G>A	NM_000512.4:c.151G>A	XM_005256301.1:c.151G>A
NM_000512.4:c.154_165del12		NC_000016.9:g.88909193_88909204del12	XM_005256302.1:c.172_183del12	XM_005256303.1:c.-311-825_-311-814del12	NM_000512.4:c.154_165del12	XM_005256301.1:c.154_165del12
NM_000512.4:c.178G>A		NC_000016.9:g.88909180C>T	XM_005256302.1:c.196G>A	XM_005256303.1:c.-311-801G>A	NM_000512.4:c.178G>A	XM_005256301.1:c.178G>A
NM_000512.4:c.181C>T		NC_000016.9:g.88909177G>A	XM_005256302.1:c.199C>T	XM_005256303.1:c.-311-798C>T	NM_000512.4:c.181C>T	XM_005256301.1:c.181C>T
NM_000512.4:c.196G>C		NC_000016.9:g.88909162C>G	XM_005256302.1:c.214G>C	XM_005256303.1:c.-311-783G>C	NM_000512.4:c.196G>C	XM_005256301.1:c.196G>C
NM_000512.4:c.205T>G		NC_000016.9:g.88909153A>C	XM_005256302.1:c.223T>G	XM_005256303.1:c.-311-774T>G	NM_000512.4:c.205T>G	XM_005256301.1:c.205T>G
NM_000512.4:c.218A>G		NC_000016.9:g.88909140T>C	XM_005256302.1:c.236A>G	XM_005256303.1:c.-311-761A>G	NM_000512.4:c.218A>G	XM_005256301.1:c.218A>G
NM_000512.4:c.221C>T		NC_000016.9:g.88909137G>A	XM_005256302.1:c.239C>T	XM_005256303.1:c.-311-758C>T	NM_000512.4:c.221C>T	XM_005256301.1:c.221C>T
NM_000512.4:c.224C>G		NC_000016.9:g.88909134G>C	XM_005256302.1:c.242C>G	XM_005256303.1:c.-311-755C>G	NM_000512.4:c.224C>G	XM_005256301.1:c.224C>G
NM_000512.4:c.230C>G		NC_000016.9:g.88909128G>C	XM_005256302.1:c.248C>G	XM_005256303.1:c.-311-749C>G	NM_000512.4:c.230C>G	XM_005256301.1:c.230C>G
NM_000512.4:c.236G>A		NC_000016.9:g.88909122C>T	XM_005256302.1:c.254G>A	XM_005256303.1:c.-311-743G>A	NM_000512.4:c.236G>A	XM_005256301.1:c.236G>A
NM_000512.4:c.242C>T		NC_000016.9:g.88909116G>A	XM_005256302.1:c.260C>T	XM_005256303.1:c.-311-737C>T	NM_000512.4:c.242C>T	XM_005256301.1:c.242C>T
NM_000512.4:c.244T>C		NC_000016.9:g.88909114A>G	XM_005256302.1:c.262T>C	XM_005256303.1:c.-311-735T>C	NM_000512.4:c.244T>C	XM_005256301.1:c.244T>C
NM_000512.4:c.245C>T		NC_000016.9:g.88908379G>A	XM_005256302.1:c.263C>T	XM_005256303.1:c.-311C>T	NM_000512.4:c.245C>T	XM_005256301.1:c.245C>T
NM_000512.4:c.251C>A		NC_000016.9:g.88908373G>T	XM_005256302.1:c.269C>A	XM_005256303.1:c.-305C>A	NM_000512.4:c.251C>A	XM_005256301.1:c.251C>A
NM_000512.4:c.257T>C		NC_000016.9:g.88908367A>G	XM_005256302.1:c.275T>C	XM_005256303.1:c.-299T>C	NM_000512.4:c.257T>C	XM_005256301.1:c.257T>C
NM_000512.4:c.263C>T		NC_000016.9:g.88908361G>A	XM_005256302.1:c.281C>T	XM_005256303.1:c.-293C>T	NM_000512.4:c.263C>T	XM_005256301.1:c.263C>T
NM_000512.4:c.268C>T		NC_000016.9:g.88908356G>A	XM_005256302.1:c.286C>T	XM_005256303.1:c.-288C>T	NM_000512.4:c.268C>T	XM_005256301.1:c.268C>T
NM_000512.4:c.272T>C		NC_000016.9:g.88908352A>G	XM_005256302.1:c.290T>C	XM_005256303.1:c.-284T>C	NM_000512.4:c.272T>C	XM_005256301.1:c.272T>C
NM_000512.4:c.280C>T		NC_000016.9:g.88908344G>A	XM_005256302.1:c.298C>T	XM_005256303.1:c.-276C>T	NM_000512.4:c.280C>T	XM_005256301.1:c.280C>T
NM_000512.4:c.280C>G		NC_000016.9:g.88908344G>C	XM_005256302.1:c.298C>G	XM_005256303.1:c.-276C>G	NM_000512.4:c.280C>G	XM_005256301.1:c.280C>G
NM_000512.4:c.286G>T		NC_000016.9:g.88908338C>A	XM_005256302.1:c.304G>T	XM_005256303.1:c.-270G>T	NM_000512.4:c.286G>T	XM_005256301.1:c.286G>T
NM_000512.4:c.319G>A		NC_000016.9:g.88908305C>T	XM_005256302.1:c.337G>A	XM_005256303.1:c.-237G>A	NM_000512.4:c.319G>A	XM_005256301.1:c.319G>A
NM_000512.4:c.332A>G		NC_000016.9:g.88907490T>C	XM_005256302.1:c.350A>G	XM_005256303.1:c.-224A>G	NM_000512.4:c.332A>G	XM_005256301.1:c.332A>G
NM_000512.4:c.337A>T		NC_000016.9:g.88907485T>A	XM_005256302.1:c.355A>T	XM_005256303.1:c.-219A>T	NM_000512.4:c.337A>T	XM_005256301.1:c.337A>T
NM_000512.4:c.346G>A		NC_000016.9:g.88907476C>T	XM_005256302.1:c.364G>A	XM_005256303.1:c.-210G>A	NM_000512.4:c.346G>A	XM_005256301.1:c.346G>A
NM_000512.4:c.347G>T		NC_000016.9:g.88907475C>A	XM_005256302.1:c.365G>T	XM_005256303.1:c.-209G>T	NM_000512.4:c.347G>T	XM_005256301.1:c.347G>T
NM_000512.4:c.363G>C		NC_000016.9:g.88907459C>G	XM_005256302.1:c.381G>C	XM_005256303.1:c.-193G>C	NM_000512.4:c.363G>C	XM_005256301.1:c.363G>C
NM_000512.4:c.374C>T		NC_000016.9:g.88907448G>A	XM_005256302.1:c.392C>T	XM_005256303.1:c.-182C>T	NM_000512.4:c.374C>T	XM_005256301.1:c.374C>T
NM_000512.4:c.376G>T		NC_000016.9:g.88907446C>A	XM_005256302.1:c.394G>T	XM_005256303.1:c.-180G>T	NM_000512.4:c.376G>T	XM_005256301.1:c.376G>T
NM_000512.4:c.389delG		NC_000016.9:g.88907433delC	XM_005256302.1:c.407delG	XM_005256303.1:c.-167delG	NM_000512.4:c.389delG	XM_005256301.1:c.389delG
NM_000512.4:c.405_422+1del19		NC_000016.9:g.88907399_88907417del19	XM_005256302.1:c.423_440+1del19	XM_005256303.1:c.-151_-134+1del19	NM_000512.4:c.405_422+1del19	XM_005256301.1:c.405_422+1del19
NM_000512.4:c.415G>A		NC_000016.9:g.88907407C>T	XM_005256302.1:c.433G>A	XM_005256303.1:c.-141G>A	NM_000512.4:c.415G>A	XM_005256301.1:c.415G>A
NM_000512.4:c.421T>A		NC_000016.9:g.88907401A>T	XM_005256302.1:c.439T>A	XM_005256303.1:c.-135T>A	NM_000512.4:c.421T>A	XM_005256301.1:c.421T>A
NM_000512.4:c.422G>A		NC_000016.9:g.88907400C>T	XM_005256302.1:c.440G>A	XM_005256303.1:c.-134G>A	NM_000512.4:c.422G>A	XM_005256301.1:c.422G>A
NM_000512.4:c.422+2dupT		NC_000016.9:g.88907398dupA	XM_005256302.1:c.440+2dupT	XM_005256303.1:c.-134+2dupT	NM_000512.4:c.422+2dupT	XM_005256301.1:c.422+2dupT
NM_000512.4:c.423-1G>A		NC_000016.9:g.88904174C>T	XM_005256302.1:c.441-1G>A	XM_005256303.1:c.-133-1G>A	NM_000512.4:c.423-1G>A	XM_005256301.1:c.423-1G>A
NM_000512.4:c.423_566del		NC_000016.9:g.88904030_88904173del	XM_005256302.1:c.441_584del	XM_005256303.1:c.-133_11del	NM_000512.4:c.423_566del	XM_005256301.1:c.423_566del
NM_000512.4:c.423G>T		NC_000016.9:g.88904173C>A	XM_005256302.1:c.441G>T	XM_005256303.1:c.-133G>T	NM_000512.4:c.423G>T	XM_005256301.1:c.423G>T
NM_000512.4:c.425A>G		NC_000016.9:g.88904171T>C	XM_005256302.1:c.443A>G	XM_005256303.1:c.-131A>G	NM_000512.4:c.425A>G	XM_005256301.1:c.425A>G
NM_000512.4:c.433C>T		NC_000016.9:g.88904163G>A	XM_005256302.1:c.451C>T	XM_005256303.1:c.-123C>T	NM_000512.4:c.433C>T	XM_005256301.1:c.433C>T
NM_000512.4:c.448C>T		NC_000016.9:g.88904148G>A	XM_005256302.1:c.466C>T	XM_005256303.1:c.-108C>T	NM_000512.4:c.448C>T	XM_005256301.1:c.448C>T
NM_000512.4:c.451C>A		NC_000016.9:g.88904145G>T	XM_005256302.1:c.469C>A	XM_005256303.1:c.-105C>A	NM_000512.4:c.451C>A	XM_005256301.1:c.451C>A
NM_000512.4:c.452C>T		NC_000016.9:g.88904144G>A	XM_005256302.1:c.470C>T	XM_005256303.1:c.-104C>T	NM_000512.4:c.452C>T	XM_005256301.1:c.452C>T
NM_000512.4:c.463G>A		NC_000016.9:g.88904133C>T	XM_005256302.1:c.481G>A	XM_005256303.1:c.-93G>A	NM_000512.4:c.463G>A	XM_005256301.1:c.463G>A
NM_000512.4:c.466T>C		NC_000016.9:g.88904130A>G	XM_005256302.1:c.484T>C	XM_005256303.1:c.-90T>C	NM_000512.4:c.466T>C	XM_005256301.1:c.466T>C
NM_000512.4:c.467T>C		NC_000016.9:g.88904129A>G	XM_005256302.1:c.485T>C	XM_005256303.1:c.-89T>C	NM_000512.4:c.467T>C	XM_005256301.1:c.467T>C
NM_000512.4:c.467T>G		NC_000016.9:g.88904129A>C	XM_005256302.1:c.485T>G	XM_005256303.1:c.-89T>G	NM_000512.4:c.467T>G	XM_005256301.1:c.467T>G
NM_000512.4:c.477G>A		NC_000016.9:g.88904119C>T	XM_005256302.1:c.495G>A	XM_005256303.1:c.-79G>A	NM_000512.4:c.477G>A	XM_005256301.1:c.477G>A
NM_000512.4:c.485C>T		NC_000016.9:g.88904111G>A	XM_005256302.1:c.503C>T	XM_005256303.1:c.-71C>T	NM_000512.4:c.485C>T	XM_005256301.1:c.485C>T
NM_000512.4:c.488C>A		NC_000016.9:g.88904108G>T	XM_005256302.1:c.506C>A	XM_005256303.1:c.-68C>A	NM_000512.4:c.488C>A	XM_005256301.1:c.488C>A
NM_000512.4:c.491A>C		NC_000016.9:g.88904105T>G	XM_005256302.1:c.509A>C	XM_005256303.1:c.-65A>C	NM_000512.4:c.491A>C	XM_005256301.1:c.491A>C
NM_000512.4:c.497A>G		NC_000016.9:g.88904099T>C	XM_005256302.1:c.515A>G	XM_005256303.1:c.-59A>G	NM_000512.4:c.497A>G	XM_005256301.1:c.497A>G
NM_000512.4:c.498delC		NC_000016.9:g.88904098delG	XM_005256302.1:c.516delC	XM_005256303.1:c.-58delC	NM_000512.4:c.498delC	XM_005256301.1:c.498delC
NM_000512.4:c.499T>G		NC_000016.9:g.88904097A>C	XM_005256302.1:c.517T>G	XM_005256303.1:c.-57T>G	NM_000512.4:c.499T>G	XM_005256301.1:c.499T>G
NM_000512.4:c.502G>A		NC_000016.9:g.88904094C>T	XM_005256302.1:c.520G>A	XM_005256303.1:c.-54G>A	NM_000512.4:c.502G>A	XM_005256301.1:c.502G>A
NM_000512.4:c.530A>G		NC_000016.9:g.88904066T>C	XM_005256302.1:c.548A>G	XM_005256303.1:c.-26A>G	NM_000512.4:c.530A>G	XM_005256301.1:c.530A>G
NM_000512.4:c.536C>A		NC_000016.9:g.88904060G>T	XM_005256302.1:c.554C>A	XM_005256303.1:c.-20C>A	NM_000512.4:c.536C>A	XM_005256301.1:c.536C>A
NM_000512.4:c.536C>T		NC_000016.9:g.88904060G>A	XM_005256302.1:c.554C>T	XM_005256303.1:c.-20C>T	NM_000512.4:c.536C>T	XM_005256301.1:c.536C>T
NM_000512.4:c.567-1G>T		NC_000016.9:g.88902676C>A	XM_005256302.1:c.585-1G>T	XM_005256303.1:c.12-1G>T	NM_000512.4:c.567-1G>T	XM_005256301.1:c.567-1G>T
NM_000512.4:c.602G>A		NC_000016.9:g.88902640C>T	XM_005256302.1:c.620G>A	XM_005256303.1:c.47G>A	NM_000512.4:c.602G>A	XM_005256301.1:c.602G>A
NM_000512.4:c.604delG		NC_000016.9:g.88902638delC	XM_005256302.1:c.622delG	XM_005256303.1:c.49delG	NM_000512.4:c.604delG	XM_005256301.1:c.604delG
NM_000512.4:c.608C>T		NC_000016.9:g.88902634G>A	XM_005256302.1:c.626C>T	XM_005256303.1:c.53C>T	NM_000512.4:c.608C>T	XM_005256301.1:c.608C>T
NM_000512.4:c.612C>G		NC_000016.9:g.88902630G>C	XM_005256302.1:c.630C>G	XM_005256303.1:c.57C>G	NM_000512.4:c.612C>G	XM_005256301.1:c.612C>G
NM_000512.4:c.627C>G		NC_000016.9:g.88902615G>C	XM_005256302.1:c.645C>G	XM_005256303.1:c.72C>G	NM_000512.4:c.627C>G	XM_005256301.1:c.627C>G
NM_000512.4:c.631C>T		NC_000016.9:g.88902611G>A	XM_005256302.1:c.649C>T	XM_005256303.1:c.76C>T	NM_000512.4:c.631C>T	XM_005256301.1:c.631C>T
NM_000512.4:c.634-1G>T		NC_000016.9:g.88902258C>A	XM_005256302.1:c.652-1G>T	XM_005256303.1:c.79-1G>T	NM_000512.4:c.634-1G>T	XM_005256301.1:c.634-1G>T
NM_000512.4:c.641T>C		NC_000016.9:g.88902250A>G	XM_005256302.1:c.659T>C	XM_005256303.1:c.86T>C	NM_000512.4:c.641T>C	XM_005256301.1:c.641T>C
NM_000512.4:c.647T>C		NC_000016.9:g.88902244A>G	XM_005256302.1:c.665T>C	XM_005256303.1:c.92T>C	NM_000512.4:c.647T>C	XM_005256301.1:c.647T>C
NM_000512.4:c.697G>A		NC_000016.9:g.88902194C>T	XM_005256302.1:c.715G>A	XM_005256303.1:c.142G>A	NM_000512.4:c.697G>A	XM_005256301.1:c.697G>A
NM_000512.4:c.704C>A		NC_000016.9:g.88902187G>T	XM_005256302.1:c.722C>A	XM_005256303.1:c.149C>A	NM_000512.4:c.704C>A	XM_005256301.1:c.704C>A
NM_000512.4:c.706C>G		NC_000016.9:g.88902185G>C	XM_005256302.1:c.724C>G	XM_005256303.1:c.151C>G	NM_000512.4:c.706C>G	XM_005256301.1:c.706C>G
NM_000512.4:c.715G>T		NC_000016.9:g.88902176C>A	XM_005256302.1:c.733G>T	XM_005256303.1:c.160G>T	NM_000512.4:c.715G>T	XM_005256301.1:c.715G>T
NM_000512.4:c.719A>G		NC_000016.9:g.88902172T>C	XM_005256302.1:c.737A>G	XM_005256303.1:c.164A>G	NM_000512.4:c.719A>G	XM_005256301.1:c.719A>G
NM_000512.4:c.725C>G		NC_000016.9:g.88902166G>C	XM_005256302.1:c.743C>G	XM_005256303.1:c.170C>G	NM_000512.4:c.725C>G	XM_005256301.1:c.725C>G
NM_000512.4:c.740G>A		NC_000016.9:g.88902151C>T	XM_005256302.1:c.758G>A	XM_005256303.1:c.185G>A	NM_000512.4:c.740G>A	XM_005256301.1:c.740G>A
NM_000512.4:c.751C>T		NC_000016.9:g.88902140G>A	XM_005256302.1:c.769C>T	XM_005256303.1:c.196C>T	NM_000512.4:c.751C>T	XM_005256301.1:c.751C>T
NM_000512.4:c.752G>A		NC_000016.9:g.88902139C>T	XM_005256302.1:c.770G>A	XM_005256303.1:c.197G>A	NM_000512.4:c.752G>A	XM_005256301.1:c.752G>A
NM_000512.4:c.757C>T		NC_000016.9:g.88902134G>A	XM_005256302.1:c.775C>T	XM_005256303.1:c.202C>T	NM_000512.4:c.757C>T	XM_005256301.1:c.757C>T
NM_000512.4:c.758G>A		NC_000016.9:g.88902133C>T	XM_005256302.1:c.776G>A	XM_005256303.1:c.203G>A	NM_000512.4:c.758G>A	XM_005256301.1:c.758G>A
NM_000512.4:c.758+4A>T		NC_000016.9:g.88902129T>A	XM_005256302.1:c.776+4A>T	XM_005256303.1:c.203+4A>T	NM_000512.4:c.758+4A>T	XM_005256301.1:c.758+4A>T
NM_000512.4:c.758+1G>C		NC_000016.9:g.88902132C>G	XM_005256302.1:c.776+1G>C	XM_005256303.1:c.203+1G>C	NM_000512.4:c.758+1G>C	XM_005256301.1:c.758+1G>C
NM_000512.4:c.761A>G		NC_000016.9:g.88901758T>C	XM_005256302.1:c.779A>G	XM_005256303.1:c.206A>G	NM_000512.4:c.761A>G	XM_005256301.1:c.761A>G
NM_000512.4:c.763delT		NC_000016.9:g.88901756delA	XM_005256302.1:c.781delT	XM_005256303.1:c.208delT	NM_000512.4:c.763delT	XM_005256301.1:c.763delT
NM_000512.4:c.776G>A		NC_000016.9:g.88901743C>T	XM_005256302.1:c.794G>A	XM_005256303.1:c.221G>A	NM_000512.4:c.776G>A	XM_005256301.1:c.776G>A
NM_000512.4:c.778G>A		NC_000016.9:g.88901741C>T	XM_005256302.1:c.796G>A	XM_005256303.1:c.223G>A	NM_000512.4:c.778G>A	XM_005256301.1:c.778G>A
NM_000512.4:c.791G>C		NC_000016.9:g.88901728C>G	XM_005256302.1:c.809G>C	XM_005256303.1:c.236G>C	NM_000512.4:c.791G>C	XM_005256301.1:c.791G>C
NM_000512.4:c.850T>G		NC_000016.9:g.88901669A>C	XM_005256302.1:c.868T>G	XM_005256303.1:c.295T>G	NM_000512.4:c.850T>G	XM_005256301.1:c.850T>G
NM_000512.4:c.850_852delTTC		NC_000016.9:g.88901667_88901669delGAA	XM_005256302.1:c.868_870delTTC	XM_005256303.1:c.295_297delTTC	NM_000512.4:c.850_852delTTC	XM_005256301.1:c.850_852delTTC
NM_000512.4:c.853_855delTTC		NC_000016.9:g.88901664_88901666delGAA	XM_005256302.1:c.871_873delTTC	XM_005256303.1:c.298_300delTTC	NM_000512.4:c.853_855delTTC	XM_005256301.1:c.853_855delTTC
NM_000512.4:c.860C>T		NC_000016.9:g.88901659G>A	XM_005256302.1:c.878C>T	XM_005256303.1:c.305C>T	NM_000512.4:c.860C>T	XM_005256301.1:c.860C>T
NM_000512.4:c.865A>G		NC_000016.9:g.88901654T>C	XM_005256302.1:c.883A>G	XM_005256303.1:c.310A>G	NM_000512.4:c.865A>G	XM_005256301.1:c.865A>G
NM_000512.4:c.866A>G		NC_000016.9:g.88901653T>C	XM_005256302.1:c.884A>G	XM_005256303.1:c.311A>G	NM_000512.4:c.866A>G	XM_005256301.1:c.866A>G
NM_000512.4:c.868G>A		NC_000016.9:g.88901651C>T	XM_005256302.1:c.886G>A	XM_005256303.1:c.313G>A	NM_000512.4:c.868G>A	XM_005256301.1:c.868G>A
NM_000512.4:c.868G>C		NC_000016.9:g.88901651C>G	XM_005256302.1:c.886G>C	XM_005256303.1:c.313G>C	NM_000512.4:c.868G>C	XM_005256301.1:c.868G>C
NM_000512.4:c.871G>A		NC_000016.9:g.88901648C>T	XM_005256302.1:c.889G>A	XM_005256303.1:c.316G>A	NM_000512.4:c.871G>A	XM_005256301.1:c.871G>A
NM_000512.4:c.872C>A		NC_000016.9:g.88901647G>T	XM_005256302.1:c.890C>A	XM_005256303.1:c.317C>A	NM_000512.4:c.872C>A	XM_005256301.1:c.872C>A
NM_000512.4:c.884C>T		NC_000016.9:g.88901635G>A	XM_005256302.1:c.902C>T	XM_005256303.1:c.329C>T	NM_000512.4:c.884C>T	XM_005256301.1:c.884C>T
NM_000512.4:c.888del27		NC_000016.9:g.88901631del27	XM_005256302.1:c.906del27	XM_005256303.1:c.333del27	NM_000512.4:c.888del27	XM_005256301.1:c.888del27
NM_000512.4:c.898+1G>C		NC_000016.9:g.88901620C>G	XM_005256302.1:c.916+1G>C	XM_005256303.1:c.343+1G>C	NM_000512.4:c.898+1G>C	XM_005256301.1:c.898+1G>C
NM_000512.4:c.898+1G>A		NC_000016.9:g.88901620C>T	XM_005256302.1:c.916+1G>A	XM_005256303.1:c.343+1G>A	NM_000512.4:c.898+1G>A	XM_005256301.1:c.898+1G>A
NM_000512.4:c.901G>T		NC_000016.9:g.88898507C>A	XM_005256302.1:c.919G>T	XM_005256303.1:c.346G>T	NM_000512.4:c.901G>T	XM_005256301.1:c.901G>T
NM_000512.4:c.920T>C		NC_000016.9:g.88898488A>G	XM_005256302.1:c.938T>C	XM_005256303.1:c.365T>C	NM_000512.4:c.920T>C	XM_005256301.1:c.920T>C
NM_000512.4:c.922T>C		NC_000016.9:g.88898486A>G	XM_005256302.1:c.940T>C	XM_005256303.1:c.367T>C	NM_000512.4:c.922T>C	XM_005256301.1:c.922T>C
NM_000512.4:c.925G>A		NC_000016.9:g.88898483C>T	XM_005256302.1:c.943G>A	XM_005256303.1:c.370G>A	NM_000512.4:c.925G>A	XM_005256301.1:c.925G>A
NM_000512.4:c.929delG		NC_000016.9:g.88898479delC	XM_005256302.1:c.947delG	XM_005256303.1:c.374delG	NM_000512.4:c.929delG	XM_005256301.1:c.929delG
NM_000512.4:c.934A>G		NC_000016.9:g.88898474T>C	XM_005256302.1:c.952A>G	XM_005256303.1:c.379A>G	NM_000512.4:c.934A>G	XM_005256301.1:c.934A>G
NM_000512.4:c.935C>G		NC_000016.9:g.88898473G>C	XM_005256302.1:c.953C>G	XM_005256303.1:c.380C>G	NM_000512.4:c.935C>G	XM_005256301.1:c.935C>G
NM_000512.4:c.938C>T		NC_000016.9:g.88898470G>A	XM_005256302.1:c.956C>T	XM_005256303.1:c.383C>T	NM_000512.4:c.938C>T	XM_005256301.1:c.938C>T
NM_000512.4:c.953T>G		NC_000016.9:g.88898455A>C	XM_005256302.1:c.971T>G	XM_005256303.1:c.398T>G	NM_000512.4:c.953T>G	XM_005256301.1:c.953T>G
NM_000512.4:c.974G>A		NC_000016.9:g.88898434C>T	XM_005256302.1:c.992G>A	XM_005256303.1:c.419G>A	NM_000512.4:c.974G>A	XM_005256301.1:c.974G>A
NM_000512.4:c.975G>T		NC_000016.9:g.88898433C>A	XM_005256302.1:c.993G>T	XM_005256303.1:c.420G>T	NM_000512.4:c.975G>T	XM_005256301.1:c.975G>T
NM_000512.4:c.1000C>T		NC_000016.9:g.88898408G>A	XM_005256302.1:c.1018C>T	XM_005256303.1:c.445C>T	NM_000512.4:c.1000C>T	XM_005256301.1:c.1000C>T
NM_000512.4:c.1012C>T		NC_000016.9:g.88893237G>A	XM_005256302.1:c.1030C>T	XM_005256303.1:c.457C>T	NM_000512.4:c.1012C>T	XM_005256301.1:c.1012C>T
NM_000512.4:c.1019G>A		NC_000016.9:g.88893230C>T	XM_005256302.1:c.1037G>A	XM_005256303.1:c.464G>A	NM_000512.4:c.1019G>A	XM_005256301.1:c.1019G>A
NM_000512.4:c.1023C>G		NC_000016.9:g.88893226G>C	XM_005256302.1:c.1041C>G	XM_005256303.1:c.468C>G	NM_000512.4:c.1023C>G	XM_005256301.1:c.1023C>G
NM_000512.4:c.1032C>G		NC_000016.9:g.88893217G>C	XM_005256302.1:c.1050C>G	XM_005256303.1:c.477C>G	NM_000512.4:c.1032C>G	XM_005256301.1:c.1032C>G
NM_000512.4:c.1034T>C		NC_000016.9:g.88893215A>G	XM_005256302.1:c.1052T>C	XM_005256303.1:c.479T>C	NM_000512.4:c.1034T>C	XM_005256301.1:c.1034T>C
NM_000512.4:c.1055T>C		NC_000016.9:g.88893194A>G	XM_005256302.1:c.1073T>C	XM_005256303.1:c.500T>C	NM_000512.4:c.1055T>C	XM_005256301.1:c.1055T>C
NM_000512.4:c.1070delC		NC_000016.9:g.88893179delG	XM_005256302.1:c.1088delC	XM_005256303.1:c.515delC	NM_000512.4:c.1070delC	XM_005256301.1:c.1070delC
NM_000512.4:c.1081A>G		NC_000016.9:g.88893168T>C	XM_005256302.1:c.1099A>G	XM_005256303.1:c.526A>G	NM_000512.4:c.1081A>G	XM_005256301.1:c.1081A>G
NM_000512.4:c.1097T>C		NC_000016.9:g.88893152A>G	XM_005256302.1:c.1115T>C	XM_005256303.1:c.542T>C	NM_000512.4:c.1097T>C	XM_005256301.1:c.1097T>C
NM_000512.4:c.1114delC		NC_000016.9:g.88893135delG	XM_005256302.1:c.1132delC	XM_005256303.1:c.559delC	NM_000512.4:c.1114delC	XM_005256301.1:c.1114delC
NM_000512.4:c.1120C>T		NC_000016.9:g.88893129G>A	XM_005256302.1:c.1138C>T	XM_005256303.1:c.565C>T	NM_000512.4:c.1120C>T	XM_005256301.1:c.1120C>T
NM_000512.4:c.1127G>A		NC_000016.9:g.88893122C>T	XM_005256302.1:c.1145G>A	XM_005256303.1:c.572G>A	NM_000512.4:c.1127G>A	XM_005256301.1:c.1127G>A
NM_000512.4:c.1138A>G		NC_000016.9:g.88893111T>C	XM_005256302.1:c.1156A>G	XM_005256303.1:c.583A>G	NM_000512.4:c.1138A>G	XM_005256301.1:c.1138A>G
NM_000512.4:c.1140G>T		NC_000016.9:g.88891277C>A	XM_005256302.1:c.1158G>T	XM_005256303.1:c.585G>T	NM_000512.4:c.1140G>T	XM_005256301.1:c.1140G>T
NM_000512.4:c.1142delC		NC_000016.9:g.88891275delG	XM_005256302.1:c.1160delC	XM_005256303.1:c.587delC	NM_000512.4:c.1142delC	XM_005256301.1:c.1142delC
NM_000512.4:c.1155C>A		NC_000016.9:g.88891262G>T	XM_005256302.1:c.1173C>A	XM_005256303.1:c.600C>A	NM_000512.4:c.1155C>A	XM_005256301.1:c.1155C>A
NM_000512.4:c.1156C>T		NC_000016.9:g.88891261G>A	XM_005256302.1:c.1174C>T	XM_005256303.1:c.601C>T	NM_000512.4:c.1156C>T	XM_005256301.1:c.1156C>T
NM_000512.4:c.1157G>A		NC_000016.9:g.88891260C>T	XM_005256302.1:c.1175G>A	XM_005256303.1:c.602G>A	NM_000512.4:c.1157G>A	XM_005256301.1:c.1157G>A
NM_000512.4:c.1162G>A		NC_000016.9:g.88891255C>T	XM_005256302.1:c.1180G>A	XM_005256303.1:c.607G>A	NM_000512.4:c.1162G>A	XM_005256301.1:c.1162G>A
NM_000512.4:c.1168delC		NC_000016.9:g.88891249delG	XM_005256302.1:c.1186delC	XM_005256303.1:c.613delC	NM_000512.4:c.1168delC	XM_005256301.1:c.1168delC
NM_000512.4:c.1171A>G		NC_000016.9:g.88891246T>C	XM_005256302.1:c.1189A>G	XM_005256303.1:c.616A>G	NM_000512.4:c.1171A>G	XM_005256301.1:c.1171A>G
NM_000512.4:c.1175C>T		NC_000016.9:g.88891242G>A	XM_005256302.1:c.1193C>T	XM_005256303.1:c.620C>T	NM_000512.4:c.1175C>T	XM_005256301.1:c.1175C>T
NM_000512.4:c.1180A>C		NC_000016.9:g.88891237T>G	XM_005256302.1:c.1198A>C	XM_005256303.1:c.625A>C	NM_000512.4:c.1180A>C	XM_005256301.1:c.1180A>C
NM_000512.4:c.1183C>G		NC_000016.9:g.88891234G>C	XM_005256302.1:c.1201C>G	XM_005256303.1:c.628C>G	NM_000512.4:c.1183C>G	XM_005256301.1:c.1183C>G
NM_000512.4:c.1192C>G		NC_000016.9:g.88891225G>C	XM_005256302.1:c.1210C>G	XM_005256303.1:c.637C>G	NM_000512.4:c.1192C>G	XM_005256301.1:c.1192C>G
NM_000512.4:c.1195delA		NC_000016.9:g.88891222delT	XM_005256302.1:c.1213delA	XM_005256303.1:c.640delA	NM_000512.4:c.1195delA	XM_005256301.1:c.1195delA
NM_000512.4:c.1209_1210delGAinsTT		NC_000016.9:g.88891207_88891208delinsAA	XM_005256302.1:c.1227_1228delinsTT	XM_005256303.1:c.654_655delinsTT	NM_000512.4:c.1209_1210delinsTT	XM_005256301.1:c.1209_1210delinsTT
NM_000512.4:c.1219A>C		NC_000016.9:g.88891198T>G	XM_005256302.1:c.1237A>C	XM_005256303.1:c.664A>C	NM_000512.4:c.1219A>C	XM_005256301.1:c.1219A>C
NM_000512.4:c.1223delC		NC_000016.9:g.88891194delG	XM_005256302.1:c.1241delC	XM_005256303.1:c.668delC	NM_000512.4:c.1223delC	XM_005256301.1:c.1223delC
NM_000512.4:c.1226G>C		NC_000016.9:g.88891191C>G	XM_005256302.1:c.1244G>C	XM_005256303.1:c.671G>C	NM_000512.4:c.1226G>C	XM_005256301.1:c.1226G>C
NM_000512.4:c.1240C>T		NC_000016.9:g.88891177G>A	XM_005256302.1:c.1258C>T	XM_005256303.1:c.685C>T	NM_000512.4:c.1240C>T	XM_005256301.1:c.1240C>T
NM_000512.4:c.1243-1G>A		NC_000016.9:g.88889119C>T	XM_005256302.1:c.1261-1G>A	XM_005256303.1:c.688-1G>A	NM_000512.4:c.1243-1G>A	XM_005256301.1:c.1243-1G>A
NM_000512.4:c.1244G>T		NC_000016.9:g.88889117C>A	XM_005256302.1:c.1262G>T	XM_005256303.1:c.689G>T	NM_000512.4:c.1244G>T	XM_005256301.1:c.1244G>T
NM_000512.4:c.1247T>C		NC_000016.9:g.88889114A>G	XM_005256302.1:c.1265T>C	XM_005256303.1:c.692T>C	NM_000512.4:c.1247T>C	XM_005256301.1:c.1247T>C
NM_000512.4:c.1259C>G		NC_000016.9:g.88889102G>C	XM_005256302.1:c.1277C>G	XM_005256303.1:c.704C>G	NM_000512.4:c.1259C>G	XM_005256301.1:c.1259C>G
NM_000512.4:c.1264C>T		NC_000016.9:g.88889097G>A	XM_005256302.1:c.1282C>T	XM_005256303.1:c.709C>T	NM_000512.4:c.1264C>T	XM_005256301.1:c.1264C>T
NM_000512.4:c.1264C>A		NC_000016.9:g.88889097G>T	XM_005256302.1:c.1282C>A	XM_005256303.1:c.709C>A	NM_000512.4:c.1264C>A	XM_005256301.1:c.1264C>A
NM_000512.4:c.1275delA		NC_000016.9:g.88889086delT	XM_005256302.1:c.1293delA	XM_005256303.1:c.720delA	NM_000512.4:c.1275delA	XM_005256301.1:c.1275delA
NM_000512.4:c.1354T>A		NC_000016.9:g.88889007A>T	XM_005256302.1:c.1372T>A	XM_005256303.1:c.799T>A	NM_000512.4:c.1354T>A	XM_005256301.1:c.1354T>A
NM_000512.4:c.1354T>C		NC_000016.9:g.88889007A>G	XM_005256302.1:c.1372T>C	XM_005256303.1:c.799T>C	NM_000512.4:c.1354T>C	XM_005256301.1:c.1354T>C
NM_000512.4:c.1355dupT		NC_000016.9:g.88889006dupA	XM_005256302.1:c.1373dupT	XM_005256303.1:c.800dupT	NM_000512.4:c.1355dupT	XM_005256301.1:c.1355dupT
NM_000512.4:c.1364+1G>A		NC_000016.9:g.88888996C>T	XM_005256302.1:c.1382+1G>A	XM_005256303.1:c.809+1G>A	NM_000512.4:c.1364+1G>A	XM_005256301.1:c.1364+1G>A
NM_000512.4:c.1429_1455del27		NC_000016.9:g.88884442_88884468del27	XM_005256302.1:c.1447_1473del27	XM_005256303.1:c.874_900del27	NM_000512.4:c.1429_1455del27	XM_005256301.1:c.1429_1455del27
NM_000512.4:c.1450C>T		NC_000016.9:g.88884447G>A	XM_005256302.1:c.1468C>T	XM_005256303.1:c.895C>T	NM_000512.4:c.1450C>T	XM_005256301.1:c.1450C>T
NM_000512.4:c.1472C>T		NC_000016.9:g.88884425G>A	XM_005256302.1:c.1490C>T	XM_005256303.1:c.917C>T	NM_000512.4:c.1472C>T	XM_005256301.1:c.1472C>T
NM_000512.4:c.1474G>A		NC_000016.9:g.88884423C>T	XM_005256302.1:c.1492G>A	XM_005256303.1:c.919G>A	NM_000512.4:c.1474G>A	XM_005256301.1:c.1474G>A
NM_000512.4:c.1480A>G		NC_000016.9:g.88884417T>C	XM_005256302.1:c.1498A>G	XM_005256303.1:c.925A>G	NM_000512.4:c.1480A>G	XM_005256301.1:c.1480A>G
NM_000512.4:c.1483A>T		NC_000016.9:g.88880933T>A	NM_000485.2:c.-2626A>T	NM_001030018.1:c.-2626A>T	XM_005256302.1:c.1501A>T	XM_005256303.1:c.928A>T	NM_000512.4:c.1483A>T	XM_005256301.1:c.*2647A>T
NM_000512.4:c.1485C>G		NC_000016.9:g.88880931G>C	NM_000485.2:c.-2624C>G	NM_001030018.1:c.-2624C>G	XM_005256302.1:c.1503C>G	XM_005256303.1:c.930C>G	NM_000512.4:c.1485C>G	XM_005256301.1:c.*2649C>G
NM_000512.4:c.1498G>A		NC_000016.9:g.88880918C>T	NM_000485.2:c.-2611G>A	NM_001030018.1:c.-2611G>A	XM_005256302.1:c.1516G>A	XM_005256303.1:c.943G>A	NM_000512.4:c.1498G>A	XM_005256301.1:c.*2662G>A
NM_000512.4:c.1520G>T		NC_000016.9:g.88880896C>A	NM_000485.2:c.-2589G>T	NM_001030018.1:c.-2589G>T	XM_005256302.1:c.1538G>T	XM_005256303.1:c.965G>T	NM_000512.4:c.1520G>T	XM_005256301.1:c.*2684G>T
NM_000512.4:c.1560G>A		NC_000016.9:g.88880856C>T	NM_000485.2:c.-2549G>A	NM_001030018.1:c.-2549G>A	XM_005256302.1:c.1578G>A	XM_005256303.1:c.1005G>A	NM_000512.4:c.1560G>A	XM_005256301.1:c.*2724G>A
NM_000512.4:c.1567T>G		NC_000016.9:g.88880849A>C	NM_000485.2:c.-2542T>G	NM_001030018.1:c.-2542T>G	XM_005256302.1:c.1585T>G	XM_005256303.1:c.1012T>G	NM_000512.4:c.1567T>G	XM_005256301.1:c.*2731T>G
NM_000512.4:c.1568A>G		NC_000016.9:g.88880848T>C	NM_000485.2:c.-2541A>G	NM_001030018.1:c.-2541A>G	XM_005256302.1:c.1586A>G	XM_005256303.1:c.1013A>G	NM_000512.4:c.1568A>G	XM_005256301.1:c.*2732A>G
