"nucl","prot","category"
"c.1A>G","p.M1V","Missense/nonsense"
"c.118C>T","p.R40*","Missense/nonsense"
"c.271G>A","p.D91N","Missense/nonsense"
"c.307T>G","p.C103G","Missense/nonsense"
"c.309C>A","p.C103*","Missense/nonsense"
"c.343C>T","p.Q115*","Missense/nonsense"
"c.377G>A","p.W126*","Missense/nonsense"
"c.378G>A","p.W126*","Missense/nonsense"
"c.421C>A","p.L141M","Missense/nonsense"
"c.461G>C","p.R154P","Missense/nonsense"
"c.506T>C","p.L169P","Missense/nonsense"
"c.533G>A","p.R178H","Missense/nonsense"
"c.573C>A","p.Y191*","Missense/nonsense"
"c.634G>T","p.E212*","Missense/nonsense"
"c.650C>T","p.P217L","Missense/nonsense"
"c.655G>A","p.G219R","Missense/nonsense"
"c.670C>T","p.R224W","Missense/nonsense"
"c.737T>G","p.L246R","Missense/nonsense"
"c.784G>A","p.E262K","Missense/nonsense"
"c.796C>T","p.P266S","Missense/nonsense"
"c.811A>G","p.T271A","Missense/nonsense"
"c.854C>G","p.P285R","Missense/nonsense"
"c.872T>C","p.L291P","Missense/nonsense"
"c.875A>G","p.Y292C","Missense/nonsense"
"c.877G>A","p.G293R","Missense/nonsense"
"c.885C>G","p.H295Q","Missense/nonsense"
"c.893A>C","p.Y298S","Missense/nonsense"
"c.896T>C","p.L299P","Missense/nonsense"
"c.923A>C","p.H308P","Missense/nonsense"
"c.925G>A","p.G309R","Missense/nonsense"
"c.935T>G","p.L312R","Missense/nonsense"
"c.988T>G","p.W330G","Missense/nonsense"
"c.1004G>A","p.G335E","Missense/nonsense"
"c.1054C>T","p.Q352*","Missense/nonsense"
"c.1062C>G","p.Y354*","Missense/nonsense"
"c.1064T>C","p.L355P","Missense/nonsense"
"c.1075G>T","p.G359*","Missense/nonsense"
"c.1080C>G","p.Y360*","Missense/nonsense"
"c.1082C>T","p.P361L","Missense/nonsense"
"c.1099T>C","p.W367R","Missense/nonsense"
"c.1100G>A","p.W367*","Missense/nonsense"
"c.1115A>T","p.H372L","Missense/nonsense"
"c.1120T>C","p.C374R","Missense/nonsense"
"c.1124G>T","p.R375L","Missense/nonsense"
"c.1202A>G","p.Q401R","Missense/nonsense"
"c.1210G>A","p.D404N","Missense/nonsense"
"c.1214T>C","p.L405P","Missense/nonsense"
"c.1222A>G","p.M408V","Missense/nonsense"
"c.1316T>A","p.M439K","Missense/nonsense"
"c.1324G>A","p.V442M","Missense/nonsense"
"c.1333G>C","p.A445P","Missense/nonsense"
"c.1364A>G","p.Y455C","Missense/nonsense"
"c.1364A>T","p.Y455F","Missense/nonsense"
"c.1375G>A","p.D459N","Missense/nonsense"
"c.1397T>G","p.V466G","Missense/nonsense"
"c.1396G>T","p.V466F","Missense/nonsense"
"c.1432G>A","p.G478R","Missense/nonsense"
"c.1437G>C","p.K479N","Missense/nonsense"
"c.1441T>C","p.W481R","Missense/nonsense"
"c.1445C>T","p.P482L","Missense/nonsense"
"c.1447G>A","p.G483R","Missense/nonsense"
"c.1447G>T","p.G483W","Missense/nonsense"
"c.1456G>C","p.A486P","Missense/nonsense"
"c.1460T>C","p.F487S","Missense/nonsense"
"c.1465G>A","p.D489N","Missense/nonsense"
"c.1465G>T","p.D489Y","Missense/nonsense"
"c.1495T>A","p.W499R","Missense/nonsense"
"c.1496G>A","p.W499*","Missense/nonsense"
"c.1540G>C","p.G514R","Missense/nonsense"
"c.1548G>A","p.W516*","Missense/nonsense"
"c.1556T>C","p.M519T","Missense/nonsense"
"c.1561G>C","p.E521Q","Missense/nonsense"
"c.1561G>A","p.E521K","Missense/nonsense"
"c.1564C>G","p.P522A","Missense/nonsense"
"c.1564C>A","p.P522T","Missense/nonsense"
"c.1574T>A","p.F525Y","Missense/nonsense"
"c.1634C>T","p.P545L","Missense/nonsense"
"c.1645G>C","p.G549R","Missense/nonsense"
"c.1655T>C","p.L552P","Missense/nonsense"
"c.1669A>T","p.I557F","Missense/nonsense"
"c.1687C>T","p.Q563*","Missense/nonsense"
"c.1704C>G","p.H568Q","Missense/nonsense"
"c.1710C>G","p.N570K","Missense/nonsense"
"c.1724A>C","p.Y575S","Missense/nonsense"
"c.1726G>A","p.G576S","Missense/nonsense"
"c.1735G>A","p.E579K","Missense/nonsense"
"c.1781G>C","p.R594P","Missense/nonsense"
"c.1796C>A","p.S599Y","Missense/nonsense"
"c.1798C>T","p.R600C","Missense/nonsense"
"c.1799G>T","p.R600L","Missense/nonsense"
"c.1802C>T","p.S601L","Missense/nonsense"
"c.1802C>G","p.S601W","Missense/nonsense"
"c.1820G>A","p.G607D","Missense/nonsense"
"c.1822C>T","p.R608*","Missense/nonsense"
"c.1827C>G","p.Y609*","Missense/nonsense"
"c.1832G>A","p.G611D","Missense/nonsense"
"c.1836C>G","p.H612Q","Missense/nonsense"
"c.1834C>T","p.H612Y","Missense/nonsense"
"c.1840A>G","p.T614A","Missense/nonsense"
"c.1843G>A","p.G615R","Missense/nonsense"
"c.1857C>G","p.S619R","Missense/nonsense"
"c.1856G>A","p.S619N","Missense/nonsense"
"c.1905C>A","p.N635K","Missense/nonsense"
"c.1912G>T","p.G638W","Missense/nonsense"
"c.1913G>T","p.G638V","Missense/nonsense"
"c.1927G>A","p.G643R","Missense/nonsense"
"c.1930G>C","p.A644P","Missense/nonsense"
"c.1933G>A","p.D645N","Missense/nonsense"
"c.1935C>A","p.D645E","Missense/nonsense"
"c.1933G>T","p.D645Y","Missense/nonsense"
"c.1941C>G","p.C647W","Missense/nonsense"
"c.1943G>A","p.G648D","Missense/nonsense"
"c.1958C>A","p.T653N","Missense/nonsense"
"c.1960T>C","p.S654P","Missense/nonsense"
"c.1978C>T","p.R660C","Missense/nonsense"
"c.2015G>A","p.R672Q","Missense/nonsense"
"c.2014C>T","p.R672W","Missense/nonsense"
"c.2065G>A","p.E689K","Missense/nonsense"
"c.2104C>T","p.R702C","Missense/nonsense"
"c.2132C>G","p.T711R","Missense/nonsense"
"c.2174G>C","p.R725P","Missense/nonsense"
"c.2173C>T","p.R725W","Missense/nonsense"
"c.2227C>T","p.Q743*","Missense/nonsense"
"c.2238G>C","p.W746C","Missense/nonsense"
"c.2237G>A","p.W746*","Missense/nonsense"
"c.2238G>A","p.W746*","Missense/nonsense"
"c.2269C>T","p.Q757*","Missense/nonsense"
"c.2297A>G","p.Y766C","Missense/nonsense"
"c.2297A>C","p.Y766S","Missense/nonsense"
"c.2303C>T","p.P768L","Missense/nonsense"
"c.2320G>A","p.D774N","Missense/nonsense"
"c.2395C>T","p.H799Y","Missense/nonsense"
"c.2560C>T","p.R854*","Missense/nonsense"
"c.2608C>T","p.R870*","Missense/nonsense"
"c.2639C>A","p.A880D","Missense/nonsense"
"c.2662G>T","p.E888*","Missense/nonsense"
"c.2702T>A","p.L901Q","Missense/nonsense"
"c.-32-13T>G","","splicing"
"c.-32-3C>A","","splicing"
"c.546G>A","","splicing"
"c.546G>C","","splicing"
"c.546G>T","","splicing"
"c.546+1G>T","","splicing"
"c.546+5G>T","","splicing"
"c.692+1G>C","","splicing"
"c.859-2A>T","","splicing"
"c.1076-1G>A","","splicing"
"c.1076-1G>C","","splicing"
"c.1194+2T>A","","splicing"
"c.1194+2T>C","","splicing"
"c.1195-1G>A","","splicing"
"c.1437+2T>C","","splicing"
"c.1438-1G>C","","splicing"
"c.1551+1G>A","","splicing"
"c.1551+1G>C","","splicing"
"c.1551+2T>G","","splicing"
"c.1552-3C>G","","splicing"
"c.1626C>G","","splicing"
"c.1637-2A>G","","splicing"
"c.1754+1G>A","","splicing"
"c.1755-1G>A","","splicing"
"c.2040G>A","","splicing"
"c.2041-2A>C","","splicing"
"c.2331+2T>C","","splicing"
"c.2331+4A>G","","splicing"
"c.2646+2T>A","","splicing"
"c.25delT","","small deletions"
"c.424_440del17","","small deletions"
"c.525delT","","small deletions"
"c.546+2_546+5delTGGG","","small deletions"
"c.722_723delTT","","small deletions"
"c.794delG","","small deletions"
"c.1209delC","","small deletions"
"c.1199_1210del12","","small deletions"
"c.1293_1312del20","","small deletions"
"c.1356delC","","small deletions"
"c.1377_1379delCGA","","small deletions"
"c.1396delG","","small deletions"
"c.1408_1410delAAC","","small deletions"
"c.1654delC","","small deletions"
"c.1694_1697delTCTC","","small deletions"
"c.1776delG","","small deletions"
"c.1827delC","","small deletions"
"c.2185delC","","small deletions"
"c.2219_2220delTG","","small deletions"
"c.2255_2257delTCA","","small deletions"
"c.2380delC","","small deletions"
"c.2432delT","","small deletions"
"c.2495_2496delCA","","small deletions"
"c.2501_2502delCA","","small deletions"
"c.2605delG","","small deletions"
"c.2646+2_2646+3delTG","","small deletions"
"c.258dupC","","small insertions"
"c.340_341insT","","small insertions"
"c.685_686insCGGC","","small insertions"
"c.1192dupC","","small insertions"
"c.1650dupG","","small insertions"
"c.1826dupA","","small insertions"
"c.2066_2070dupAGCCG","","small insertions"
"c.2242dupG","","small insertions"
"c.2431dupC","","small insertions"
"c.2841dupT","","small insertions"
"c.1128_1129delGGinsC","","small indels"
"c.2281delGinsAT","","small indels"
"c.2298_2301delCTTCinsAAAGTA","","small indels"
"c.2600_2604delTGCTGinsA","","small indels"
