Input Variant	Errors	Chromosomal Variant	Coding Variant(s)
NM_000152.3:c.1A>G		NC_000017.10:g.78078386A>G	XM_005257194.1:c.1A>G	LRG_673t1:c.1A>G	NM_000152.3:c.1A>G	NM_001079803.1:c.1A>G	NM_001079804.1:c.1A>G	XM_005257193.1:c.1A>G	NM_017950.3:c.*4812A>G	NM_017950.2:c.*4812A>G	XM_005257491.1:c.*4812A>G
NM_000152.3:c.18_25del		NC_000017.10:g.78078403_78078410del	XM_005257194.1:c.18_25del	LRG_673t1:c.18_25del	NM_000152.3:c.18_25del	NM_001079803.1:c.18_25del	NM_001079804.1:c.18_25del	XM_005257193.1:c.18_25del	NM_017950.3:c.*4829_*4836del	NM_017950.2:c.*4829_*4836del	XM_005257491.1:c.*4829_*4836del
NM_000152.3:c.25delT		NC_000017.10:g.78078410delT	XM_005257194.1:c.25delT	LRG_673t1:c.25delT	NM_000152.3:c.25delT	NM_001079803.1:c.25delT	NM_001079804.1:c.25delT	XM_005257193.1:c.25delT	NM_017950.3:c.*4836delT	NM_017950.2:c.*4836delT	XM_005257491.1:c.*4836delT
NM_000152.3:c.-32-13T>G		NC_000017.10:g.78078341T>G	XM_005257194.1:c.-32-13T>G	LRG_673t1:c.-32-13T>G	NM_000152.3:c.-32-13T>G	NM_001079803.1:c.-32-13T>G	NM_001079804.1:c.-32-13T>G	XM_005257193.1:c.-32-13T>G	NM_017950.3:c.*4767T>G	NM_017950.2:c.*4767T>G	XM_005257491.1:c.*4767T>G
NM_000152.3:c.-32-3C>A		NC_000017.10:g.78078351C>A	XM_005257194.1:c.-32-3C>A	LRG_673t1:c.-32-3C>A	NM_000152.3:c.-32-3C>A	NM_001079803.1:c.-32-3C>A	NM_001079804.1:c.-32-3C>A	XM_005257193.1:c.-32-3C>A	NM_017950.3:c.*4777C>A	NM_017950.2:c.*4777C>A	XM_005257491.1:c.*4777C>A
NM_000152.3:c.118C>T		NC_000017.10:g.78078503C>T	XM_005257194.1:c.118C>T	LRG_673t1:c.118C>T	NM_000152.3:c.118C>T	NM_001079803.1:c.118C>T	NM_001079804.1:c.118C>T	XM_005257193.1:c.118C>T	NM_017950.3:c.*4929C>T	NM_017950.2:c.*4929C>T	XM_005257491.1:c.*4929C>T
NM_000152.3:c.136T>G		NC_000017.10:g.78078521T>G	XM_005257194.1:c.136T>G	LRG_673t1:c.136T>G	NM_000152.3:c.136T>G	NM_001079803.1:c.136T>G	NM_001079804.1:c.136T>G	XM_005257193.1:c.136T>G	NM_017950.3:c.*4947T>G	NM_017950.2:c.*4947T>G	XM_005257491.1:c.*4947T>G
NM_000152.3:c.148_859-11del		NC_000017.10:g.78078533_78081588del	XM_005257194.1:c.148_859-11del	LRG_673t1:c.148_859-11del	NM_000152.3:c.148_859-11del	NM_001079803.1:c.148_859-11del	NM_001079804.1:c.148_859-11del	XM_005257193.1:c.148_859-11del	NM_017950.3:c.*4959_*8014del	NM_017950.2:c.*4959_*8014del	XM_005257491.1:c.*4959_*8014del
NM_000152.3:c.236_246delCCACACAGTGC		NC_000017.10:g.78078621_78078631delCCACACAGTGC	XM_005257194.1:c.236_246delCCACACAGTGC	LRG_673t1:c.236_246delCCACACAGTGC	NM_000152.3:c.236_246delCCACACAGTGC	NM_001079803.1:c.236_246delCCACACAGTGC	NM_001079804.1:c.236_246delCCACACAGTGC	XM_005257193.1:c.236_246delCCACACAGTGC	NM_017950.3:c.*5047_*5057delCCACACAGTGC	NM_017950.2:c.*5047_*5057delCCACACAGTGC	XM_005257491.1:c.*5047_*5057delCCACACAGTGC
NM_000152.3:c.258dupC		NC_000017.10:g.78078643dup	XM_005257194.1:c.258dup	LRG_673t1:c.258dup	NM_000152.3:c.258dup	NM_001079803.1:c.258dup	NM_001079804.1:c.258dup	XM_005257193.1:c.258dup	NM_017950.3:c.*5069dup	NM_017950.2:c.*5069dup	XM_005257491.1:c.*5069dup
NM_000152.3:c.271G>A		NC_000017.10:g.78078656G>A	XM_005257194.1:c.271G>A	LRG_673t1:c.271G>A	NM_000152.3:c.271G>A	NM_001079803.1:c.271G>A	NM_001079804.1:c.271G>A	XM_005257193.1:c.271G>A	NM_017950.3:c.*5082G>A	NM_017950.2:c.*5082G>A	XM_005257491.1:c.*5082G>A
NM_000152.3:c.271del		NC_000017.10:g.78078656del	XM_005257194.1:c.271del	LRG_673t1:c.271del	NM_000152.3:c.271del	NM_001079803.1:c.271del	NM_001079804.1:c.271del	XM_005257193.1:c.271del	NM_017950.3:c.*5082del	NM_017950.2:c.*5082del	XM_005257491.1:c.*5082del
NM_000152.3:c.307T>G		NC_000017.10:g.78078692T>G	XM_005257194.1:c.307T>G	LRG_673t1:c.307T>G	NM_000152.3:c.307T>G	NM_001079803.1:c.307T>G	NM_001079804.1:c.307T>G	XM_005257193.1:c.307T>G	NM_017950.3:c.*5118T>G	NM_017950.2:c.*5118T>G	XM_005257491.1:c.*5118T>G
NM_000152.3:c.309C>A		NC_000017.10:g.78078694C>A	XM_005257194.1:c.309C>A	LRG_673t1:c.309C>A	NM_000152.3:c.309C>A	NM_001079803.1:c.309C>A	NM_001079804.1:c.309C>A	XM_005257193.1:c.309C>A	NM_017950.3:c.*5120C>A	NM_017950.2:c.*5120C>A	XM_005257491.1:c.*5120C>A
NM_000152.3:c.340_341insT		NC_000017.10:g.78078725_78078726insT	XM_005257194.1:c.340_341insT	LRG_673t1:c.340_341insT	NM_000152.3:c.340_341insT	NM_001079803.1:c.340_341insT	NM_001079804.1:c.340_341insT	XM_005257193.1:c.340_341insT	NM_017950.3:c.*5151_*5152insT	NM_017950.2:c.*5151_*5152insT	XM_005257491.1:c.*5151_*5152insT
NM_000152.3:c.343C>T		NC_000017.10:g.78078728C>T	XM_005257194.1:c.343C>T	LRG_673t1:c.343C>T	NM_000152.3:c.343C>T	NM_001079803.1:c.343C>T	NM_001079804.1:c.343C>T	XM_005257193.1:c.343C>T	NM_017950.3:c.*5154C>T	NM_017950.2:c.*5154C>T	XM_005257491.1:c.*5154C>T
NM_000152.3:c.377G>A		NC_000017.10:g.78078762G>A	XM_005257194.1:c.377G>A	LRG_673t1:c.377G>A	NM_000152.3:c.377G>A	NM_001079803.1:c.377G>A	NM_001079804.1:c.377G>A	XM_005257193.1:c.377G>A	NM_017950.3:c.*5188G>A	NM_017950.2:c.*5188G>A	XM_005257491.1:c.*5188G>A
NM_000152.3:c.378G>A		NC_000017.10:g.78078763G>A	XM_005257194.1:c.378G>A	LRG_673t1:c.378G>A	NM_000152.3:c.378G>A	NM_001079803.1:c.378G>A	NM_001079804.1:c.378G>A	XM_005257193.1:c.378G>A	NM_017950.3:c.*5189G>A	NM_017950.2:c.*5189G>A	XM_005257491.1:c.*5189G>A
NM_000152.3:c.421C>A		NC_000017.10:g.78078806C>A	XM_005257194.1:c.421C>A	LRG_673t1:c.421C>A	NM_000152.3:c.421C>A	NM_001079803.1:c.421C>A	NM_001079804.1:c.421C>A	XM_005257193.1:c.421C>A	NM_017950.3:c.*5232C>A	NM_017950.2:c.*5232C>A	XM_005257491.1:c.*5232C>A
NM_000152.3:c.424_440del17		NC_000017.10:g.78078809_78078825del17	XM_005257194.1:c.424_440del17	LRG_673t1:c.424_440del17	NM_000152.3:c.424_440del17	NM_001079803.1:c.424_440del17	NM_001079804.1:c.424_440del17	XM_005257193.1:c.424_440del17	NM_017950.3:c.*5235_*5251del17	NM_017950.2:c.*5235_*5251del17	XM_005257491.1:c.*5235_*5251del17
NM_000152.3:c.424_440del		NC_000017.10:g.78078809_78078825del	XM_005257194.1:c.424_440del	LRG_673t1:c.424_440del	NM_000152.3:c.424_440del	NM_001079803.1:c.424_440del	NM_001079804.1:c.424_440del	XM_005257193.1:c.424_440del	NM_017950.3:c.*5235_*5251del	NM_017950.2:c.*5235_*5251del	XM_005257491.1:c.*5235_*5251del
NM_000152.3:c.461G>C		NC_000017.10:g.78078846G>C	XM_005257194.1:c.461G>C	LRG_673t1:c.461G>C	NM_000152.3:c.461G>C	NM_001079803.1:c.461G>C	NM_001079804.1:c.461G>C	XM_005257193.1:c.461G>C	NM_017950.3:c.*5272G>C	NM_017950.2:c.*5272G>C	XM_005257491.1:c.*5272G>C
NM_000152.3:c.506T>C		NC_000017.10:g.78078891T>C	XM_005257194.1:c.506T>C	LRG_673t1:c.506T>C	NM_000152.3:c.506T>C	NM_001079803.1:c.506T>C	NM_001079804.1:c.506T>C	XM_005257193.1:c.506T>C	NM_017950.3:c.*5317T>C	NM_017950.2:c.*5317T>C	XM_005257491.1:c.*5317T>C
NM_000152.3:c.525del		NC_000017.10:g.78078910del	XM_005257194.1:c.525del	LRG_673t1:c.525del	NM_000152.3:c.525del	NM_001079803.1:c.525del	NM_001079804.1:c.525del	XM_005257193.1:c.525del	NM_017950.3:c.*5336del	NM_017950.2:c.*5336del	XM_005257491.1:c.*5336del
NM_000152.3:c.525delT		NC_000017.10:g.78078910delT	XM_005257194.1:c.525delT	LRG_673t1:c.525delT	NM_000152.3:c.525delT	NM_001079803.1:c.525delT	NM_001079804.1:c.525delT	XM_005257193.1:c.525delT	NM_017950.3:c.*5336delT	NM_017950.2:c.*5336delT	XM_005257491.1:c.*5336delT
NM_000152.3:c.533G>A		NC_000017.10:g.78078918G>A	XM_005257194.1:c.533G>A	LRG_673t1:c.533G>A	NM_000152.3:c.533G>A	NM_001079803.1:c.533G>A	NM_001079804.1:c.533G>A	XM_005257193.1:c.533G>A	NM_017950.3:c.*5344G>A	NM_017950.2:c.*5344G>A	XM_005257491.1:c.*5344G>A
NM_000152.3:c.546+2_546+5delTGGG		NC_000017.10:g.78078933_78078936delTGGG	XM_005257194.1:c.546+2_546+5delTGGG	LRG_673t1:c.546+2_546+5delTGGG	NM_000152.3:c.546+2_546+5delTGGG	NM_001079803.1:c.546+2_546+5delTGGG	NM_001079804.1:c.546+2_546+5delTGGG	XM_005257193.1:c.546+2_546+5delTGGG	NM_017950.3:c.*5359_*5362delTGGG	NM_017950.2:c.*5359_*5362delTGGG	XM_005257491.1:c.*5359_*5362delTGGG
NM_000152.3:c.546+5G>T		NC_000017.10:g.78078936G>T	XM_005257194.1:c.546+5G>T	LRG_673t1:c.546+5G>T	NM_000152.3:c.546+5G>T	NM_001079803.1:c.546+5G>T	NM_001079804.1:c.546+5G>T	XM_005257193.1:c.546+5G>T	NM_017950.3:c.*5362G>T	NM_017950.2:c.*5362G>T	XM_005257491.1:c.*5362G>T
NM_000152.3:c.546G>T		NC_000017.10:g.78078931G>T	XM_005257194.1:c.546G>T	LRG_673t1:c.546G>T	NM_000152.3:c.546G>T	NM_001079803.1:c.546G>T	NM_001079804.1:c.546G>T	XM_005257193.1:c.546G>T	NM_017950.3:c.*5357G>T	NM_017950.2:c.*5357G>T	XM_005257491.1:c.*5357G>T
NM_000152.3:c.546G>C		NC_000017.10:g.78078931G>C	XM_005257194.1:c.546G>C	LRG_673t1:c.546G>C	NM_000152.3:c.546G>C	NM_001079803.1:c.546G>C	NM_001079804.1:c.546G>C	XM_005257193.1:c.546G>C	NM_017950.3:c.*5357G>C	NM_017950.2:c.*5357G>C	XM_005257491.1:c.*5357G>C
NM_000152.3:c.546G>A		NC_000017.10:g.78078931G>A	XM_005257194.1:c.546G>A	LRG_673t1:c.546G>A	NM_000152.3:c.546G>A	NM_001079803.1:c.546G>A	NM_001079804.1:c.546G>A	XM_005257193.1:c.546G>A	NM_017950.3:c.*5357G>A	NM_017950.2:c.*5357G>A	XM_005257491.1:c.*5357G>A
NM_000152.3:c.546+1G>T		NC_000017.10:g.78078932G>T	XM_005257194.1:c.546+1G>T	LRG_673t1:c.546+1G>T	NM_000152.3:c.546+1G>T	NM_001079803.1:c.546+1G>T	NM_001079804.1:c.546+1G>T	XM_005257193.1:c.546+1G>T	NM_017950.3:c.*5358G>T	NM_017950.2:c.*5358G>T	XM_005257491.1:c.*5358G>T
NM_000152.3:c.573C>A		NC_000017.10:g.78079574C>A	XM_005257194.1:c.573C>A	LRG_673t1:c.573C>A	NM_000152.3:c.573C>A	NM_001079803.1:c.573C>A	NM_001079804.1:c.573C>A	XM_005257193.1:c.573C>A
NM_000152.3:c.634G>T		NC_000017.10:g.78079635G>T	XM_005257194.1:c.634G>T	LRG_673t1:c.634G>T	NM_000152.3:c.634G>T	NM_001079803.1:c.634G>T	NM_001079804.1:c.634G>T	XM_005257193.1:c.634G>T
NM_000152.3:c.650C>T		NC_000017.10:g.78079651C>T	XM_005257194.1:c.650C>T	LRG_673t1:c.650C>T	NM_000152.3:c.650C>T	NM_001079803.1:c.650C>T	NM_001079804.1:c.650C>T	XM_005257193.1:c.650C>T
NM_000152.3:c.655G>A		NC_000017.10:g.78079656G>A	XM_005257194.1:c.655G>A	LRG_673t1:c.655G>A	NM_000152.3:c.655G>A	NM_001079803.1:c.655G>A	NM_001079804.1:c.655G>A	XM_005257193.1:c.655G>A
NM_000152.3:c.670C>T		NC_000017.10:g.78079671C>T	XM_005257194.1:c.670C>T	LRG_673t1:c.670C>T	NM_000152.3:c.670C>T	NM_001079803.1:c.670C>T	NM_001079804.1:c.670C>T	XM_005257193.1:c.670C>T
NM_000152.3:c.685_686insCGGC		NC_000017.10:g.78079686_78079687insCGGC	XM_005257194.1:c.685_686insCGGC	LRG_673t1:c.685_686insCGGC	NM_000152.3:c.685_686insCGGC	NM_001079803.1:c.685_686insCGGC	NM_001079804.1:c.685_686insCGGC	XM_005257193.1:c.685_686insCGGC
NM_000152.3:c.692+1G>C		NC_000017.10:g.78079694G>C	XM_005257194.1:c.692+1G>C	LRG_673t1:c.692+1G>C	NM_000152.3:c.692+1G>C	NM_001079803.1:c.692+1G>C	NM_001079804.1:c.692+1G>C	XM_005257193.1:c.692+1G>C
NM_000152.3:c.716del		NC_000017.10:g.78081379del	XM_005257194.1:c.716del	LRG_673t1:c.716del	NM_000152.3:c.716del	NM_001079803.1:c.716del	NM_001079804.1:c.716del	XM_005257193.1:c.716del
NM_000152.3:c.722_723delTT		NC_000017.10:g.78081385_78081386delTT	XM_005257194.1:c.722_723delTT	LRG_673t1:c.722_723delTT	NM_000152.3:c.722_723delTT	NM_001079803.1:c.722_723delTT	NM_001079804.1:c.722_723delTT	XM_005257193.1:c.722_723delTT
NM_000152.3:c.737T>G		NC_000017.10:g.78081400T>G	XM_005257194.1:c.737T>G	LRG_673t1:c.737T>G	NM_000152.3:c.737T>G	NM_001079803.1:c.737T>G	NM_001079804.1:c.737T>G	XM_005257193.1:c.737T>G
NM_000152.3:c.752C>T		NC_000017.10:g.78081415C>T	XM_005257194.1:c.752C>T	LRG_673t1:c.752C>T	NM_000152.3:c.752C>T	NM_001079803.1:c.752C>T	NM_001079804.1:c.752C>T	XM_005257193.1:c.752C>T
NM_000152.3:c.761C>T		NC_000017.10:g.78081424C>T	XM_005257194.1:c.761C>T	LRG_673t1:c.761C>T	NM_000152.3:c.761C>T	NM_001079803.1:c.761C>T	NM_001079804.1:c.761C>T	XM_005257193.1:c.761C>T
NM_000152.3:c.784G>A		NC_000017.10:g.78081447G>A	XM_005257194.1:c.784G>A	LRG_673t1:c.784G>A	NM_000152.3:c.784G>A	NM_001079803.1:c.784G>A	NM_001079804.1:c.784G>A	XM_005257193.1:c.784G>A
NM_000152.3:c.794delG		NC_000017.10:g.78081457delG	XM_005257194.1:c.794delG	LRG_673t1:c.794delG	NM_000152.3:c.794delG	NM_001079803.1:c.794delG	NM_001079804.1:c.794delG	XM_005257193.1:c.794delG
NM_000152.3:c.796C>T		NC_000017.10:g.78081459C>T	XM_005257194.1:c.796C>T	LRG_673t1:c.796C>T	NM_000152.3:c.796C>T	NM_001079803.1:c.796C>T	NM_001079804.1:c.796C>T	XM_005257193.1:c.796C>T
NM_000152.3:c.811A>G		NC_000017.10:g.78081474A>G	XM_005257194.1:c.811A>G	LRG_673t1:c.811A>G	NM_000152.3:c.811A>G	NM_001079803.1:c.811A>G	NM_001079804.1:c.811A>G	XM_005257193.1:c.811A>G
NM_000152.3:c.854C>G		NC_000017.10:g.78081517C>G	XM_005257194.1:c.854C>G	LRG_673t1:c.854C>G	NM_000152.3:c.854C>G	NM_001079803.1:c.854C>G	NM_001079804.1:c.854C>G	XM_005257193.1:c.854C>G
NM_000152.3:c.859-2A>T		NC_000017.10:g.78081597A>T	XM_005257194.1:c.859-2A>T	LRG_673t1:c.859-2A>T	NM_000152.3:c.859-2A>T	NM_001079803.1:c.859-2A>T	NM_001079804.1:c.859-2A>T	XM_005257193.1:c.859-2A>T
NM_000152.3:c.872T>C		NC_000017.10:g.78081612T>C	XM_005257194.1:c.872T>C	LRG_673t1:c.872T>C	NM_000152.3:c.872T>C	NM_001079803.1:c.872T>C	NM_001079804.1:c.872T>C	XM_005257193.1:c.872T>C
NM_000152.3:c.875A>G		NC_000017.10:g.78081615A>G	XM_005257194.1:c.875A>G	LRG_673t1:c.875A>G	NM_000152.3:c.875A>G	NM_001079803.1:c.875A>G	NM_001079804.1:c.875A>G	XM_005257193.1:c.875A>G
NM_000152.3:c.877G>A		NC_000017.10:g.78081617G>A	XM_005257194.1:c.877G>A	LRG_673t1:c.877G>A	NM_000152.3:c.877G>A	NM_001079803.1:c.877G>A	NM_001079804.1:c.877G>A	XM_005257193.1:c.877G>A
NM_000152.3:c.885C>G		NC_000017.10:g.78081625C>G	XM_005257194.1:c.885C>G	LRG_673t1:c.885C>G	NM_000152.3:c.885C>G	NM_001079803.1:c.885C>G	NM_001079804.1:c.885C>G	XM_005257193.1:c.885C>G
NM_000152.3:c.893A>C		NC_000017.10:g.78081633A>C	XM_005257194.1:c.893A>C	LRG_673t1:c.893A>C	NM_000152.3:c.893A>C	NM_001079803.1:c.893A>C	NM_001079804.1:c.893A>C	XM_005257193.1:c.893A>C
NM_000152.3:c.896T>C		NC_000017.10:g.78081636T>C	XM_005257194.1:c.896T>C	LRG_673t1:c.896T>C	NM_000152.3:c.896T>C	NM_001079803.1:c.896T>C	NM_001079804.1:c.896T>C	XM_005257193.1:c.896T>C
NM_000152.3:c.923A>C		NC_000017.10:g.78081663A>C	XM_005257194.1:c.923A>C	LRG_673t1:c.923A>C	NM_000152.3:c.923A>C	NM_001079803.1:c.923A>C	NM_001079804.1:c.923A>C	XM_005257193.1:c.923A>C
NM_000152.3:c.925G>A		NC_000017.10:g.78081665G>A	XM_005257194.1:c.925G>A	LRG_673t1:c.925G>A	NM_000152.3:c.925G>A	NM_001079803.1:c.925G>A	NM_001079804.1:c.925G>A	XM_005257193.1:c.925G>A
NM_000152.3:c.935T>G		NC_000017.10:g.78081675T>G	XM_005257194.1:c.935T>G	LRG_673t1:c.935T>G	NM_000152.3:c.935T>G	NM_001079803.1:c.935T>G	NM_001079804.1:c.935T>G	XM_005257193.1:c.935T>G
NM_000152.3:c.988T>G		NC_000017.10:g.78082121T>G	XM_005257194.1:c.988T>G	LRG_673t1:c.988T>G	NM_000152.3:c.988T>G	NM_001079803.1:c.988T>G	NM_001079804.1:c.988T>G	XM_005257193.1:c.988T>G
NM_000152.3:c.1004G>A		NC_000017.10:g.78082137G>A	XM_005257194.1:c.1004G>A	LRG_673t1:c.1004G>A	NM_000152.3:c.1004G>A	NM_001079803.1:c.1004G>A	NM_001079804.1:c.1004G>A	XM_005257193.1:c.1004G>A
NM_000152.3:c.1054C>T		NC_000017.10:g.78082187C>T	XM_005257194.1:c.1054C>T	LRG_673t1:c.1054C>T	NM_000152.3:c.1054C>T	NM_001079803.1:c.1054C>T	NM_001079804.1:c.1054C>T	XM_005257193.1:c.1054C>T
NM_000152.3:c.1062C>G		NC_000017.10:g.78082195C>G	XM_005257194.1:c.1062C>G	LRG_673t1:c.1062C>G	NM_000152.3:c.1062C>G	NM_001079803.1:c.1062C>G	NM_001079804.1:c.1062C>G	XM_005257193.1:c.1062C>G
NM_000152.3:c.1064T>C		NC_000017.10:g.78082197T>C	XM_005257194.1:c.1064T>C	LRG_673t1:c.1064T>C	NM_000152.3:c.1064T>C	NM_001079803.1:c.1064T>C	NM_001079804.1:c.1064T>C	XM_005257193.1:c.1064T>C
NM_000152.3:c.1075G>T		NC_000017.10:g.78082208G>T	XM_005257194.1:c.1075G>T	LRG_673t1:c.1075G>T	NM_000152.3:c.1075G>T	NM_001079803.1:c.1075G>T	NM_001079804.1:c.1075G>T	XM_005257193.1:c.1075G>T
NM_000152.3:c.1076-1G>C		NC_000017.10:g.78082287G>C	XM_005257194.1:c.1076-1G>C	LRG_673t1:c.1076-1G>C	NM_000152.3:c.1076-1G>C	NM_001079803.1:c.1076-1G>C	NM_001079804.1:c.1076-1G>C	XM_005257193.1:c.1076-1G>C
NM_000152.3:c.1076-1G>A		NC_000017.10:g.78082287G>A	XM_005257194.1:c.1076-1G>A	LRG_673t1:c.1076-1G>A	NM_000152.3:c.1076-1G>A	NM_001079803.1:c.1076-1G>A	NM_001079804.1:c.1076-1G>A	XM_005257193.1:c.1076-1G>A
NM_000152.3:c.1080C>G		NC_000017.10:g.78082292C>G	XM_005257194.1:c.1080C>G	LRG_673t1:c.1080C>G	NM_000152.3:c.1080C>G	NM_001079803.1:c.1080C>G	NM_001079804.1:c.1080C>G	XM_005257193.1:c.1080C>G
NM_000152.3:c.1082C>T		NC_000017.10:g.78082294C>T	XM_005257194.1:c.1082C>T	LRG_673t1:c.1082C>T	NM_000152.3:c.1082C>T	NM_001079803.1:c.1082C>T	NM_001079804.1:c.1082C>T	XM_005257193.1:c.1082C>T
NM_000152.3:c.1099T>C		NC_000017.10:g.78082311T>C	XM_005257194.1:c.1099T>C	LRG_673t1:c.1099T>C	NM_000152.3:c.1099T>C	NM_001079803.1:c.1099T>C	NM_001079804.1:c.1099T>C	XM_005257193.1:c.1099T>C
NM_000152.3:c.1100G>A		NC_000017.10:g.78082312G>A	XM_005257194.1:c.1100G>A	LRG_673t1:c.1100G>A	NM_000152.3:c.1100G>A	NM_001079803.1:c.1100G>A	NM_001079804.1:c.1100G>A	XM_005257193.1:c.1100G>A
NM_000152.3:c.1115A>T		NC_000017.10:g.78082327A>T	XM_005257194.1:c.1115A>T	LRG_673t1:c.1115A>T	NM_000152.3:c.1115A>T	NM_001079803.1:c.1115A>T	NM_001079804.1:c.1115A>T	XM_005257193.1:c.1115A>T
NM_000152.3:c.1120T>C		NC_000017.10:g.78082332T>C	XM_005257194.1:c.1120T>C	LRG_673t1:c.1120T>C	NM_000152.3:c.1120T>C	NM_001079803.1:c.1120T>C	NM_001079804.1:c.1120T>C	XM_005257193.1:c.1120T>C
NM_000152.3:c.1124G>T		NC_000017.10:g.78082336G>T	XM_005257194.1:c.1124G>T	LRG_673t1:c.1124G>T	NM_000152.3:c.1124G>T	NM_001079803.1:c.1124G>T	NM_001079804.1:c.1124G>T	XM_005257193.1:c.1124G>T
NM_000152.3:c.1128_1129delGGinsC		NC_000017.10:g.78082340_78082341delinsC	XM_005257194.1:c.1128_1129delinsC	LRG_673t1:c.1128_1129delinsC	NM_000152.3:c.1128_1129delinsC	NM_001079803.1:c.1128_1129delinsC	NM_001079804.1:c.1128_1129delinsC	XM_005257193.1:c.1128_1129delinsC
NM_000152.3:c.1192dupC		NC_000017.10:g.78082404dup	XM_005257194.1:c.1192dup	LRG_673t1:c.1192dup	NM_000152.3:c.1192dup	NM_001079803.1:c.1192dup	NM_001079804.1:c.1192dup	XM_005257193.1:c.1192dup
NM_000152.3:c.1194+2T>A		NC_000017.10:g.78082408T>A	XM_005257194.1:c.1194+2T>A	LRG_673t1:c.1194+2T>A	NM_000152.3:c.1194+2T>A	NM_001079803.1:c.1194+2T>A	NM_001079804.1:c.1194+2T>A	XM_005257193.1:c.1194+2T>A
NM_000152.3:c.1194+2T>C		NC_000017.10:g.78082408T>C	XM_005257194.1:c.1194+2T>C	LRG_673t1:c.1194+2T>C	NM_000152.3:c.1194+2T>C	NM_001079803.1:c.1194+2T>C	NM_001079804.1:c.1194+2T>C	XM_005257193.1:c.1194+2T>C
NM_000152.3:c.1195-1G>A		NC_000017.10:g.78082495G>A	XM_005257194.1:c.1195-1G>A	LRG_673t1:c.1195-1G>A	NM_000152.3:c.1195-1G>A	NM_001079803.1:c.1195-1G>A	NM_001079804.1:c.1195-1G>A	XM_005257193.1:c.1195-1G>A
NM_000152.3:c.1199_1210del12		NC_000017.10:g.78082500_78082511del12	XM_005257194.1:c.1199_1210del12	LRG_673t1:c.1199_1210del12	NM_000152.3:c.1199_1210del12	NM_001079803.1:c.1199_1210del12	NM_001079804.1:c.1199_1210del12	XM_005257193.1:c.1199_1210del12
NM_000152.3:c.1202A>G		NC_000017.10:g.78082503A>G	XM_005257194.1:c.1202A>G	LRG_673t1:c.1202A>G	NM_000152.3:c.1202A>G	NM_001079803.1:c.1202A>G	NM_001079804.1:c.1202A>G	XM_005257193.1:c.1202A>G
NM_000152.3:c.1209delC		NC_000017.10:g.78082510delC	XM_005257194.1:c.1209delC	LRG_673t1:c.1209delC	NM_000152.3:c.1209delC	NM_001079803.1:c.1209delC	NM_001079804.1:c.1209delC	XM_005257193.1:c.1209delC
NM_000152.3:c.1210G>A		NC_000017.10:g.78082511G>A	XM_005257194.1:c.1210G>A	LRG_673t1:c.1210G>A	NM_000152.3:c.1210G>A	NM_001079803.1:c.1210G>A	NM_001079804.1:c.1210G>A	XM_005257193.1:c.1210G>A
NM_000152.3:c.1214T>C		NC_000017.10:g.78082515T>C	XM_005257194.1:c.1214T>C	LRG_673t1:c.1214T>C	NM_000152.3:c.1214T>C	NM_001079803.1:c.1214T>C	NM_001079804.1:c.1214T>C	XM_005257193.1:c.1214T>C
NM_000152.3:c.1222A>G		NC_000017.10:g.78082523A>G	XM_005257194.1:c.1222A>G	LRG_673t1:c.1222A>G	NM_000152.3:c.1222A>G	NM_001079803.1:c.1222A>G	NM_001079804.1:c.1222A>G	XM_005257193.1:c.1222A>G
NM_000152.3:c.1293_1312del20		NC_000017.10:g.78082594_78082613del20	XM_005257194.1:c.1293_1312del20	LRG_673t1:c.1293_1312del20	NM_000152.3:c.1293_1312del20	NM_001079803.1:c.1293_1312del20	NM_001079804.1:c.1293_1312del20	XM_005257193.1:c.1293_1312del20
NM_000152.3:c.1297C>A		NC_000017.10:g.78082598C>A	XM_005257194.1:c.1297C>A	LRG_673t1:c.1297C>A	NM_000152.3:c.1297C>A	NM_001079803.1:c.1297C>A	NM_001079804.1:c.1297C>A	XM_005257193.1:c.1297C>A
NM_000152.3:c.1316T>A		NC_000017.10:g.78082617T>A	XM_005257194.1:c.1316T>A	LRG_673t1:c.1316T>A	NM_000152.3:c.1316T>A	NM_001079803.1:c.1316T>A	NM_001079804.1:c.1316T>A	XM_005257193.1:c.1316T>A
NM_000152.3:c.1324G>A		NC_000017.10:g.78082625G>A	XM_005257194.1:c.1324G>A	LRG_673t1:c.1324G>A	NM_000152.3:c.1324G>A	NM_001079803.1:c.1324G>A	NM_001079804.1:c.1324G>A	XM_005257193.1:c.1324G>A
NM_000152.3:c.1333G>C		NC_000017.10:g.78083750G>C	XM_005257194.1:c.1333G>C	LRG_673t1:c.1333G>C	NM_000152.3:c.1333G>C	NM_001079803.1:c.1333G>C	NM_001079804.1:c.1333G>C	XM_005257193.1:c.1333G>C
NM_000152.3:c.1356delC		NC_000017.10:g.78083773delC	XM_005257194.1:c.1356delC	LRG_673t1:c.1356delC	NM_000152.3:c.1356delC	NM_001079803.1:c.1356delC	NM_001079804.1:c.1356delC	XM_005257193.1:c.1356delC
NM_000152.3:c.1364A>G		NC_000017.10:g.78083781A>G	XM_005257194.1:c.1364A>G	LRG_673t1:c.1364A>G	NM_000152.3:c.1364A>G	NM_001079803.1:c.1364A>G	NM_001079804.1:c.1364A>G	XM_005257193.1:c.1364A>G
NM_000152.3:c.1364A>T		NC_000017.10:g.78083781A>T	XM_005257194.1:c.1364A>T	LRG_673t1:c.1364A>T	NM_000152.3:c.1364A>T	NM_001079803.1:c.1364A>T	NM_001079804.1:c.1364A>T	XM_005257193.1:c.1364A>T
NM_000152.3:c.1375G>A		NC_000017.10:g.78083792G>A	XM_005257194.1:c.1375G>A	LRG_673t1:c.1375G>A	NM_000152.3:c.1375G>A	NM_001079803.1:c.1375G>A	NM_001079804.1:c.1375G>A	XM_005257193.1:c.1375G>A
NM_000152.3:c.1377_1379delCGA		NC_000017.10:g.78083794_78083796delCGA	XM_005257194.1:c.1377_1379delCGA	LRG_673t1:c.1377_1379delCGA	NM_000152.3:c.1377_1379delCGA	NM_001079803.1:c.1377_1379delCGA	NM_001079804.1:c.1377_1379delCGA	XM_005257193.1:c.1377_1379delCGA
NM_000152.3:c.1396delG		NC_000017.10:g.78083813delG	XM_005257194.1:c.1396delG	LRG_673t1:c.1396delG	NM_000152.3:c.1396delG	NM_001079803.1:c.1396delG	NM_001079804.1:c.1396delG	XM_005257193.1:c.1396delG
NM_000152.3:c.1396G>T		NC_000017.10:g.78083813G>T	XM_005257194.1:c.1396G>T	LRG_673t1:c.1396G>T	NM_000152.3:c.1396G>T	NM_001079803.1:c.1396G>T	NM_001079804.1:c.1396G>T	XM_005257193.1:c.1396G>T
NM_000152.3:c.1397T>G		NC_000017.10:g.78083814T>G	XM_005257194.1:c.1397T>G	LRG_673t1:c.1397T>G	NM_000152.3:c.1397T>G	NM_001079803.1:c.1397T>G	NM_001079804.1:c.1397T>G	XM_005257193.1:c.1397T>G
NM_000152.3:c.1408_1410delAAC		NC_000017.10:g.78083825_78083827delAAC	XM_005257194.1:c.1408_1410delAAC	LRG_673t1:c.1408_1410delAAC	NM_000152.3:c.1408_1410delAAC	NM_001079803.1:c.1408_1410delAAC	NM_001079804.1:c.1408_1410delAAC	XM_005257193.1:c.1408_1410delAAC
NM_000152.3:c.1411_1414del		NC_000017.10:g.78083828_78083831del	XM_005257194.1:c.1411_1414del	LRG_673t1:c.1411_1414del	NM_000152.3:c.1411_1414del	NM_001079803.1:c.1411_1414del	NM_001079804.1:c.1411_1414del	XM_005257193.1:c.1411_1414del
NM_000152.3:c.1432G>A		NC_000017.10:g.78083849G>A	XM_005257194.1:c.1432G>A	LRG_673t1:c.1432G>A	NM_000152.3:c.1432G>A	NM_001079803.1:c.1432G>A	NM_001079804.1:c.1432G>A	XM_005257193.1:c.1432G>A
NM_000152.3:c.1437+2T>C		NC_000017.10:g.78083856T>C	XM_005257194.1:c.1437+2T>C	LRG_673t1:c.1437+2T>C	NM_000152.3:c.1437+2T>C	NM_001079803.1:c.1437+2T>C	NM_001079804.1:c.1437+2T>C	XM_005257193.1:c.1437+2T>C
NM_000152.3:c.1437G>C		NC_000017.10:g.78083854G>C	XM_005257194.1:c.1437G>C	LRG_673t1:c.1437G>C	NM_000152.3:c.1437G>C	NM_001079803.1:c.1437G>C	NM_001079804.1:c.1437G>C	XM_005257193.1:c.1437G>C
NM_000152.3:c.1438-1G>C		NC_000017.10:g.78084525G>C	XM_005257194.1:c.1438-1G>C	LRG_673t1:c.1438-1G>C	NM_000152.3:c.1438-1G>C	NM_001079803.1:c.1438-1G>C	NM_001079804.1:c.1438-1G>C	XM_005257193.1:c.1438-1G>C
NM_000152.3:c.1441T>C		NC_000017.10:g.78084529T>C	XM_005257194.1:c.1441T>C	LRG_673t1:c.1441T>C	NM_000152.3:c.1441T>C	NM_001079803.1:c.1441T>C	NM_001079804.1:c.1441T>C	XM_005257193.1:c.1441T>C
NM_000152.3:c.1445C>T		NC_000017.10:g.78084533C>T	XM_005257194.1:c.1445C>T	LRG_673t1:c.1445C>T	NM_000152.3:c.1445C>T	NM_001079803.1:c.1445C>T	NM_001079804.1:c.1445C>T	XM_005257193.1:c.1445C>T
NM_000152.3:c.1447G>T		NC_000017.10:g.78084535G>T	XM_005257194.1:c.1447G>T	LRG_673t1:c.1447G>T	NM_000152.3:c.1447G>T	NM_001079803.1:c.1447G>T	NM_001079804.1:c.1447G>T	XM_005257193.1:c.1447G>T
NM_000152.3:c.1447G>A		NC_000017.10:g.78084535G>A	XM_005257194.1:c.1447G>A	LRG_673t1:c.1447G>A	NM_000152.3:c.1447G>A	NM_001079803.1:c.1447G>A	NM_001079804.1:c.1447G>A	XM_005257193.1:c.1447G>A
NM_000152.3:c.1456G>C		NC_000017.10:g.78084544G>C	XM_005257194.1:c.1456G>C	LRG_673t1:c.1456G>C	NM_000152.3:c.1456G>C	NM_001079803.1:c.1456G>C	NM_001079804.1:c.1456G>C	XM_005257193.1:c.1456G>C
NM_000152.3:c.1460T>C		NC_000017.10:g.78084548T>C	XM_005257194.1:c.1460T>C	LRG_673t1:c.1460T>C	NM_000152.3:c.1460T>C	NM_001079803.1:c.1460T>C	NM_001079804.1:c.1460T>C	XM_005257193.1:c.1460T>C
NM_000152.3:c.1465G>A		NC_000017.10:g.78084553G>A	XM_005257194.1:c.1465G>A	LRG_673t1:c.1465G>A	NM_000152.3:c.1465G>A	NM_001079803.1:c.1465G>A	NM_001079804.1:c.1465G>A	XM_005257193.1:c.1465G>A
NM_000152.3:c.1465G>T		NC_000017.10:g.78084553G>T	XM_005257194.1:c.1465G>T	LRG_673t1:c.1465G>T	NM_000152.3:c.1465G>T	NM_001079803.1:c.1465G>T	NM_001079804.1:c.1465G>T	XM_005257193.1:c.1465G>T
NM_000152.3:c.1495T>A		NC_000017.10:g.78084583T>A	XM_005257194.1:c.1495T>A	LRG_673t1:c.1495T>A	NM_000152.3:c.1495T>A	NM_001079803.1:c.1495T>A	NM_001079804.1:c.1495T>A	XM_005257193.1:c.1495T>A
NM_000152.3:c.1496G>A		NC_000017.10:g.78084584G>A	XM_005257194.1:c.1496G>A	LRG_673t1:c.1496G>A	NM_000152.3:c.1496G>A	NM_001079803.1:c.1496G>A	NM_001079804.1:c.1496G>A	XM_005257193.1:c.1496G>A
NM_000152.3:c.1509_1511del		NC_000017.10:g.78084597_78084599del	XM_005257194.1:c.1509_1511del	LRG_673t1:c.1509_1511del	NM_000152.3:c.1509_1511del	NM_001079803.1:c.1509_1511del	NM_001079804.1:c.1509_1511del	XM_005257193.1:c.1509_1511del
NM_000152.3:c.1540G>C		NC_000017.10:g.78084628G>C	XM_005257194.1:c.1540G>C	LRG_673t1:c.1540G>C	NM_000152.3:c.1540G>C	NM_001079803.1:c.1540G>C	NM_001079804.1:c.1540G>C	XM_005257193.1:c.1540G>C
NM_000152.3:c.1548G>A		NC_000017.10:g.78084636G>A	XM_005257194.1:c.1548G>A	LRG_673t1:c.1548G>A	NM_000152.3:c.1548G>A	NM_001079803.1:c.1548G>A	NM_001079804.1:c.1548G>A	XM_005257193.1:c.1548G>A
NM_000152.3:c.1551+1G>C		NC_000017.10:g.78084640G>C	XM_005257194.1:c.1551+1G>C	LRG_673t1:c.1551+1G>C	NM_000152.3:c.1551+1G>C	NM_001079803.1:c.1551+1G>C	NM_001079804.1:c.1551+1G>C	XM_005257193.1:c.1551+1G>C
NM_000152.3:c.1551+2T>G		NC_000017.10:g.78084641T>G	XM_005257194.1:c.1551+2T>G	LRG_673t1:c.1551+2T>G	NM_000152.3:c.1551+2T>G	NM_001079803.1:c.1551+2T>G	NM_001079804.1:c.1551+2T>G	XM_005257193.1:c.1551+2T>G
NM_000152.3:c.1551+1G>A		NC_000017.10:g.78084640G>A	XM_005257194.1:c.1551+1G>A	LRG_673t1:c.1551+1G>A	NM_000152.3:c.1551+1G>A	NM_001079803.1:c.1551+1G>A	NM_001079804.1:c.1551+1G>A	XM_005257193.1:c.1551+1G>A
NM_000152.3:c.1552-3C>G		NC_000017.10:g.78084737C>G	XM_005257194.1:c.1552-3C>G	LRG_673t1:c.1552-3C>G	NM_000152.3:c.1552-3C>G	NM_001079803.1:c.1552-3C>G	NM_001079804.1:c.1552-3C>G	XM_005257193.1:c.1552-3C>G
NM_000152.3:c.1556T>C		NC_000017.10:g.78084744T>C	XM_005257194.1:c.1556T>C	LRG_673t1:c.1556T>C	NM_000152.3:c.1556T>C	NM_001079803.1:c.1556T>C	NM_001079804.1:c.1556T>C	XM_005257193.1:c.1556T>C
NM_000152.3:c.1561G>A		NC_000017.10:g.78084749G>A	XM_005257194.1:c.1561G>A	LRG_673t1:c.1561G>A	NM_000152.3:c.1561G>A	NM_001079803.1:c.1561G>A	NM_001079804.1:c.1561G>A	XM_005257193.1:c.1561G>A
NM_000152.3:c.1561G>C		NC_000017.10:g.78084749G>C	XM_005257194.1:c.1561G>C	LRG_673t1:c.1561G>C	NM_000152.3:c.1561G>C	NM_001079803.1:c.1561G>C	NM_001079804.1:c.1561G>C	XM_005257193.1:c.1561G>C
NM_000152.3:c.1564C>A		NC_000017.10:g.78084752C>A	XM_005257194.1:c.1564C>A	LRG_673t1:c.1564C>A	NM_000152.3:c.1564C>A	NM_001079803.1:c.1564C>A	NM_001079804.1:c.1564C>A	XM_005257193.1:c.1564C>A
NM_000152.3:c.1564C>G		NC_000017.10:g.78084752C>G	XM_005257194.1:c.1564C>G	LRG_673t1:c.1564C>G	NM_000152.3:c.1564C>G	NM_001079803.1:c.1564C>G	NM_001079804.1:c.1564C>G	XM_005257193.1:c.1564C>G
NM_000152.3:c.1574T>A		NC_000017.10:g.78084762T>A	XM_005257194.1:c.1574T>A	LRG_673t1:c.1574T>A	NM_000152.3:c.1574T>A	NM_001079803.1:c.1574T>A	NM_001079804.1:c.1574T>A	XM_005257193.1:c.1574T>A
NM_000152.3:c.1626C>G		NC_000017.10:g.78084814C>G	XM_005257194.1:c.1626C>G	LRG_673t1:c.1626C>G	NM_000152.3:c.1626C>G	NM_001079803.1:c.1626C>G	NM_001079804.1:c.1626C>G	XM_005257193.1:c.1626C>G
NM_000152.3:c.1634C>T		NC_000017.10:g.78084822C>T	XM_005257194.1:c.1634C>T	LRG_673t1:c.1634C>T	NM_000152.3:c.1634C>T	NM_001079803.1:c.1634C>T	NM_001079804.1:c.1634C>T	XM_005257193.1:c.1634C>T
NM_000152.3:c.1637-2A>G		NC_000017.10:g.78085780A>G	XM_005257194.1:c.1637-2A>G	LRG_673t1:c.1637-2A>G	NM_000152.3:c.1637-2A>G	NM_001079803.1:c.1637-2A>G	NM_001079804.1:c.1637-2A>G	XM_005257193.1:c.1637-2A>G
NM_000152.3:c.1645G>C		NC_000017.10:g.78085790G>C	XM_005257194.1:c.1645G>C	LRG_673t1:c.1645G>C	NM_000152.3:c.1645G>C	NM_001079803.1:c.1645G>C	NM_001079804.1:c.1645G>C	XM_005257193.1:c.1645G>C
NM_000152.3:c.1650dupG		NC_000017.10:g.78085795dup	XM_005257194.1:c.1650dup	LRG_673t1:c.1650dup	NM_000152.3:c.1650dup	NM_001079803.1:c.1650dup	NM_001079804.1:c.1650dup	XM_005257193.1:c.1650dup
NM_000152.3:c.1654delC		NC_000017.10:g.78085799delC	XM_005257194.1:c.1654delC	LRG_673t1:c.1654delC	NM_000152.3:c.1654delC	NM_001079803.1:c.1654delC	NM_001079804.1:c.1654delC	XM_005257193.1:c.1654delC
NM_000152.3:c.1654C>A		NC_000017.10:g.78085799C>A	XM_005257194.1:c.1654C>A	LRG_673t1:c.1654C>A	NM_000152.3:c.1654C>A	NM_001079803.1:c.1654C>A	NM_001079804.1:c.1654C>A	XM_005257193.1:c.1654C>A
NM_000152.3:c.1655T>C		NC_000017.10:g.78085800T>C	XM_005257194.1:c.1655T>C	LRG_673t1:c.1655T>C	NM_000152.3:c.1655T>C	NM_001079803.1:c.1655T>C	NM_001079804.1:c.1655T>C	XM_005257193.1:c.1655T>C
NM_000152.3:c.1669A>T		NC_000017.10:g.78085814A>T	XM_005257194.1:c.1669A>T	LRG_673t1:c.1669A>T	NM_000152.3:c.1669A>T	NM_001079803.1:c.1669A>T	NM_001079804.1:c.1669A>T	XM_005257193.1:c.1669A>T
NM_000152.3:c.1687C>T		NC_000017.10:g.78085832C>T	XM_005257194.1:c.1687C>T	LRG_673t1:c.1687C>T	NM_000152.3:c.1687C>T	NM_001079803.1:c.1687C>T	NM_001079804.1:c.1687C>T	XM_005257193.1:c.1687C>T
NM_000152.3:c.1694_1697delTCTC		NC_000017.10:g.78085839_78085842delTCTC	XM_005257194.1:c.1694_1697delTCTC	LRG_673t1:c.1694_1697delTCTC	NM_000152.3:c.1694_1697delTCTC	NM_001079803.1:c.1694_1697delTCTC	NM_001079804.1:c.1694_1697delTCTC	XM_005257193.1:c.1694_1697delTCTC
NM_000152.3:c.1704C>G		NC_000017.10:g.78085849C>G	XM_005257194.1:c.1704C>G	LRG_673t1:c.1704C>G	NM_000152.3:c.1704C>G	NM_001079803.1:c.1704C>G	NM_001079804.1:c.1704C>G	XM_005257193.1:c.1704C>G
NM_000152.3:c.1710C>G		NC_000017.10:g.78085855C>G	XM_005257194.1:c.1710C>G	LRG_673t1:c.1710C>G	NM_000152.3:c.1710C>G	NM_001079803.1:c.1710C>G	NM_001079804.1:c.1710C>G	XM_005257193.1:c.1710C>G
NM_000152.3:c.1724A>C		NC_000017.10:g.78085869A>C	XM_005257194.1:c.1724A>C	LRG_673t1:c.1724A>C	NM_000152.3:c.1724A>C	NM_001079803.1:c.1724A>C	NM_001079804.1:c.1724A>C	XM_005257193.1:c.1724A>C
NM_000152.3:c.1726G>A		NC_000017.10:g.78085871G>A	XM_005257194.1:c.1726G>A	LRG_673t1:c.1726G>A	NM_000152.3:c.1726G>A	NM_001079803.1:c.1726G>A	NM_001079804.1:c.1726G>A	XM_005257193.1:c.1726G>A
NM_000152.3:c.1735G>A		NC_000017.10:g.78085880G>A	XM_005257194.1:c.1735G>A	LRG_673t1:c.1735G>A	NM_000152.3:c.1735G>A	NM_001079803.1:c.1735G>A	NM_001079804.1:c.1735G>A	XM_005257193.1:c.1735G>A
NM_000152.3:c.1754+1G>A		NC_000017.10:g.78085900G>A	XM_005257194.1:c.1754+1G>A	LRG_673t1:c.1754+1G>A	NM_000152.3:c.1754+1G>A	NM_001079803.1:c.1754+1G>A	NM_001079804.1:c.1754+1G>A	XM_005257193.1:c.1754+1G>A
NM_000152.3:c.1755-1G>A		NC_000017.10:g.78086376G>A	XM_005257194.1:c.1755-1G>A	LRG_673t1:c.1755-1G>A	NM_000152.3:c.1755-1G>A	NM_001079803.1:c.1755-1G>A	NM_001079804.1:c.1755-1G>A	XM_005257193.1:c.1755-1G>A
NM_000152.3:c.1776delG		NC_000017.10:g.78086398delG	XM_005257194.1:c.1776delG	LRG_673t1:c.1776delG	NM_000152.3:c.1776delG	NM_001079803.1:c.1776delG	NM_001079804.1:c.1776delG	XM_005257193.1:c.1776delG
NM_000152.3:c.1781G>C		NC_000017.10:g.78086403G>C	XM_005257194.1:c.1781G>C	LRG_673t1:c.1781G>C	NM_000152.3:c.1781G>C	NM_001079803.1:c.1781G>C	NM_001079804.1:c.1781G>C	XM_005257193.1:c.1781G>C
NM_000152.3:c.1796C>A		NC_000017.10:g.78086418C>A	XM_005257194.1:c.1796C>A	LRG_673t1:c.1796C>A	NM_000152.3:c.1796C>A	NM_001079803.1:c.1796C>A	NM_001079804.1:c.1796C>A	XM_005257193.1:c.1796C>A
NM_000152.3:c.1798C>T		NC_000017.10:g.78086420C>T	XM_005257194.1:c.1798C>T	LRG_673t1:c.1798C>T	NM_000152.3:c.1798C>T	NM_001079803.1:c.1798C>T	NM_001079804.1:c.1798C>T	XM_005257193.1:c.1798C>T
NM_000152.3:c.1799G>T		NC_000017.10:g.78086421G>T	XM_005257194.1:c.1799G>T	LRG_673t1:c.1799G>T	NM_000152.3:c.1799G>T	NM_001079803.1:c.1799G>T	NM_001079804.1:c.1799G>T	XM_005257193.1:c.1799G>T
NM_000152.3:c.1802C>G		NC_000017.10:g.78086424C>G	XM_005257194.1:c.1802C>G	LRG_673t1:c.1802C>G	NM_000152.3:c.1802C>G	NM_001079803.1:c.1802C>G	NM_001079804.1:c.1802C>G	XM_005257193.1:c.1802C>G
NM_000152.3:c.1802C>T		NC_000017.10:g.78086424C>T	XM_005257194.1:c.1802C>T	LRG_673t1:c.1802C>T	NM_000152.3:c.1802C>T	NM_001079803.1:c.1802C>T	NM_001079804.1:c.1802C>T	XM_005257193.1:c.1802C>T
NM_000152.3:c.1820G>A		NC_000017.10:g.78086442G>A	XM_005257194.1:c.1820G>A	LRG_673t1:c.1820G>A	NM_000152.3:c.1820G>A	NM_001079803.1:c.1820G>A	NM_001079804.1:c.1820G>A	XM_005257193.1:c.1820G>A
NM_000152.3:c.1822C>T		NC_000017.10:g.78086444C>T	XM_005257194.1:c.1822C>T	LRG_673t1:c.1822C>T	NM_000152.3:c.1822C>T	NM_001079803.1:c.1822C>T	NM_001079804.1:c.1822C>T	XM_005257193.1:c.1822C>T
NM_000152.3:c.1826dupA		NC_000017.10:g.78086448dup	XM_005257194.1:c.1826dup	LRG_673t1:c.1826dup	NM_000152.3:c.1826dup	NM_001079803.1:c.1826dup	NM_001079804.1:c.1826dup	XM_005257193.1:c.1826dup
NM_000152.3:c.1827C>G		NC_000017.10:g.78086449C>G	XM_005257194.1:c.1827C>G	LRG_673t1:c.1827C>G	NM_000152.3:c.1827C>G	NM_001079803.1:c.1827C>G	NM_001079804.1:c.1827C>G	XM_005257193.1:c.1827C>G
NM_000152.3:c.1827delC		NC_000017.10:g.78086449delC	XM_005257194.1:c.1827delC	LRG_673t1:c.1827delC	NM_000152.3:c.1827delC	NM_001079803.1:c.1827delC	NM_001079804.1:c.1827delC	XM_005257193.1:c.1827delC
NM_000152.3:c.1832G>A		NC_000017.10:g.78086454G>A	XM_005257194.1:c.1832G>A	LRG_673t1:c.1832G>A	NM_000152.3:c.1832G>A	NM_001079803.1:c.1832G>A	NM_001079804.1:c.1832G>A	XM_005257193.1:c.1832G>A
NM_000152.3:c.1833_1847delinsACGGGGTAT		NC_000017.10:g.78086455_78086469delinsACGGGGTAT	XM_005257194.1:c.1833_1847delinsACGGGGTAT	LRG_673t1:c.1833_1847delinsACGGGGTAT	NM_000152.3:c.1833_1847delinsACGGGGTAT	NM_001079803.1:c.1833_1847delinsACGGGGTAT	NM_001079804.1:c.1833_1847delinsACGGGGTAT	XM_005257193.1:c.1833_1847delinsACGGGGTAT
NM_000152.3:c.1834C>T		NC_000017.10:g.78086456C>T	XM_005257194.1:c.1834C>T	LRG_673t1:c.1834C>T	NM_000152.3:c.1834C>T	NM_001079803.1:c.1834C>T	NM_001079804.1:c.1834C>T	XM_005257193.1:c.1834C>T
NM_000152.3:c.1836C>G		NC_000017.10:g.78086458C>G	XM_005257194.1:c.1836C>G	LRG_673t1:c.1836C>G	NM_000152.3:c.1836C>G	NM_001079803.1:c.1836C>G	NM_001079804.1:c.1836C>G	XM_005257193.1:c.1836C>G
NM_000152.3:c.1840A>G		NC_000017.10:g.78086462A>G	XM_005257194.1:c.1840A>G	LRG_673t1:c.1840A>G	NM_000152.3:c.1840A>G	NM_001079803.1:c.1840A>G	NM_001079804.1:c.1840A>G	XM_005257193.1:c.1840A>G
NM_000152.3:c.1842G>A		NC_000017.10:g.78086464G>A	XM_005257194.1:c.1842G>A	LRG_673t1:c.1842G>A	NM_000152.3:c.1842G>A	NM_001079803.1:c.1842G>A	NM_001079804.1:c.1842G>A	XM_005257193.1:c.1842G>A
NM_000152.3:c.1843G>A		NC_000017.10:g.78086465G>A	XM_005257194.1:c.1843G>A	LRG_673t1:c.1843G>A	NM_000152.3:c.1843G>A	NM_001079803.1:c.1843G>A	NM_001079804.1:c.1843G>A	XM_005257193.1:c.1843G>A
NM_000152.3:c.1856G>A		NC_000017.10:g.78086478G>A	XM_005257194.1:c.1856G>A	LRG_673t1:c.1856G>A	NM_000152.3:c.1856G>A	NM_001079803.1:c.1856G>A	NM_001079804.1:c.1856G>A	XM_005257193.1:c.1856G>A
NM_000152.3:c.1857C>G		NC_000017.10:g.78086479C>G	XM_005257194.1:c.1857C>G	LRG_673t1:c.1857C>G	NM_000152.3:c.1857C>G	NM_001079803.1:c.1857C>G	NM_001079804.1:c.1857C>G	XM_005257193.1:c.1857C>G
NM_000152.3:c.1905C>A		NC_000017.10:g.78086691C>A	XM_005257194.1:c.1905C>A	LRG_673t1:c.1905C>A	NM_000152.3:c.1905C>A	NM_001079803.1:c.1905C>A	NM_001079804.1:c.1905C>A	XM_005257193.1:c.1905C>A
NM_000152.3:c.1912G>T		NC_000017.10:g.78086698G>T	XM_005257194.1:c.1912G>T	LRG_673t1:c.1912G>T	NM_000152.3:c.1912G>T	NM_001079803.1:c.1912G>T	NM_001079804.1:c.1912G>T	XM_005257193.1:c.1912G>T
NM_000152.3:c.1913G>T		NC_000017.10:g.78086699G>T	XM_005257194.1:c.1913G>T	LRG_673t1:c.1913G>T	NM_000152.3:c.1913G>T	NM_001079803.1:c.1913G>T	NM_001079804.1:c.1913G>T	XM_005257193.1:c.1913G>T
NM_000152.3:c.1927G>A		NC_000017.10:g.78086713G>A	XM_005257194.1:c.1927G>A	LRG_673t1:c.1927G>A	NM_000152.3:c.1927G>A	NM_001079803.1:c.1927G>A	NM_001079804.1:c.1927G>A	XM_005257193.1:c.1927G>A
NM_000152.3:c.1930G>C		NC_000017.10:g.78086716G>C	XM_005257194.1:c.1930G>C	LRG_673t1:c.1930G>C	NM_000152.3:c.1930G>C	NM_001079803.1:c.1930G>C	NM_001079804.1:c.1930G>C	XM_005257193.1:c.1930G>C
NM_000152.3:c.1933G>A		NC_000017.10:g.78086719G>A	XM_005257194.1:c.1933G>A	LRG_673t1:c.1933G>A	NM_000152.3:c.1933G>A	NM_001079803.1:c.1933G>A	NM_001079804.1:c.1933G>A	XM_005257193.1:c.1933G>A
NM_000152.3:c.1933G>T		NC_000017.10:g.78086719G>T	XM_005257194.1:c.1933G>T	LRG_673t1:c.1933G>T	NM_000152.3:c.1933G>T	NM_001079803.1:c.1933G>T	NM_001079804.1:c.1933G>T	XM_005257193.1:c.1933G>T
NM_000152.3:c.1935C>A		NC_000017.10:g.78086721C>A	XM_005257194.1:c.1935C>A	LRG_673t1:c.1935C>A	NM_000152.3:c.1935C>A	NM_001079803.1:c.1935C>A	NM_001079804.1:c.1935C>A	XM_005257193.1:c.1935C>A
NM_000152.3:c.1941C>G		NC_000017.10:g.78086727C>G	XM_005257194.1:c.1941C>G	LRG_673t1:c.1941C>G	NM_000152.3:c.1941C>G	NM_001079803.1:c.1941C>G	NM_001079804.1:c.1941C>G	XM_005257193.1:c.1941C>G
NM_000152.3:c.1943G>A		NC_000017.10:g.78086729G>A	XM_005257194.1:c.1943G>A	LRG_673t1:c.1943G>A	NM_000152.3:c.1943G>A	NM_001079803.1:c.1943G>A	NM_001079804.1:c.1943G>A	XM_005257193.1:c.1943G>A
NM_000152.3:c.1958C>A		NC_000017.10:g.78086744C>A	XM_005257194.1:c.1958C>A	LRG_673t1:c.1958C>A	NM_000152.3:c.1958C>A	NM_001079803.1:c.1958C>A	NM_001079804.1:c.1958C>A	XM_005257193.1:c.1958C>A
NM_000152.3:c.1960T>C		NC_000017.10:g.78086746T>C	XM_005257194.1:c.1960T>C	LRG_673t1:c.1960T>C	NM_000152.3:c.1960T>C	NM_001079803.1:c.1960T>C	NM_001079804.1:c.1960T>C	XM_005257193.1:c.1960T>C
NM_000152.3:c.1978C>T		NC_000017.10:g.78086764C>T	XM_005257194.1:c.1978C>T	LRG_673t1:c.1978C>T	NM_000152.3:c.1978C>T	NM_001079803.1:c.1978C>T	NM_001079804.1:c.1978C>T	XM_005257193.1:c.1978C>T
NM_000152.3:c.2014C>T		NC_000017.10:g.78086800C>T	XM_005257194.1:c.2014C>T	LRG_673t1:c.2014C>T	NM_000152.3:c.2014C>T	NM_001079803.1:c.2014C>T	NM_001079804.1:c.2014C>T	XM_005257193.1:c.2014C>T
NM_000152.3:c.2015G>A		NC_000017.10:g.78086801G>A	XM_005257194.1:c.2015G>A	LRG_673t1:c.2015G>A	NM_000152.3:c.2015G>A	NM_001079803.1:c.2015G>A	NM_001079804.1:c.2015G>A	XM_005257193.1:c.2015G>A
NM_000152.3:c.2024_2026del		NC_000017.10:g.78086810_78086812del	XM_005257194.1:c.2024_2026del	LRG_673t1:c.2024_2026del	NM_000152.3:c.2024_2026del	NM_001079803.1:c.2024_2026del	NM_001079804.1:c.2024_2026del	XM_005257193.1:c.2024_2026del
NM_000152.3:c.2040G>A		NC_000017.10:g.78086826G>A	XM_005257194.1:c.2040G>A	LRG_673t1:c.2040G>A	NM_000152.3:c.2040G>A	NM_001079803.1:c.2040G>A	NM_001079804.1:c.2040G>A	XM_005257193.1:c.2040G>A
NM_000152.3:c.2041-2A>C		NC_000017.10:g.78087015A>C	XM_005257194.1:c.2041-2A>C	LRG_673t1:c.2041-2A>C	NM_000152.3:c.2041-2A>C	NM_001079803.1:c.2041-2A>C	NM_001079804.1:c.2041-2A>C	XM_005257193.1:c.2041-2A>C
NM_000152.3:c.2065G>A		NC_000017.10:g.78087041G>A	XM_005257194.1:c.2065G>A	LRG_673t1:c.2065G>A	NM_000152.3:c.2065G>A	NM_001079803.1:c.2065G>A	NM_001079804.1:c.2065G>A	XM_005257193.1:c.2065G>A
NM_000152.3:c.2066_2070dupAGCCG		NC_000017.10:g.78087042_78087046dup	XM_005257194.1:c.2066_2070dup	LRG_673t1:c.2066_2070dup	NM_000152.3:c.2066_2070dup	NM_001079803.1:c.2066_2070dup	NM_001079804.1:c.2066_2070dup	XM_005257193.1:c.2066_2070dup
NM_000152.3:c.2104C>T		NC_000017.10:g.78087080C>T	XM_005257194.1:c.2104C>T	LRG_673t1:c.2104C>T	NM_000152.3:c.2104C>T	NM_001079803.1:c.2104C>T	NM_001079804.1:c.2104C>T	XM_005257193.1:c.2104C>T
NM_000152.3:c.2132C>G		NC_000017.10:g.78087108C>G	XM_005257194.1:c.2132C>G	LRG_673t1:c.2132C>G	NM_000152.3:c.2132C>G	NM_001079803.1:c.2132C>G	NM_001079804.1:c.2132C>G	XM_005257193.1:c.2132C>G
NM_000152.3:c.2140del		NC_000017.10:g.78087116del	XM_005257194.1:c.2140del	LRG_673t1:c.2140del	NM_000152.3:c.2140del	NM_001079803.1:c.2140del	NM_001079804.1:c.2140del	XM_005257193.1:c.2140del
NM_000152.3:c.2173C>T		NC_000017.10:g.78087149C>T	XM_005257194.1:c.2173C>T	LRG_673t1:c.2173C>T	NM_000152.3:c.2173C>T	NM_001079803.1:c.2173C>T	NM_001079804.1:c.2173C>T	XM_005257193.1:c.2173C>T
NM_000152.3:c.2174G>C		NC_000017.10:g.78087150G>C	XM_005257194.1:c.2174G>C	LRG_673t1:c.2174G>C	NM_000152.3:c.2174G>C	NM_001079803.1:c.2174G>C	NM_001079804.1:c.2174G>C	XM_005257193.1:c.2174G>C
NM_000152.3:c.2185delC		NC_000017.10:g.78087161delC	XM_005257194.1:c.2185delC	LRG_673t1:c.2185delC	NM_000152.3:c.2185delC	NM_001079803.1:c.2185delC	NM_001079804.1:c.2185delC	XM_005257193.1:c.2185delC
NM_000152.3:c.2219_2220delTG		NC_000017.10:g.78090796_78090797delTG	XM_005257194.1:c.2219_2220delTG	LRG_673t1:c.2219_2220delTG	NM_000152.3:c.2219_2220delTG	NM_001079803.1:c.2219_2220delTG	NM_001079804.1:c.2219_2220delTG	XM_005257193.1:c.2219_2220delTG
NM_000152.3:c.2227C>T		NC_000017.10:g.78090804C>T	XM_005257194.1:c.2227C>T	LRG_673t1:c.2227C>T	NM_000152.3:c.2227C>T	NM_001079803.1:c.2227C>T	NM_001079804.1:c.2227C>T	XM_005257193.1:c.2227C>T
NM_000152.3:c.2237G>A		NC_000017.10:g.78090814G>A	XM_005257194.1:c.2237G>A	LRG_673t1:c.2237G>A	NM_000152.3:c.2237G>A	NM_001079803.1:c.2237G>A	NM_001079804.1:c.2237G>A	XM_005257193.1:c.2237G>A
NM_000152.3:c.2238G>C		NC_000017.10:g.78090815G>C	XM_005257194.1:c.2238G>C	LRG_673t1:c.2238G>C	NM_000152.3:c.2238G>C	NM_001079803.1:c.2238G>C	NM_001079804.1:c.2238G>C	XM_005257193.1:c.2238G>C
NM_000152.3:c.2238G>A		NC_000017.10:g.78090815G>A	XM_005257194.1:c.2238G>A	LRG_673t1:c.2238G>A	NM_000152.3:c.2238G>A	NM_001079803.1:c.2238G>A	NM_001079804.1:c.2238G>A	XM_005257193.1:c.2238G>A
NM_000152.3:c.2242dupG		NC_000017.10:g.78090819dup	XM_005257194.1:c.2242dup	LRG_673t1:c.2242dup	NM_000152.3:c.2242dup	NM_001079803.1:c.2242dup	NM_001079804.1:c.2242dup	XM_005257193.1:c.2242dup
NM_000152.3:c.2255_2257delTCA		NC_000017.10:g.78090832_78090834delTCA	XM_005257194.1:c.2255_2257delTCA	LRG_673t1:c.2255_2257delTCA	NM_000152.3:c.2255_2257delTCA	NM_001079803.1:c.2255_2257delTCA	NM_001079804.1:c.2255_2257delTCA	XM_005257193.1:c.2255_2257delTCA
NM_000152.3:c.2269C>T		NC_000017.10:g.78090846C>T	XM_005257194.1:c.2269C>T	LRG_673t1:c.2269C>T	NM_000152.3:c.2269C>T	NM_001079803.1:c.2269C>T	NM_001079804.1:c.2269C>T	XM_005257193.1:c.2269C>T
NM_000152.3:c.2281delGinsAT		NC_000017.10:g.78090858delinsAT	XM_005257194.1:c.2281delinsAT	LRG_673t1:c.2281delinsAT	NM_000152.3:c.2281delinsAT	NM_001079803.1:c.2281delinsAT	NM_001079804.1:c.2281delinsAT	XM_005257193.1:c.2281delinsAT
NM_000152.3:c.2297A>G		NC_000017.10:g.78090874A>G	XM_005257194.1:c.2297A>G	LRG_673t1:c.2297A>G	NM_000152.3:c.2297A>G	NM_001079803.1:c.2297A>G	NM_001079804.1:c.2297A>G	XM_005257193.1:c.2297A>G
NM_000152.3:c.2297A>C		NC_000017.10:g.78090874A>C	XM_005257194.1:c.2297A>C	LRG_673t1:c.2297A>C	NM_000152.3:c.2297A>C	NM_001079803.1:c.2297A>C	NM_001079804.1:c.2297A>C	XM_005257193.1:c.2297A>C
NM_000152.3:c.2298_2301delCTTCinsAAAGTA		NC_000017.10:g.78090875_78090878delinsAAAGTA	XM_005257194.1:c.2298_2301delinsAAAGTA	LRG_673t1:c.2298_2301delinsAAAGTA	NM_000152.3:c.2298_2301delinsAAAGTA	NM_001079803.1:c.2298_2301delinsAAAGTA	NM_001079804.1:c.2298_2301delinsAAAGTA	XM_005257193.1:c.2298_2301delinsAAAGTA
NM_000152.3:c.2303C>T		NC_000017.10:g.78090880C>T	XM_005257194.1:c.2303C>T	LRG_673t1:c.2303C>T	NM_000152.3:c.2303C>T	NM_001079803.1:c.2303C>T	NM_001079804.1:c.2303C>T	XM_005257193.1:c.2303C>T
NM_000152.3:c.2320G>A		NC_000017.10:g.78090897G>A	XM_005257194.1:c.2320G>A	LRG_673t1:c.2320G>A	NM_000152.3:c.2320G>A	NM_001079803.1:c.2320G>A	NM_001079804.1:c.2320G>A	XM_005257193.1:c.2320G>A
NM_000152.3:c.2322_2323insGGTGAGTCTGCAAACGGGGAGT		NC_000017.10:g.78090899_78090900insGGTGAGTCTGCAAACGGGGAGT	XM_005257194.1:c.2322_2323insGGTGAGTCTGCAAACGGGGAGT	LRG_673t1:c.2322_2323insGGTGAGTCTGCAAACGGGGAGT	NM_000152.3:c.2322_2323insGGTGAGTCTGCAAACGGGGAGT	NM_001079803.1:c.2322_2323insGGTGAGTCTGCAAACGGGGAGT	NM_001079804.1:c.2322_2323insGGTGAGTCTGCAAACGGGGAGT	XM_005257193.1:c.2322_2323insGGTGAGTCTGCAAACGGGGAGT
NM_000152.3:c.2331+2T>C		NC_000017.10:g.78090910T>C	XM_005257194.1:c.2331+2T>C	LRG_673t1:c.2331+2T>C	NM_000152.3:c.2331+2T>C	NM_001079803.1:c.2331+2T>C	NM_001079804.1:c.2331+2T>C	XM_005257193.1:c.2331+2T>C
NM_000152.3:c.2331+4A>G		NC_000017.10:g.78090912A>G	XM_005257194.1:c.2331+4A>G	LRG_673t1:c.2331+4A>G	NM_000152.3:c.2331+4A>G	NM_001079803.1:c.2331+4A>G	NM_001079804.1:c.2331+4A>G	XM_005257193.1:c.2331+4A>G
NM_000152.3:c.2380delC		NC_000017.10:g.78091447delC	XM_005257194.1:c.2380delC	LRG_673t1:c.2380delC	NM_000152.3:c.2380delC	NM_001079803.1:c.2380delC	NM_001079804.1:c.2380delC	XM_005257193.1:c.2380delC
NM_000152.3:c.2395C>T		NC_000017.10:g.78091462C>T	XM_005257194.1:c.2395C>T	LRG_673t1:c.2395C>T	NM_000152.3:c.2395C>T	NM_001079803.1:c.2395C>T	NM_001079804.1:c.2395C>T	XM_005257193.1:c.2395C>T
NM_000152.3:c.2431dupC		NC_000017.10:g.78091498dup	XM_005257194.1:c.2431dup	LRG_673t1:c.2431dup	NM_000152.3:c.2431dup	NM_001079803.1:c.2431dup	NM_001079804.1:c.2431dup	XM_005257193.1:c.2431dup
NM_000152.3:c.2432delT		NC_000017.10:g.78091499delT	XM_005257194.1:c.2432delT	LRG_673t1:c.2432delT	NM_000152.3:c.2432delT	NM_001079803.1:c.2432delT	NM_001079804.1:c.2432delT	XM_005257193.1:c.2432delT
NM_000152.3:c.2481+102_2646+31del		NC_000017.10:g.78091650_78092187del	XM_005257194.1:c.2481+102_2646+31del	LRG_673t1:c.2481+102_2646+31del	NM_000152.3:c.2481+102_2646+31del	NM_001079803.1:c.2481+102_2646+31del	NM_001079804.1:c.2481+102_2646+31del	XM_005257193.1:c.2481+102_2646+31del
NM_000152.3:c.2482_2646del		NC_000017.10:g.78091992_78092156del	XM_005257194.1:c.2482_2646del	LRG_673t1:c.2482_2646del	NM_000152.3:c.2482_2646del	NM_001079803.1:c.2482_2646del	NM_001079804.1:c.2482_2646del	XM_005257193.1:c.2482_2646del
NM_000152.3:c.2495_2496delCA		NC_000017.10:g.78092005_78092006delCA	XM_005257194.1:c.2495_2496delCA	LRG_673t1:c.2495_2496delCA	NM_000152.3:c.2495_2496delCA	NM_001079803.1:c.2495_2496delCA	NM_001079804.1:c.2495_2496delCA	XM_005257193.1:c.2495_2496delCA
NM_000152.3:c.2501_2502delCA		NC_000017.10:g.78092011_78092012delCA	XM_005257194.1:c.2501_2502delCA	LRG_673t1:c.2501_2502delCA	NM_000152.3:c.2501_2502delCA	NM_001079803.1:c.2501_2502delCA	NM_001079804.1:c.2501_2502delCA	XM_005257193.1:c.2501_2502delCA
NM_000152.3:c.2530_2541del		NC_000017.10:g.78092040_78092051del	XM_005257194.1:c.2530_2541del	LRG_673t1:c.2530_2541del	NM_000152.3:c.2530_2541del	NM_001079803.1:c.2530_2541del	NM_001079804.1:c.2530_2541del	XM_005257193.1:c.2530_2541del
NM_000152.3:c.2560C>T		NC_000017.10:g.78092070C>T	XM_005257194.1:c.2560C>T	LRG_673t1:c.2560C>T	NM_000152.3:c.2560C>T	NM_001079803.1:c.2560C>T	NM_001079804.1:c.2560C>T	XM_005257193.1:c.2560C>T
NM_000152.3:c.2600_2604delTGCTGinsA		NC_000017.10:g.78092110_78092114delinsA	XM_005257194.1:c.2600_2604delinsA	LRG_673t1:c.2600_2604delinsA	NM_000152.3:c.2600_2604delinsA	NM_001079803.1:c.2600_2604delinsA	NM_001079804.1:c.2600_2604delinsA	XM_005257193.1:c.2600_2604delinsA
NM_000152.3:c.2605delG		NC_000017.10:g.78092115delG	XM_005257194.1:c.2605delG	LRG_673t1:c.2605delG	NM_000152.3:c.2605delG	NM_001079803.1:c.2605delG	NM_001079804.1:c.2605delG	XM_005257193.1:c.2605delG
NM_000152.3:c.2608C>T		NC_000017.10:g.78092118C>T	XM_005257194.1:c.2608C>T	LRG_673t1:c.2608C>T	NM_000152.3:c.2608C>T	NM_001079803.1:c.2608C>T	NM_001079804.1:c.2608C>T	XM_005257193.1:c.2608C>T
NM_000152.3:c.2639C>A		NC_000017.10:g.78092149C>A	XM_005257194.1:c.2639C>A	LRG_673t1:c.2639C>A	NM_000152.3:c.2639C>A	NM_001079803.1:c.2639C>A	NM_001079804.1:c.2639C>A	XM_005257193.1:c.2639C>A
NM_000152.3:c.2646+2T>A		NC_000017.10:g.78092158T>A	XM_005257194.1:c.2646+2T>A	LRG_673t1:c.2646+2T>A	NM_000152.3:c.2646+2T>A	NM_001079803.1:c.2646+2T>A	NM_001079804.1:c.2646+2T>A	XM_005257193.1:c.2646+2T>A
NM_000152.3:c.2646+2_2646+3delTG		NC_000017.10:g.78092158_78092159delTG	XM_005257194.1:c.2646+2_2646+3delTG	LRG_673t1:c.2646+2_2646+3delTG	NM_000152.3:c.2646+2_2646+3delTG	NM_001079803.1:c.2646+2_2646+3delTG	NM_001079804.1:c.2646+2_2646+3delTG	XM_005257193.1:c.2646+2_2646+3delTG
NM_000152.3:c.2662G>T		NC_000017.10:g.78092467G>T	XM_005257194.1:c.2662G>T	LRG_673t1:c.2662G>T	NM_000152.3:c.2662G>T	NM_001079803.1:c.2662G>T	NM_001079804.1:c.2662G>T	XM_005257193.1:c.2662G>T
NM_000152.3:c.2702T>A		NC_000017.10:g.78092507T>A	XM_005257194.1:c.2702T>A	LRG_673t1:c.2702T>A	NM_000152.3:c.2702T>A	NM_001079803.1:c.2702T>A	NM_001079804.1:c.2702T>A	XM_005257193.1:c.2702T>A
NM_000152.3:c.2815_2816del		NC_000017.10:g.78093086_78093087del	XM_005257194.1:c.2815_2816del	LRG_673t1:c.2815_2816del	NM_000152.3:c.2815_2816del	NM_001079803.1:c.2815_2816del	NM_001079804.1:c.2815_2816del	XM_005257193.1:c.2815_2816del
NM_000152.3:c.2841dupT		NC_000017.10:g.78093112dup	XM_005257194.1:c.2841dup	LRG_673t1:c.2841dup	NM_000152.3:c.2841dup	NM_001079803.1:c.2841dup	NM_001079804.1:c.2841dup	XM_005257193.1:c.2841dup
