"nucl","prot","category"
"c.50C>T","p.A17V","Missense/nonsense"
"c.107C>T","p.T36M","Missense/nonsense"
"c.274C>G","p.R92G","Missense/nonsense"
"c.274C>T","p.R92W","Missense/nonsense"
"c.370C>T","p.R124*","Missense/nonsense"
"c.410C>G","p.P137R","Missense/nonsense"
"c.474G>A","p.W158*","Missense/nonsense"
"c.652G>A","p.E218K","Missense/nonsense"
"c.664A>G","p.I222V","Missense/nonsense"
"c.667G>A","p.G223S","Missense/nonsense"
"c.673C>G","p.Q225E","Missense/nonsense"
"c.737T>C","p.I246T","Missense/nonsense"
"c.754C>T","p.L252F","Missense/nonsense"
"c.757T>C","p.F253L","Missense/nonsense"
"c.806G>T","p.G269V","Missense/nonsense"
"c.824C>A","p.T275K","Missense/nonsense"
"c.878C>T","p.A293V","Missense/nonsense"
"c.920T>C","p.I307T","Missense/nonsense"
"c.977G>T","p.G326V","Missense/nonsense"
"c.983G>A","p.R328Q","Missense/nonsense"
"c.982C>T","p.R328*","Missense/nonsense"
"c.1057C>T","p.Q353*","Missense/nonsense"
"c.1095G>A","p.W365*","Missense/nonsense"
"c.1116C>G","p.F372L","Missense/nonsense"
"c.1123C>T","p.R375W","Missense/nonsense"
"c.1180G>A","p.A394T","Missense/nonsense"
"c.1397G>A","p.G466E","Missense/nonsense"
"c.1409G>T","p.G470V","Missense/nonsense"
"c.1418T>G","p.I473S","Missense/nonsense"
"c.1458C>A","p.Y486*","Missense/nonsense"
"c.1480C>T","p.R494*","Missense/nonsense"
"c.1487G>C","p.R496P","Missense/nonsense"
"c.1486C>T","p.R496*","Missense/nonsense"
"c.1616T>A","p.I539N","Missense/nonsense"
"c.1616T>C","p.I539T","Missense/nonsense"
"c.1690C>T","p.R564*","Missense/nonsense"
"c.1736C>T","p.T579M","Missense/nonsense"
"c.1751G>T","p.G584V","Missense/nonsense"
"c.1774C>T","p.R592*","Missense/nonsense"
"c.1830T>A","p.Y610*","Missense/nonsense"
"c.1880T>A","p.M627K","Missense/nonsense"
"c.1968G>T","p.W656C","Missense/nonsense"
"c.2027C>G","p.P676R","Missense/nonsense"
"c.2057A>C","p.H686P","Missense/nonsense"
"c.2107G>A","p.D703N","Missense/nonsense"
"c.2171C>G","p.P724R","Missense/nonsense"
"c.2180A>G","p.N727S","Missense/nonsense"
"c.2216C>T","p.P739L","Missense/nonsense"
"c.2264C>T","p.P755L","Missense/nonsense"
"c.2269A>C","p.I757L","Missense/nonsense"
"c.2279G>A","p.R760H","Missense/nonsense"
"c.2341C>T","p.R781*","Missense/nonsense"
"c.2489A>G","p.N830S","Missense/nonsense"
"c.2532C>A","p.Y844*","Missense/nonsense"
"c.2542T>A","p.W848R","Missense/nonsense"
"c.2695A>C","p.T899P","Missense/nonsense"
"c.2747A>C","p.H916P","Missense/nonsense"
"c.2777T>C","p.L926P","Missense/nonsense"
"c.2810G>A","p.W937*","Missense/nonsense"
"c.2843T>G","p.I948S","Missense/nonsense"
"c.2854G>A","p.G952R","Missense/nonsense"
"c.2936C>T","p.T979I","Missense/nonsense"
"c.2990T>A","p.M997K","Missense/nonsense"
"c.3089C>A","p.A1030E","Missense/nonsense"
"c.3118C>T","p.R1040*","Missense/nonsense"
"c.3157G>C","p.G1053R","Missense/nonsense"
"c.3364G>A","p.G1122S","Missense/nonsense"
"c.3367G>A","p.G1123S","Missense/nonsense"
"c.3370G>A","p.E1124K","Missense/nonsense"
"c.3407A>G","p.Y1136C","Missense/nonsense"
"c.3467C>T","p.S1156L","Missense/nonsense"
"c.3710G>A","p.C1237Y","Missense/nonsense"
"c.3730G>T","p.E1244*","Missense/nonsense"
"c.3747T>G","p.C1249W","Missense/nonsense"
"c.3812T>A","p.V1271D","Missense/nonsense"
"c.3848C>A","p.S1283*","Missense/nonsense"
"c.3899C>A","p.T1300K","Missense/nonsense"
"c.4205G>T","p.C1402F","Missense/nonsense"
"c.4220T>G","p.L1407R","Missense/nonsense"
"c.4330C>T","p.Q1444*","Missense/nonsense"
"c.4415G>A","p.C1472Y","Missense/nonsense"
"c.4457C>T","p.P1486L","Missense/nonsense"
"c.4751G>T","p.S1584I","Missense/nonsense"
"c.4838G>A","p.C1613Y","Missense/nonsense"
"c.4870C>T","p.R1624W","Missense/nonsense"
"c.4955A>G","p.Y1652C","Missense/nonsense"
"c.4991C>T","p.S1664F","Missense/nonsense"
"c.5060T>C","p.I1687T","Missense/nonsense"
"c.5075G>A","p.C1692Y","Missense/nonsense"
"c.5125C>T","p.L1709F","Missense/nonsense"
"c.5221G>A","p.V1741M","Missense/nonsense"
"c.5230A>C","p.N1744H","Missense/nonsense"
"c.5236G>C","p.G1746R","Missense/nonsense"
"c.5323C>T","p.R1775*","Missense/nonsense"
"c.5353T>C","p.F1785L","Missense/nonsense"
"c.5360G>T","p.C1787F","Missense/nonsense"
"c.5365G>C","p.V1789L","Missense/nonsense"
"c.5372C>T","p.P1791L","Missense/nonsense"
"c.5387T>C","p.L1796S","Missense/nonsense"
"c.5410C>T","p.R1804C","Missense/nonsense"
"c.5447A>G","p.Y1816C","Missense/nonsense"
"c.5448T>A","p.Y1816*","Missense/nonsense"
"c.5485C>T","p.Q1829*","Missense/nonsense"
"c.5498C>T","p.S1833L","Missense/nonsense"
"c.5502G>T","p.W1834C","Missense/nonsense"
"c.5513A>G","p.Y1838C","Missense/nonsense"
"c.5585C>T","p.S1862L","Missense/nonsense"
"c.5599A>G","p.S1867G","Missense/nonsense"
"c.5624T>G","p.V1875G","Missense/nonsense"
"c.5723T>C","p.I1908T","Missense/nonsense"
"c.5750A>G","p.Q1917R","Missense/nonsense"
"c.5750A>C","p.Q1917P","Missense/nonsense"
"c.5768A>T","p.Q1923L","Missense/nonsense"
"c.5783G>T","p.W1928L","Missense/nonsense"
"c.5825A>G","p.D1942G","Missense/nonsense"
"c.5878A>G","p.T1960A","Missense/nonsense"
"c.5912G>A","p.G1971D","Missense/nonsense"
"c.5984A>G","p.E1995G","Missense/nonsense"
"c.5993T>C","p.I1998T","Missense/nonsense"
"c.6020G>T","p.G2007V","Missense/nonsense"
"c.6025G>A","p.A2009T","Missense/nonsense"
"c.6046A>T","p.S2016C","Missense/nonsense"
"c.6074A>G","p.Y2025C","Missense/nonsense"
"c.6097A>G","p.R2033G","Missense/nonsense"
"c.6116T>C","p.L2039P","Missense/nonsense"
"c.6239G>A","p.S2080N","Missense/nonsense"
"c.6317T>G","p.L2106R","Missense/nonsense"
"c.6418A>C","p.T2140P","Missense/nonsense"
"c.6629G>A","p.G2210E","Missense/nonsense"
"c.6670G>C","p.G2224R","Missense/nonsense"
"c.6694C>T","p.Q2232*","Missense/nonsense"
"c.6816C>A","p.C2272*","Missense/nonsense"
"c.6992T>A","p.I2331K","Missense/nonsense"
"c.7108A>G","p.R2370G","Missense/nonsense"
"c.7177C>T","p.Q2393*","Missense/nonsense"
"c.7264T>C","p.C2422R","Missense/nonsense"
"c.7264T>G","p.C2422G","Missense/nonsense"
"c.7280T>C","p.I2427T","Missense/nonsense"
"c.7477C>T","p.Q2493*","Missense/nonsense"
"c.7675G>C","p.V2559L","Missense/nonsense"
"c.7912T>A","p.Y2638N","Missense/nonsense"
"c.7916C>A","p.S2639*","Missense/nonsense"
"c.7921A>G","p.T2641A","Missense/nonsense"
"c.8011C>T","p.R2671*","Missense/nonsense"
"c.8063G>T","p.C2688F","Missense/nonsense"
"c.8068T>C","p.W2690R","Missense/nonsense"
"c.8206T>G","p.W2736G","Missense/nonsense"
"c.8281G>T","p.D2761Y","Missense/nonsense"
"c.8312T>C","p.V2771A","Missense/nonsense"
"c.8315T>C","p.L2772P","Missense/nonsense"
"c.8317G>T","p.V2773L","Missense/nonsense"
"c.8385A>C","p.R2795S","Missense/nonsense"
"c.8393T>G","p.V2798G","Missense/nonsense"
"c.8407T>C","p.C2803R","Missense/nonsense"
"c.8411T>A","p.M2804K","Missense/nonsense"
"c.8425G>A","p.G2809R","Missense/nonsense"
"c.8518C>T","p.R2840C","Missense/nonsense"
"c.8521A>G","p.M2841V","Missense/nonsense"
"c.8552T>C","p.I2851T","Missense/nonsense"
"c.8588A>G","p.Y2863C","Missense/nonsense"
"c.8606C>A","p.T2869K","Missense/nonsense"
"c.8824C>T","p.R2942*","Missense/nonsense"
"c.8870T>C","p.I2957T","Missense/nonsense"
"c.8893T>C","p.C2965R","Missense/nonsense"
"c.8935C>T","p.R2979*","Missense/nonsense"
"c.8948C>T","p.S2983L","Missense/nonsense"
"c.9053C>T","p.S3018F","Missense/nonsense"
"c.9107T>G","p.V3036G","Missense/nonsense"
"c.9146A>G","p.H3049R","Missense/nonsense"
"c.9239G>A","p.G3080E","Missense/nonsense"
"c.9241A>G","p.I3081V","Missense/nonsense"
"c.9289G>A","p.A3097T","Missense/nonsense"
"c.9311T>G","p.F3104C","Missense/nonsense"
"c.9319C>T","p.R3107*","Missense/nonsense"
"c.9370C>T","p.H3124Y","Missense/nonsense"
"c.9415G>T","p.D3139Y","Missense/nonsense"
"c.9461A>G","p.D3154G","Missense/nonsense"
"c.9464A>G","p.Y3155C","Missense/nonsense"
"c.9499A>T","p.I3167L","Missense/nonsense"
"c.9532G>T","p.G3178C","Missense/nonsense"
"c.9619G>A","p.A3207T","Missense/nonsense"
"c.9625A>C","p.S3209R","Missense/nonsense"
"c.9683C>A","p.S3228*","Missense/nonsense"
"c.9719G>A","p.R3240Q","Missense/nonsense"
"c.9719G>T","p.R3240L","Missense/nonsense"
"c.9718C>T","p.R3240*","Missense/nonsense"
"c.9725G>T","p.G3242V","Missense/nonsense"
"c.9765G>A","p.W3255*","Missense/nonsense"
"c.9861C>A","p.C3287*","Missense/nonsense"
"c.9878A>T","p.D3293V","Missense/nonsense"
"c.9998G>C","p.R3333T","Missense/nonsense"
"c.10031T>G","p.L3344*","Missense/nonsense"
"c.10036T>C","p.C3346R","Missense/nonsense"
"c.10174C>T","p.Q3392*","Missense/nonsense"
"c.10219C>T","p.Q3407*","Missense/nonsense"
"c.10226A>T","p.D3409V","Missense/nonsense"
"c.10319T>A","p.V3440D","Missense/nonsense"
"c.10402A>G","p.I3468V","Missense/nonsense"
"c.10412T>G","p.V3471G","Missense/nonsense"
"c.10444C>T","p.R3482C","Missense/nonsense"
"c.10505A>T","p.E3502V","Missense/nonsense"
"c.10628T>C","p.L3543S","Missense/nonsense"
"c.10658T>C","p.I3553T","Missense/nonsense"
"c.10664T>A","p.I3555K","Missense/nonsense"
"c.10709C>G","p.S3570*","Missense/nonsense"
"c.10728G>A","p.W3576*","Missense/nonsense"
"c.10765C>T","p.Q3589*","Missense/nonsense"
"c.10805C>T","p.P3602L","Missense/nonsense"
"c.10865G>A","p.C3622Y","Missense/nonsense"
"c.10925T>C","p.M3642T","Missense/nonsense"
"c.11074C>T","p.R3692*","Missense/nonsense"
"c.11218C>T","p.P3740S","Missense/nonsense"
"c.11284C>A","p.P3762T","Missense/nonsense"
"c.11524C>T","p.R3842*","Missense/nonsense"
"c.11611T>C","p.W3871R","Missense/nonsense"
"c.11612G>A","p.W3871*","Missense/nonsense"
"c.11869C>T","p.R3957C","Missense/nonsense"
"c.391-5A>G","","Splicing"
"c.528-2A>G","","Splicing"
"c.602+5G>T","","Splicing"
"c.881-1G>A","","Splicing"
"c.976+2T>A","","Splicing"
"c.977-1G>A","","Splicing"
"c.1233+1G>A","","Splicing"
"c.2141-1G>T","","Splicing"
"c.2280-1G>A","","Splicing"
"c.3229-2A>C","","Splicing"
"c.5237-1G>A","","Splicing"
"c.5381-9T>G","","Splicing"
"c.5381-2A>C","","Splicing"
"c.5751+3A>G","","Splicing"
"c.6333-2A>G","","Splicing"
"c.6490+2T>C","","Splicing"
"c.6996+4A>T","","Splicing"
"c.7351-2A>T","","Splicing"
"c.7912-1G>C","","Splicing"
"c.8302+2T>C","","Splicing"
"c.8642+1G>A","","Splicing"
"c.8642+1G>T","","Splicing"
"c.7_19del13","","Small deletions"
"c.4_11delACTGCCTG","","Small deletions"
"c.126delT","","Small deletions"
"c.353delG","","Small deletions"
"c.383delC","","Small deletions"
"c.711_714delAATG","","Small deletions"
"c.1159_1161delAAT","","Small deletions"
"c.1411_1412delGT","","Small deletions"
"c.1529delG","","Small deletions"
"c.1626_1629delACTT","","Small deletions"
"c.3306delT","","Small deletions"
"c.3766delC","","Small deletions"
"c.3958_3959delGG","","Small deletions"
"c.5375delT","","Small deletions"
"c.5378_5380+1delATGG","","Small deletions"
"c.5411delG","","Small deletions"
"c.5646delT","","Small deletions"
"c.5761_5765delTCTTT","","Small deletions"
"c.6029delA","","Small deletions"
"c.6296_6297delTG","","Small deletions"
"c.6383delT","","Small deletions"
"c.6929delG","","Small deletions"
"c.7062delA","","Small deletions"
"c.7122delT","","Small deletions"
"c.7544delC","","Small deletions"
"c.8114delG","","Small deletions"
"c.8651_8653delTAG","","Small deletions"
"c.8901delG","","Small deletions"
"c.8909_8912delTTGT","","Small deletions"
"c.9051_9053delATC","","Small deletions"
"c.9104delG","","Small deletions"
"c.9348delG","","Small deletions"
"c.9689delA","","Small deletions"
"c.9707delC","","Small deletions"
"c.9802delT","","Small deletions"
"c.9850delG","","Small deletions"
"c.10077delG","","Small deletions"
"c.10136delC","","Small deletions"
"c.10240delA","","Small deletions"
"c.10364delC","","Small deletions"
"c.10637delT","","Small deletions"
"c.10856delA","","Small deletions"
"c.10955delC","","Small deletions"
"c.10972_10973delAT","","Small deletions"
"c.1068dupT","","Small insertions"
"c.1487_1492dupGAGCCC","","Small insertions"
"c.2130_2131insTA","","Small insertions"
"c.2180dupA","","Small insertions"
"c.4105dupC","","Small insertions"
"c.5895dupA","","Small insertions"
"c.6991dupA","","Small insertions"
"c.8829dupC","","Small insertions"
"c.10639dupC","","Small insertions"
"c.3761_3762delCCinsG","","Small indels"
"c.4415_4418delGTCAinsTATTCCCCTCT","","Small indels"
"c.8246_8247delGGinsCC","","Small indels"
"c.9183_9186delTAATinsATTAGTGACATCAG","","Small indels"
