Input Variant	Errors	Chromosomal Variant	Coding Variant(s)
NM_138694.3:c.4_11delACTGCCTG		NC_000006.11:g.51949721_51949728delCAGGCAGT	NM_138694.3:c.4_11delACTGCCTG	NM_170724.2:c.4_11delACTGCCTG
NM_138694.3:c.7_19del13		NC_000006.11:g.51949713_51949725del13	NM_138694.3:c.7_19del13	NM_170724.2:c.7_19del13
NM_138694.3:c.50C>T		NC_000006.11:g.51949682G>A	NM_138694.3:c.50C>T	NM_170724.2:c.50C>T
NM_138694.3:c.107C>T		NC_000006.11:g.51947999G>A	NM_138694.3:c.107C>T	NM_170724.2:c.107C>T
NM_138694.3:c.126delT		NC_000006.11:g.51947980delA	NM_138694.3:c.126delT	NM_170724.2:c.126delT
NM_138694.3:c.274C>G		NC_000006.11:g.51947197G>C	NM_138694.3:c.274C>G	NM_170724.2:c.274C>G
NM_138694.3:c.274C>T		NC_000006.11:g.51947197G>A	NM_138694.3:c.274C>T	NM_170724.2:c.274C>T
NM_138694.3:c.353delG		NC_000006.11:g.51944735delC	NM_138694.3:c.353delG	NM_170724.2:c.353delG
NM_138694.3:c.370C>T		NC_000006.11:g.51944718G>A	NM_138694.3:c.370C>T	NM_170724.2:c.370C>T
NM_138694.3:c.383delC		NC_000006.11:g.51944705delG	NM_138694.3:c.383delC	NM_170724.2:c.383delC
NM_138694.3:c.391-5A>G		NC_000006.11:g.51941136T>C	NM_138694.3:c.391-5A>G	NM_170724.2:c.391-5A>G
NM_138694.3:c.410C>G		NC_000006.11:g.51941112G>C	NM_138694.3:c.410C>G	NM_170724.2:c.410C>G
NM_138694.3:c.474G>A		NC_000006.11:g.51938314C>T	NM_138694.3:c.474G>A	NM_170724.2:c.474G>A
NM_138694.3:c.528-2A>G		NC_000006.11:g.51936989T>C	NM_138694.3:c.528-2A>G	NM_170724.2:c.528-2A>G
NM_138694.3:c.602+5G>T		NC_000006.11:g.51936908C>A	NM_138694.3:c.602+5G>T	NM_170724.2:c.602+5G>T
NM_138694.3:c.652G>A		NC_000006.11:g.51935819C>T	NM_138694.3:c.652G>A	NM_170724.2:c.652G>A
NM_138694.3:c.664A>G		NC_000006.11:g.51935807T>C	NM_138694.3:c.664A>G	NM_170724.2:c.664A>G
NM_138694.3:c.667G>A		NC_000006.11:g.51935804C>T	NM_138694.3:c.667G>A	NM_170724.2:c.667G>A
NM_138694.3:c.673C>G		NC_000006.11:g.51935238G>C	NM_138694.3:c.673C>G	NM_170724.2:c.673C>G
NM_138694.3:c.711_714delAATG		NC_000006.11:g.51934319_51934322delCATT	NM_138694.3:c.711_714delAATG	NM_170724.2:c.711_714delAATG
NM_138694.3:c.737T>C		NC_000006.11:g.51934296A>G	NM_138694.3:c.737T>C	NM_170724.2:c.737T>C
NM_138694.3:c.754C>T		NC_000006.11:g.51934279G>A	NM_138694.3:c.754C>T	NM_170724.2:c.754C>T
NM_138694.3:c.757T>C		NC_000006.11:g.51934276A>G	NM_138694.3:c.757T>C	NM_170724.2:c.757T>C
NM_138694.3:c.806G>T		NC_000006.11:g.51930848C>A	NM_138694.3:c.806G>T	NM_170724.2:c.806G>T
NM_138694.3:c.824C>A		NC_000006.11:g.51930830G>T	NM_138694.3:c.824C>A	NM_170724.2:c.824C>A
NM_138694.3:c.874A>G		NC_000006.11:g.51930780T>C	NM_138694.3:c.874A>G	NM_170724.2:c.874A>G
NM_138694.3:c.878C>T		NC_000006.11:g.51930776G>A	NM_138694.3:c.878C>T	NM_170724.2:c.878C>T
NM_138694.3:c.881-1G>A		NC_000006.11:g.51929849C>T	NM_138694.3:c.881-1G>A	NM_170724.2:c.881-1G>A
NM_138694.3:c.920T>C		NC_000006.11:g.51929809A>G	NM_138694.3:c.920T>C	NM_170724.2:c.920T>C
NM_138694.3:c.976+2T>A		NC_000006.11:g.51929751A>T	NM_138694.3:c.976+2T>A	NM_170724.2:c.976+2T>A
NM_138694.3:c.977-1G>A		NC_000006.11:g.51927459C>T	NM_138694.3:c.977-1G>A	NM_170724.2:c.977-1G>A
NM_138694.3:c.977G>T		NC_000006.11:g.51927458C>A	NM_138694.3:c.977G>T	NM_170724.2:c.977G>T
NM_138694.3:c.982C>T		NC_000006.11:g.51927453G>A	NM_138694.3:c.982C>T	NM_170724.2:c.982C>T
NM_138694.3:c.983G>A		NC_000006.11:g.51927452C>T	NM_138694.3:c.983G>A	NM_170724.2:c.983G>A
NM_138694.3:c.1057C>T		NC_000006.11:g.51927378G>A	NM_138694.3:c.1057C>T	NM_170724.2:c.1057C>T
NM_138694.3:c.1068dupT		NC_000006.11:g.51927367dupA	NM_138694.3:c.1068dupT	NM_170724.2:c.1068dupT
NM_138694.3:c.1095G>A		NC_000006.11:g.51927340C>T	NM_138694.3:c.1095G>A	NM_170724.2:c.1095G>A
NM_138694.3:c.1116C>G		NC_000006.11:g.51927319G>C	NM_138694.3:c.1116C>G	NM_170724.2:c.1116C>G
NM_138694.3:c.1123C>T		NC_000006.11:g.51924836G>A	NM_138694.3:c.1123C>T	NM_170724.2:c.1123C>T
NM_138694.3:c.1159_1161delAAT		NC_000006.11:g.51924798_51924800delATT	NM_138694.3:c.1159_1161delAAT	NM_170724.2:c.1159_1161delAAT
NM_138694.3:c.1180G>A		NC_000006.11:g.51924779C>T	NM_138694.3:c.1180G>A	NM_170724.2:c.1180G>A
NM_138694.3:c.1233+1G>A		NC_000006.11:g.51924725C>T	NM_138694.3:c.1233+1G>A	NM_170724.2:c.1233+1G>A
NM_138694.3:c.1397G>A		NC_000006.11:g.51923236C>T	NM_138694.3:c.1397G>A	NM_170724.2:c.1397G>A
NM_138694.3:c.1409G>T		NC_000006.11:g.51923224C>A	NM_138694.3:c.1409G>T	NM_170724.2:c.1409G>T
NM_138694.3:c.1411_1412delGT		NC_000006.11:g.51923221_51923222delAC	NM_138694.3:c.1411_1412delGT	NM_170724.2:c.1411_1412delGT
NM_138694.3:c.1418T>G		NC_000006.11:g.51923215A>C	NM_138694.3:c.1418T>G	NM_170724.2:c.1418T>G
NM_138694.3:c.1458C>A		NC_000006.11:g.51923175G>T	NM_138694.3:c.1458C>A	NM_170724.2:c.1458C>A
NM_138694.3:c.1480C>T		NC_000006.11:g.51923153G>A	NM_138694.3:c.1480C>T	NM_170724.2:c.1480C>T
NM_138694.3:c.1486C>T		NC_000006.11:g.51923147G>A	NM_138694.3:c.1486C>T	NM_170724.2:c.1486C>T
NM_138694.3:c.1487G>C		NC_000006.11:g.51923146C>G	NM_138694.3:c.1487G>C	NM_170724.2:c.1487G>C
NM_138694.3:c.1487_1492dupGAGCCC		NC_000006.11:g.51923141_51923146dupGGGCTC	NM_138694.3:c.1487_1492dupGAGCCC	NM_170724.2:c.1487_1492dupGAGCCC
NM_138694.3:c.1529delG		NC_000006.11:g.51921761delC	NM_138694.3:c.1529delG	NM_170724.2:c.1529delG
NM_138694.3:c.1616T>C		NC_000006.11:g.51921573A>G	NM_138694.3:c.1616T>C	NM_170724.2:c.1616T>C
NM_138694.3:c.1616T>A		NC_000006.11:g.51921573A>T	NM_138694.3:c.1616T>A	NM_170724.2:c.1616T>A
NM_138694.3:c.1620_1621insAGTT		NC_000006.11:g.51921568_51921569insAACT	NM_138694.3:c.1620_1621insAGTT	NM_170724.2:c.1620_1621insAGTT
NM_138694.3:c.1626_1629delACTT		NC_000006.11:g.51921560_51921563delAAGT	NM_138694.3:c.1626_1629delACTT	NM_170724.2:c.1626_1629delACTT
NM_138694.3:c.1690C>T		NC_000006.11:g.51921499G>A	NM_138694.3:c.1690C>T	NM_170724.2:c.1690C>T
NM_138694.3:c.1736C>T		NC_000006.11:g.51920485G>A	NM_138694.3:c.1736C>T	NM_170724.2:c.1736C>T
NM_138694.3:c.1751G>T		NC_000006.11:g.51920470C>A	NM_138694.3:c.1751G>T	NM_170724.2:c.1751G>T
NM_138694.3:c.1774C>T		NC_000006.11:g.51920447G>A	NM_138694.3:c.1774C>T	NM_170724.2:c.1774C>T
NM_138694.3:c.1830T>A		NC_000006.11:g.51920391A>T	NM_138694.3:c.1830T>A	NM_170724.2:c.1830T>A
NM_138694.3:c.1880T>A		NC_000006.11:g.51918920A>T	NM_138694.3:c.1880T>A	NM_170724.2:c.1880T>A
NM_138694.3:c.1968G>T		NC_000006.11:g.51918046C>A	NM_138694.3:c.1968G>T	NM_170724.2:c.1968G>T
NM_138694.3:c.2027C>G		NC_000006.11:g.51917987G>C	NM_138694.3:c.2027C>G	NM_170724.2:c.2027C>G
NM_138694.3:c.2057A>C		NC_000006.11:g.51917957T>G	NM_138694.3:c.2057A>C	NM_170724.2:c.2057A>C
NM_138694.3:c.2107G>A		NC_000006.11:g.51917907C>T	NM_138694.3:c.2107G>A	NM_170724.2:c.2107G>A
NM_138694.3:c.2130_2131insTA		NC_000006.11:g.51917883_51917884insTA	NM_138694.3:c.2130_2131insTA	NM_170724.2:c.2130_2131insTA
NM_138694.3:c.2141-1G>T		NC_000006.11:g.51915094C>A	NM_138694.3:c.2141-1G>T	NM_170724.2:c.2141-1G>T
NM_138694.3:c.2167C>T		NC_000006.11:g.51915067G>A	NM_138694.3:c.2167C>T	NM_170724.2:c.2167C>T
NM_138694.3:c.2171C>G		NC_000006.11:g.51915063G>C	NM_138694.3:c.2171C>G	NM_170724.2:c.2171C>G
NM_138694.3:c.2180dupA		NC_000006.11:g.51915054dupT	NM_138694.3:c.2180dupA	NM_170724.2:c.2180dupA
NM_138694.3:c.2180A>G		NC_000006.11:g.51915054T>C	NM_138694.3:c.2180A>G	NM_170724.2:c.2180A>G
NM_138694.3:c.2216C>T		NC_000006.11:g.51915018G>A	NM_138694.3:c.2216C>T	NM_170724.2:c.2216C>T
NM_138694.3:c.2264C>T		NC_000006.11:g.51914970G>A	NM_138694.3:c.2264C>T	NM_170724.2:c.2264C>T
NM_138694.3:c.2269A>C		NC_000006.11:g.51914965T>G	NM_138694.3:c.2269A>C	NM_170724.2:c.2269A>C
NM_138694.3:c.2279G>A		NC_000006.11:g.51914955C>T	NM_138694.3:c.2279G>A	NM_170724.2:c.2279G>A
NM_138694.3:c.2280-1G>A		NC_000006.11:g.51913418C>T	NM_138694.3:c.2280-1G>A	NM_170724.2:c.2280-1G>A
NM_138694.3:c.2341C>T		NC_000006.11:g.51913356G>A	NM_138694.3:c.2341C>T	NM_170724.2:c.2341C>T
NM_138694.3:c.2489A>G		NC_000006.11:g.51910905T>C	NM_138694.3:c.2489A>G	NM_170724.2:c.2489A>G
NM_138694.3:c.2520_2526del7		NC_000006.11:g.51910868_51910874del7	NM_138694.3:c.2520_2526del7	NM_170724.2:c.2520_2526del7
NM_138694.3:c.2532C>A		NC_000006.11:g.51910862G>T	NM_138694.3:c.2532C>A	NM_170724.2:c.2532C>A
NM_138694.3:c.2542T>A		NC_000006.11:g.51910852A>T	NM_138694.3:c.2542T>A	NM_170724.2:c.2542T>A
NM_138694.3:c.2695A>C		NC_000006.11:g.51909784T>G	NM_138694.3:c.2695A>C	NM_170724.2:c.2695A>C
NM_138694.3:c.2747A>C		NC_000006.11:g.51908497T>G	NM_138694.3:c.2747A>C	NM_170724.2:c.2747A>C
NM_138694.3:c.2777T>C		NC_000006.11:g.51908467A>G	NM_138694.3:c.2777T>C	NM_170724.2:c.2777T>C
NM_138694.3:c.2810G>A		NC_000006.11:g.51908434C>T	NM_138694.3:c.2810G>A	NM_170724.2:c.2810G>A
NM_138694.3:c.2811G>A		NC_000006.11:g.51908433C>T	NM_138694.3:c.2811G>A	NM_170724.2:c.2811G>A
NM_138694.3:c.2812_2813del		NC_000006.11:g.51908431_51908432del	NM_138694.3:c.2812_2813del	NM_170724.2:c.2812_2813del
NM_138694.3:c.2843T>G		NC_000006.11:g.51907911A>C	NM_138694.3:c.2843T>G	NM_170724.2:c.2843T>G
NM_138694.3:c.2854G>A		NC_000006.11:g.51907900C>T	NM_138694.3:c.2854G>A	NM_170724.2:c.2854G>A
NM_138694.3:c.2936C>T		NC_000006.11:g.51907818G>A	NM_138694.3:c.2936C>T	NM_170724.2:c.2936C>T
NM_138694.3:c.2990T>A		NC_000006.11:g.51907764A>T	NM_138694.3:c.2990T>A	NM_170724.2:c.2990T>A
NM_138694.3:c.3089C>A		NC_000006.11:g.51907665G>T	NM_138694.3:c.3089C>A	NM_170724.2:c.3089C>A
NM_138694.3:c.3118C>T		NC_000006.11:g.51900499G>A	NM_138694.3:c.3118C>T	NM_170724.2:c.3118C>T
NM_138694.3:c.3157G>C		NC_000006.11:g.51900460C>G	NM_138694.3:c.3157G>C	NM_170724.2:c.3157G>C
NM_138694.3:c.3229-2A>C		NC_000006.11:g.51897965T>G	NM_138694.3:c.3229-2A>C	NM_170724.2:c.3229-2A>C
NM_138694.3:c.3306delT		NC_000006.11:g.51897886delA	NM_138694.3:c.3306delT	NM_170724.2:c.3306delT
NM_138694.3:c.3364G>A		NC_000006.11:g.51897828C>T	NM_138694.3:c.3364G>A	NM_170724.2:c.3364G>A
NM_138694.3:c.3367G>A		NC_000006.11:g.51893147C>T	NM_138694.3:c.3367G>A	NM_170724.2:c.3367G>A
NM_138694.3:c.3370G>A		NC_000006.11:g.51893144C>T	NM_138694.3:c.3370G>A	NM_170724.2:c.3370G>A
NM_138694.3:c.3407A>G		NC_000006.11:g.51893107T>C	NM_138694.3:c.3407A>G	NM_170724.2:c.3407A>G
NM_138694.3:c.3467C>T		NC_000006.11:g.51893047G>A	NM_138694.3:c.3467C>T	NM_170724.2:c.3467C>T
NM_138694.3:c.3486_3527del		NC_000006.11:g.51892987_51893028del	NM_138694.3:c.3486_3527del	NM_170724.2:c.3486_3527del
NM_138694.3:c.3710G>A		NC_000006.11:g.51890898C>T	NM_138694.3:c.3710G>A	NM_170724.2:c.3710G>A
NM_138694.3:c.3730G>T		NC_000006.11:g.51890878C>A	NM_138694.3:c.3730G>T	NM_170724.2:c.3730G>T
NM_138694.3:c.3747T>G		NC_000006.11:g.51890861A>C	NM_138694.3:c.3747T>G	NM_170724.2:c.3747T>G
NM_138694.3:c.3761_3762delCCinsG		NC_000006.11:g.51890846_51890847delinsC	NM_138694.3:c.3761_3762delinsG	NM_170724.2:c.3761_3762delinsG
NM_138694.3:c.3766delC		NC_000006.11:g.51890842delG	NM_138694.3:c.3766delC	NM_170724.2:c.3766delC
NM_138694.3:c.3812T>A		NC_000006.11:g.51890796A>T	NM_138694.3:c.3812T>A	NM_170724.2:c.3812T>A
NM_138694.3:c.3848C>A		NC_000006.11:g.51890760G>T	NM_138694.3:c.3848C>A	NM_170724.2:c.3848C>A
NM_138694.3:c.3899C>A		NC_000006.11:g.51890709G>T	NM_138694.3:c.3899C>A	NM_170724.2:c.3899C>A
NM_138694.3:c.3958_3959delGG		NC_000006.11:g.51890649_51890650delCC	NM_138694.3:c.3958_3959delGG	NM_170724.2:c.3958_3959delGG
NM_138694.3:c.4105dupC		NC_000006.11:g.51890503dupG	NM_138694.3:c.4105dupC	NM_170724.2:c.4105dupC
NM_138694.3:c.4205G>T		NC_000006.11:g.51890403C>A	NM_138694.3:c.4205G>T	NM_170724.2:c.4205G>T
NM_138694.3:c.4220T>G		NC_000006.11:g.51890388A>C	NM_138694.3:c.4220T>G	NM_170724.2:c.4220T>G
NM_138694.3:c.4330C>T		NC_000006.11:g.51890278G>A	NM_138694.3:c.4330C>T	NM_170724.2:c.4330C>T
NM_138694.3:c.4415G>A		NC_000006.11:g.51890193C>T	NM_138694.3:c.4415G>A	NM_170724.2:c.4415G>A
NM_138694.3:c.4415_4418delGTCAinsTATTCCCCTCT		NC_000006.11:g.51890190_51890193delinsAGAGGGGAATA	NM_138694.3:c.4415_4418delinsTATTCCCCTCT	NM_170724.2:c.4415_4418delinsTATTCCCCTCT
NM_138694.3:c.4457C>T		NC_000006.11:g.51890151G>A	NM_138694.3:c.4457C>T	NM_170724.2:c.4457C>T
NM_138694.3:c.4536_4555del		NC_000006.11:g.51890053_51890072del	NM_138694.3:c.4536_4555del	NM_170724.2:c.4536_4555del
NM_138694.3:c.4751G>T		NC_000006.11:g.51889857C>A	NM_138694.3:c.4751G>T	NM_170724.2:c.4751G>T
NM_138694.3:c.4838G>A		NC_000006.11:g.51889770C>T	NM_138694.3:c.4838G>A	NM_170724.2:c.4838G>A
NM_138694.3:c.4870C>T		NC_000006.11:g.51889738G>A	NM_138694.3:c.4870C>T	NM_170724.2:c.4870C>T
NM_138694.3:c.4941_4942insC		NC_000006.11:g.51889666_51889667insG	NM_138694.3:c.4941_4942insC	NM_170724.2:c.4941_4942insC
NM_138694.3:c.4955A>G		NC_000006.11:g.51889653T>C	NM_138694.3:c.4955A>G	NM_170724.2:c.4955A>G
NM_138694.3:c.4991C>T		NC_000006.11:g.51889617G>A	NM_138694.3:c.4991C>T	NM_170724.2:c.4991C>T
NM_138694.3:c.5060T>C		NC_000006.11:g.51889548A>G	NM_138694.3:c.5060T>C	NM_170724.2:c.5060T>C
NM_138694.3:c.5075G>A		NC_000006.11:g.51889533C>T	NM_138694.3:c.5075G>A	NM_170724.2:c.5075G>A
NM_138694.3:c.5125C>T		NC_000006.11:g.51889483G>A	NM_138694.3:c.5125C>T	NM_170724.2:c.5125C>T
NM_138694.3:c.5160C>A		NC_000006.11:g.51889448G>T	NM_138694.3:c.5160C>A	NM_170724.2:c.5160C>A
NM_138694.3:c.5221G>A		NC_000006.11:g.51889387C>T	NM_138694.3:c.5221G>A	NM_170724.2:c.5221G>A
NM_138694.3:c.5230A>C		NC_000006.11:g.51889378T>G	NM_138694.3:c.5230A>C	NM_170724.2:c.5230A>C
NM_138694.3:c.5236G>C		NC_000006.11:g.51889372C>G	NM_138694.3:c.5236G>C	NM_170724.2:c.5236G>C
NM_138694.3:c.5237-1G>A		NC_000006.11:g.51887743C>T	NM_138694.3:c.5237-1G>A	NM_170724.2:c.5237-1G>A
NM_138694.3:c.5323C>T		NC_000006.11:g.51887656G>A	NM_138694.3:c.5323C>T	NM_170724.2:c.5323C>T
NM_138694.3:c.5353T>C		NC_000006.11:g.51887626A>G	NM_138694.3:c.5353T>C	NM_170724.2:c.5353T>C
NM_138694.3:c.5360G>T		NC_000006.11:g.51887619C>A	NM_138694.3:c.5360G>T	NM_170724.2:c.5360G>T
NM_138694.3:c.5365G>C		NC_000006.11:g.51887614C>G	NM_138694.3:c.5365G>C	NM_170724.2:c.5365G>C
NM_138694.3:c.5372C>T		NC_000006.11:g.51887607G>A	NM_138694.3:c.5372C>T	NM_170724.2:c.5372C>T
NM_138694.3:c.5375delT		NC_000006.11:g.51887604delA	NM_138694.3:c.5375delT	NM_170724.2:c.5375delT
NM_138694.3:c.5378_5380+1delATGG		NC_000006.11:g.51887598_51887601delCCAT	NM_138694.3:c.5378_5380+1delATGG	NM_170724.2:c.5378_5380+1delATGG
NM_138694.3:c.5381-2A>C		NC_000006.11:g.51882429T>G	NM_138694.3:c.5381-2A>C	NM_170724.2:c.5381-2A>C
NM_138694.3:c.5381-9T>G		NC_000006.11:g.51882436A>C	NM_138694.3:c.5381-9T>G	NM_170724.2:c.5381-9T>G
NM_138694.3:c.5387T>C		NC_000006.11:g.51882421A>G	NM_138694.3:c.5387T>C	NM_170724.2:c.5387T>C
NM_138694.3:c.5410C>T		NC_000006.11:g.51882398G>A	NM_138694.3:c.5410C>T	NM_170724.2:c.5410C>T
NM_138694.3:c.5411delG		NC_000006.11:g.51882397delC	NM_138694.3:c.5411delG	NM_170724.2:c.5411delG
NM_138694.3:c.5447A>G		NC_000006.11:g.51882361T>C	NM_138694.3:c.5447A>G	NM_170724.2:c.5447A>G
NM_138694.3:c.5448T>A		NC_000006.11:g.51882360A>T	NM_138694.3:c.5448T>A	NM_170724.2:c.5448T>A
NM_138694.3:c.5485C>T		NC_000006.11:g.51882323G>A	NM_138694.3:c.5485C>T	NM_170724.2:c.5485C>T
NM_138694.3:c.5498C>T		NC_000006.11:g.51882310G>A	NM_138694.3:c.5498C>T	NM_170724.2:c.5498C>T
NM_138694.3:c.5502G>T		NC_000006.11:g.51882306C>A	NM_138694.3:c.5502G>T	NM_170724.2:c.5502G>T
NM_138694.3:c.5513A>G		NC_000006.11:g.51882295T>C	NM_138694.3:c.5513A>G	NM_170724.2:c.5513A>G
NM_138694.3:c.5585C>T		NC_000006.11:g.51882223G>A	NM_138694.3:c.5585C>T	NM_170724.2:c.5585C>T
NM_138694.3:c.5599A>G		NC_000006.11:g.51882209T>C	NM_138694.3:c.5599A>G	NM_170724.2:c.5599A>G
NM_138694.3:c.5624T>G		NC_000006.11:g.51875234A>C	NM_138694.3:c.5624T>G	NM_170724.2:c.5624T>G
NM_138694.3:c.5646delT		NC_000006.11:g.51875212delA	NM_138694.3:c.5646delT	NM_170724.2:c.5646delT
NM_138694.3:c.5723T>C		NC_000006.11:g.51875135A>G	NM_138694.3:c.5723T>C	NM_170724.2:c.5723T>C
NM_138694.3:c.5750A>C		NC_000006.11:g.51875108T>G	NM_138694.3:c.5750A>C	NM_170724.2:c.5750A>C
NM_138694.3:c.5750A>G		NC_000006.11:g.51875108T>C	NM_138694.3:c.5750A>G	NM_170724.2:c.5750A>G
NM_138694.3:c.5751+3A>G		NC_000006.11:g.51875104T>C	NM_138694.3:c.5751+3A>G	NM_170724.2:c.5751+3A>G
NM_138694.3:c.5761_5765delTCTTT		NC_000006.11:g.51824811_51824815delAAAGA	NM_138694.3:c.5761_5765delTCTTT	NM_170724.2:c.5761_5765delTCTTT
NM_138694.3:c.5768A>T		NC_000006.11:g.51824808T>A	NM_138694.3:c.5768A>T	NM_170724.2:c.5768A>T
NM_138694.3:c.5783G>T		NC_000006.11:g.51824793C>A	NM_138694.3:c.5783G>T	NM_170724.2:c.5783G>T
NM_138694.3:c.5825A>G		NC_000006.11:g.51824751T>C	NM_138694.3:c.5825A>G	NM_170724.2:c.5825A>G
NM_138694.3:c.5878A>G		NC_000006.11:g.51824698T>C	NM_138694.3:c.5878A>G	NM_170724.2:c.5878A>G
NM_138694.3:c.5895dupA		NC_000006.11:g.51824681dupT	NM_138694.3:c.5895dupA	NM_170724.2:c.5895dupA
NM_138694.3:c.5912G>A		NC_000006.11:g.51799117C>T	NM_138694.3:c.5912G>A	NM_170724.2:c.5912G>A
NM_138694.3:c.5984A>G		NC_000006.11:g.51799045T>C	NM_138694.3:c.5984A>G	NM_170724.2:c.5984A>G
NM_138694.3:c.5993T>C		NC_000006.11:g.51799036A>G	NM_138694.3:c.5993T>C	NM_170724.2:c.5993T>C
NM_138694.3:c.6020G>T		NC_000006.11:g.51799009C>A	NM_138694.3:c.6020G>T	NM_170724.2:c.6020G>T
NM_138694.3:c.6025G>A		NC_000006.11:g.51799004C>T	NM_138694.3:c.6025G>A	NM_170724.2:c.6025G>A
NM_138694.3:c.6029delA		NC_000006.11:g.51799000delT	NM_138694.3:c.6029delA	NM_170724.2:c.6029delA
NM_138694.3:c.6046A>T		NC_000006.11:g.51798983T>A	NM_138694.3:c.6046A>T	NM_170724.2:c.6046A>T
NM_138694.3:c.6074A>G		NC_000006.11:g.51798955T>C	NM_138694.3:c.6074A>G	NM_170724.2:c.6074A>G
NM_138694.3:c.6097A>G		NC_000006.11:g.51798932T>C	NM_138694.3:c.6097A>G	NM_170724.2:c.6097A>G
NM_138694.3:c.6116T>C		NC_000006.11:g.51798913A>G	NM_138694.3:c.6116T>C	NM_170724.2:c.6116T>C
NM_138694.3:c.6239G>A		NC_000006.11:g.51777257C>T	NM_138694.3:c.6239G>A	NM_170724.2:c.6239G>A
NM_138694.3:c.6296_6297delTG		NC_000006.11:g.51777199_51777200delCA	NM_138694.3:c.6296_6297delTG	NM_170724.2:c.6296_6297delTG
NM_138694.3:c.6317T>G		NC_000006.11:g.51777179A>C	NM_138694.3:c.6317T>G	NM_170724.2:c.6317T>G
NM_138694.3:c.6333-2A>G		NC_000006.11:g.51776756T>C	NM_138694.3:c.6333-2A>G	NM_170724.2:c.6333-2A>G
NM_138694.3:c.6378_6379insAGAGCACCATGTTTTAA		NC_000006.11:g.51776708_51776709insTTAAAACATGGTGCTCT	NM_138694.3:c.6378_6379insAGAGCACCATGTTTTAA	NM_170724.2:c.6378_6379insAGAGCACCATGTTTTAA
NM_138694.3:c.6383delT		NC_000006.11:g.51776704delA	NM_138694.3:c.6383delT	NM_170724.2:c.6383delT
NM_138694.3:c.6418A>C		NC_000006.11:g.51776669T>G	NM_138694.3:c.6418A>C	NM_170724.2:c.6418A>C
NM_138694.3:c.6490+2T>C		NC_000006.11:g.51776595A>G	NM_138694.3:c.6490+2T>C	NM_170724.2:c.6490+2T>C
NM_138694.3:c.6629G>A		NC_000006.11:g.51774134C>T	NM_138694.3:c.6629G>A	NM_170724.2:c.6629G>A
NM_138694.3:c.6653_6660dup		NC_000006.11:g.51774103_51774110dup	NM_138694.3:c.6653_6660dup	NM_170724.2:c.6653_6660dup
NM_138694.3:c.6670G>C		NC_000006.11:g.51774093C>G	NM_138694.3:c.6670G>C	NM_170724.2:c.6670G>C
NM_138694.3:c.6694C>T		NC_000006.11:g.51771127G>A	NM_138694.3:c.6694C>T	NM_170724.2:c.6694C>T
NM_138694.3:c.6816C>A		NC_000006.11:g.51768833G>T	NM_138694.3:c.6816C>A	NM_170724.2:c.6816C>A
NM_138694.3:c.6929delG		NC_000006.11:g.51768462delC	NM_138694.3:c.6929delG	NM_170724.2:c.6929delG
NM_138694.3:c.6991dupA		NC_000006.11:g.51768400dupT	NM_138694.3:c.6991dupA	NM_170724.2:c.6991dupA
NM_138694.3:c.6992T>A		NC_000006.11:g.51768399A>T	NM_138694.3:c.6992T>A	NM_170724.2:c.6992T>A
NM_138694.3:c.6996+4A>T		NC_000006.11:g.51768391T>A	NM_138694.3:c.6996+4A>T	NM_170724.2:c.6996+4A>T
NM_138694.3:c.7062delA		NC_000006.11:g.51751978delT	NM_138694.3:c.7062delA	NM_170724.2:c.7062delA
NM_138694.3:c.7108A>G		NC_000006.11:g.51751932T>C	NM_138694.3:c.7108A>G	NM_170724.2:c.7108A>G
NM_138694.3:c.7122delT		NC_000006.11:g.51750758delA	NM_138694.3:c.7122delT	NM_170724.2:c.7122delT
NM_138694.3:c.7177C>T		NC_000006.11:g.51750703G>A	NM_138694.3:c.7177C>T	NM_170724.2:c.7177C>T
NM_138694.3:c.7215delG		NC_000006.11:g.51750665delC	NM_138694.3:c.7215delG	NM_170724.2:c.7215delG
NM_138694.3:c.7264T>G		NC_000006.11:g.51747977A>C	NM_138694.3:c.7264T>G	NM_170724.2:c.7264T>G
NM_138694.3:c.7264T>C		NC_000006.11:g.51747977A>G	NM_138694.3:c.7264T>C	NM_170724.2:c.7264T>C
NM_138694.3:c.7280T>C		NC_000006.11:g.51747961A>G	NM_138694.3:c.7280T>C	NM_170724.2:c.7280T>C
NM_138694.3:c.7351-2A>T		NC_000006.11:g.51735439T>A	NM_138694.3:c.7351-2A>T	NM_170724.2:c.7351-2A>T
NM_138694.3:c.7477C>T		NC_000006.11:g.51735311G>A	NM_138694.3:c.7477C>T	NM_170724.2:c.7477C>T
NM_138694.3:c.7544delC		NC_000006.11:g.51732850delG	NM_138694.3:c.7544delC	NM_170724.2:c.7544delC
NM_138694.3:c.7675G>C		NC_000006.11:g.51732719C>G	NM_138694.3:c.7675G>C	NM_170724.2:c.7675G>C
NM_138694.3:c.7912-1G>C		NC_000006.11:g.51712769C>G	NM_138694.3:c.7912-1G>C	NM_170724.2:c.7912-1G>C
NM_138694.3:c.7912T>A		NC_000006.11:g.51712768A>T	NM_138694.3:c.7912T>A	NM_170724.2:c.7912T>A
NM_138694.3:c.7916C>A		NC_000006.11:g.51712764G>T	NM_138694.3:c.7916C>A	NM_170724.2:c.7916C>A
NM_138694.3:c.7921A>G		NC_000006.11:g.51712759T>C	NM_138694.3:c.7921A>G	NM_170724.2:c.7921A>G
NM_138694.3:c.8011C>T		NC_000006.11:g.51712669G>A	NM_138694.3:c.8011C>T	NM_170724.2:c.8011C>T
NM_138694.3:c.8063G>T		NC_000006.11:g.51712617C>A	NM_138694.3:c.8063G>T	NM_170724.2:c.8063G>T
NM_138694.3:c.8068T>C		NC_000006.11:g.51712612A>G	NM_138694.3:c.8068T>C	NM_170724.2:c.8068T>C
NM_138694.3:c.8114delG		NC_000006.11:g.51701261delC	NM_138694.3:c.8114delG	NM_170724.2:c.8114delG
NM_138694.3:c.8206T>G		NC_000006.11:g.51695755A>C	NM_138694.3:c.8206T>G	NM_170724.2:c.8206T>G
NM_138694.3:c.8246_8247delGGinsCC		NC_000006.11:g.51695714_51695715delinsGG	NM_138694.3:c.8246_8247delinsCC	NM_170724.2:c.8246_8247delinsCC
NM_138694.3:c.8281G>T		NC_000006.11:g.51695680C>A	NM_138694.3:c.8281G>T	NM_170724.2:c.8281G>T
NM_138694.3:c.8302+2T>C		NC_000006.11:g.51695657A>G	NM_138694.3:c.8302+2T>C	NM_170724.2:c.8302+2T>C
NM_138694.3:c.8312T>C		NC_000006.11:g.51656162A>G	NM_138694.3:c.8312T>C	NM_170724.2:c.8312T>C
NM_138694.3:c.8315T>C		NC_000006.11:g.51656159A>G	NM_138694.3:c.8315T>C	NM_170724.2:c.8315T>C
NM_138694.3:c.8317G>T		NC_000006.11:g.51656157C>A	NM_138694.3:c.8317G>T	NM_170724.2:c.8317G>T
NM_138694.3:c.8385A>C		NC_000006.11:g.51656089T>G	NM_138694.3:c.8385A>C	NM_170724.2:c.8385A>C
NM_138694.3:c.8393T>G		NC_000006.11:g.51656081A>C	NM_138694.3:c.8393T>G	NM_170724.2:c.8393T>G
NM_138694.3:c.8407T>C		NC_000006.11:g.51656067A>G	NM_138694.3:c.8407T>C	NM_170724.2:c.8407T>C
NM_138694.3:c.8411T>A		NC_000006.11:g.51656063A>T	NM_138694.3:c.8411T>A	NM_170724.2:c.8411T>A
NM_138694.3:c.8425G>A		NC_000006.11:g.51656049C>T	NM_138694.3:c.8425G>A	NM_170724.2:c.8425G>A
NM_138694.3:c.8518C>T		NC_000006.11:g.51640642G>A	NM_138694.3:c.8518C>T	NM_170724.2:c.8518C>T
NM_138694.3:c.8521A>G		NC_000006.11:g.51640639T>C	NM_138694.3:c.8521A>G	NM_170724.2:c.8521A>G
NM_138694.3:c.8552T>C		NC_000006.11:g.51640608A>G	NM_138694.3:c.8552T>C	NM_170724.2:c.8552T>C
NM_138694.3:c.8579_8583del		NC_000006.11:g.51637559_51637563del	NM_138694.3:c.8579_8583del	NM_170724.2:c.8579_8583del
NM_138694.3:c.8588A>G		NC_000006.11:g.51637554T>C	NM_138694.3:c.8588A>G	NM_170724.2:c.8588A>G
NM_138694.3:c.8606C>A		NC_000006.11:g.51637536G>T	NM_138694.3:c.8606C>A	NM_170724.2:c.8606C>A
NM_138694.3:c.8642+1G>T		NC_000006.11:g.51637499C>A	NM_138694.3:c.8642+1G>T	NM_170724.2:c.8642+1G>T
NM_138694.3:c.8642+1G>A		NC_000006.11:g.51637499C>T	NM_138694.3:c.8642+1G>A	NM_170724.2:c.8642+1G>A
NM_138694.3:c.8651_8653delTAG		NC_000006.11:g.51619726_51619728delCTA	NM_138694.3:c.8651_8653delTAG	NM_170724.2:c.8651_8653delTAG
NM_138694.3:c.8824C>T		NC_000006.11:g.51618125G>A	NM_138694.3:c.8824C>T	NM_170724.2:c.8824C>T
NM_138694.3:c.8829dupC		NC_000006.11:g.51618120dupG	NM_138694.3:c.8829dupC	NM_170724.2:c.8829dupC
NM_138694.3:c.8870T>C		NC_000006.11:g.51618079A>G	NM_138694.3:c.8870T>C	NM_170724.2:c.8870T>C
NM_138694.3:c.8893T>C		NC_000006.11:g.51618056A>G	NM_138694.3:c.8893T>C	NM_170724.2:c.8893T>C
NM_138694.3:c.8901delG		NC_000006.11:g.51618048delC	NM_138694.3:c.8901delG	NM_170724.2:c.8901delG
NM_138694.3:c.8909_8912delTTGT		NC_000006.11:g.51618037_51618040delACAA	NM_138694.3:c.8909_8912delTTGT	NM_170724.2:c.8909_8912delTTGT
NM_138694.3:c.8935C>T		NC_000006.11:g.51618014G>A	NM_138694.3:c.8935C>T	NM_170724.2:c.8935C>T
NM_138694.3:c.8948C>T		NC_000006.11:g.51618001G>A	NM_138694.3:c.8948C>T	NM_170724.2:c.8948C>T
NM_138694.3:c.9051_9053delATC		NC_000006.11:g.51613361_51613363delGAT	NM_138694.3:c.9051_9053delATC	NM_170724.2:c.9051_9053delATC
NM_138694.3:c.9053C>T		NC_000006.11:g.51613361G>A	NM_138694.3:c.9053C>T	NM_170724.2:c.9053C>T
NM_138694.3:c.9104delG		NC_000006.11:g.51613310delC	NM_138694.3:c.9104delG	NM_170724.2:c.9104delG
NM_138694.3:c.9107T>G		NC_000006.11:g.51613307A>C	NM_138694.3:c.9107T>G	NM_170724.2:c.9107T>G
NM_138694.3:c.9146A>G		NC_000006.11:g.51613268T>C	NM_138694.3:c.9146A>G	NM_170724.2:c.9146A>G
NM_138694.3:c.9183_9186delTAATinsATTAGTGACATCAG		NC_000006.11:g.51613228_51613231delinsCTGATGTCACTAAT	NM_138694.3:c.9183_9186delinsATTAGTGACATCAG	NM_170724.2:c.9183_9186delinsATTAGTGACATCAG
NM_138694.3:c.9239G>A		NC_000006.11:g.51613175C>T	NM_138694.3:c.9239G>A	NM_170724.2:c.9239G>A
NM_138694.3:c.9241A>G		NC_000006.11:g.51613173T>C	NM_138694.3:c.9241A>G	NM_170724.2:c.9241A>G
NM_138694.3:c.9289G>A		NC_000006.11:g.51613125C>T	NM_138694.3:c.9289G>A	NM_170724.2:c.9289G>A
NM_138694.3:c.9311T>G		NC_000006.11:g.51613103A>C	NM_138694.3:c.9311T>G	NM_170724.2:c.9311T>G
NM_138694.3:c.9319C>T		NC_000006.11:g.51613095G>A	NM_138694.3:c.9319C>T	NM_170724.2:c.9319C>T
NM_138694.3:c.9348delG		NC_000006.11:g.51613066delC	NM_138694.3:c.9348delG	NM_170724.2:c.9348delG
NM_138694.3:c.9370C>T		NC_000006.11:g.51613044G>A	NM_138694.3:c.9370C>T	NM_170724.2:c.9370C>T
NM_138694.3:c.9415G>T		NC_000006.11:g.51612999C>A	NM_138694.3:c.9415G>T	NM_170724.2:c.9415G>T
NM_138694.3:c.9461A>G		NC_000006.11:g.51612953T>C	NM_138694.3:c.9461A>G	NM_170724.2:c.9461A>G
NM_138694.3:c.9464A>G		NC_000006.11:g.51612950T>C	NM_138694.3:c.9464A>G	NM_170724.2:c.9464A>G
NM_138694.3:c.9499A>T		NC_000006.11:g.51612915T>A	NM_138694.3:c.9499A>T	NM_170724.2:c.9499A>T
NM_138694.3:c.9532G>T		NC_000006.11:g.51612882C>A	NM_138694.3:c.9532G>T	NM_170724.2:c.9532G>T
NM_138694.3:c.9619G>A		NC_000006.11:g.51612795C>T	NM_138694.3:c.9619G>A	NM_170724.2:c.9619G>A
NM_138694.3:c.9625A>C		NC_000006.11:g.51612789T>G	NM_138694.3:c.9625A>C	NM_170724.2:c.9625A>C
NM_138694.3:c.9683C>A		NC_000006.11:g.51612731G>T	NM_138694.3:c.9683C>A	NM_170724.2:c.9683C>A
NM_138694.3:c.9689delA		NC_000006.11:g.51612725delT	NM_138694.3:c.9689delA	NM_170724.2:c.9689delA
NM_138694.3:c.9707delC		NC_000006.11:g.51612707delG	NM_138694.3:c.9707delC	NM_170724.2:c.9707delC
NM_138694.3:c.9718C>T		NC_000006.11:g.51612696G>A	NM_138694.3:c.9718C>T	NM_170724.2:c.9718C>T
NM_138694.3:c.9719G>A		NC_000006.11:g.51612695C>T	NM_138694.3:c.9719G>A	NM_170724.2:c.9719G>A
NM_138694.3:c.9719G>T		NC_000006.11:g.51612695C>A	NM_138694.3:c.9719G>T	NM_170724.2:c.9719G>T
NM_138694.3:c.9725G>T		NC_000006.11:g.51612689C>A	NM_138694.3:c.9725G>T	NM_170724.2:c.9725G>T
NM_138694.3:c.9765G>A		NC_000006.11:g.51612649C>T	NM_138694.3:c.9765G>A	NM_170724.2:c.9765G>A
NM_138694.3:c.9802delT		NC_000006.11:g.51612612delA	NM_138694.3:c.9802delT	NM_170724.2:c.9802delT
NM_138694.3:c.9850delG		NC_000006.11:g.51611667delC	NM_138694.3:c.9850delG	NM_170724.2:c.9850delG
NM_138694.3:c.9861C>A		NC_000006.11:g.51611656G>T	NM_138694.3:c.9861C>A	NM_170724.2:c.9861C>A
NM_138694.3:c.9878A>T		NC_000006.11:g.51611639T>A	NM_138694.3:c.9878A>T	NM_170724.2:c.9878A>T
NM_138694.3:c.9998G>C		NC_000006.11:g.51611519C>G	NM_138694.3:c.9998G>C	NM_170724.2:c.9998G>C
NM_138694.3:c.10031T>G		NC_000006.11:g.51609308A>C	NM_138694.3:c.10031T>G	NM_170724.2:c.10031T>G
NM_138694.3:c.10036T>C		NC_000006.11:g.51609303A>G	NM_138694.3:c.10036T>C	NM_170724.2:c.10036T>C
NM_138694.3:c.10077delG		NC_000006.11:g.51609262delC	NM_138694.3:c.10077delG	NM_170724.2:c.10077delG
NM_138694.3:c.10136delC		NC_000006.11:g.51609203delG	NM_138694.3:c.10136delC	NM_170724.2:c.10136delC
NM_138694.3:c.10174C>T		NC_000006.11:g.51524750G>A	NM_138694.3:c.10174C>T
NM_138694.3:c.10219C>T		NC_000006.11:g.51524705G>A	NM_138694.3:c.10219C>T
NM_138694.3:c.10226A>T		NC_000006.11:g.51524698T>A	NM_138694.3:c.10226A>T
NM_138694.3:c.10240delA		NC_000006.11:g.51524684delT	NM_138694.3:c.10240delA
NM_138694.3:c.10319T>A		NC_000006.11:g.51524605A>T	NM_138694.3:c.10319T>A
NM_138694.3:c.10364delC		NC_000006.11:g.51524560delG	NM_138694.3:c.10364delC
NM_138694.3:c.10402A>G		NC_000006.11:g.51524522T>C	NM_138694.3:c.10402A>G
NM_138694.3:c.10412T>G		NC_000006.11:g.51524512A>C	NM_138694.3:c.10412T>G
NM_138694.3:c.10444C>T		NC_000006.11:g.51524480G>A	NM_138694.3:c.10444C>T
NM_138694.3:c.10481_10503del		NC_000006.11:g.51524421_51524443del	NM_138694.3:c.10481_10503del
NM_138694.3:c.10505A>T		NC_000006.11:g.51524419T>A	NM_138694.3:c.10505A>T
NM_138694.3:c.10628_10635del8		NC_000006.11:g.51524289_51524296del8	NM_138694.3:c.10628_10635del8
NM_138694.3:c.10628T>C		NC_000006.11:g.51524296A>G	NM_138694.3:c.10628T>C
NM_138694.3:c.10637delT		NC_000006.11:g.51524287delA	NM_138694.3:c.10637delT
NM_138694.3:c.10639dupC		NC_000006.11:g.51524285dupG	NM_138694.3:c.10639dupC
NM_138694.3:c.10658T>C		NC_000006.11:g.51524266A>G	NM_138694.3:c.10658T>C
NM_138694.3:c.10664T>A		NC_000006.11:g.51524260A>T	NM_138694.3:c.10664T>A
NM_138694.3:c.10709C>G		NC_000006.11:g.51524215G>C	NM_138694.3:c.10709C>G
NM_138694.3:c.10728G>A		NC_000006.11:g.51524196C>T	NM_138694.3:c.10728G>A
NM_138694.3:c.10765C>T		NC_000006.11:g.51524159G>A	NM_138694.3:c.10765C>T
NM_138694.3:c.10805C>T		NC_000006.11:g.51524119G>A	NM_138694.3:c.10805C>T
NM_138694.3:c.10856delA		NC_000006.11:g.51524068delT	NM_138694.3:c.10856delA
NM_138694.3:c.10865G>A		NC_000006.11:g.51524059C>T	NM_138694.3:c.10865G>A
NM_138694.3:c.10925T>C		NC_000006.11:g.51523999A>G	NM_138694.3:c.10925T>C
NM_138694.3:c.10955delC		NC_000006.11:g.51523969delG	NM_138694.3:c.10955delC
NM_138694.3:c.10972_10973delAT		NC_000006.11:g.51523951_51523952delAT	NM_138694.3:c.10972_10973delAT
NM_138694.3:c.11074C>T		NC_000006.11:g.51523850G>A	NM_138694.3:c.11074C>T
NM_138694.3:c.11218C>T		NC_000006.11:g.51513975G>A	NM_138694.3:c.11218C>T
NM_138694.3:c.11284C>A		NC_000006.11:g.51513909G>T	NM_138694.3:c.11284C>A
NM_138694.3:c.11408_11409dupA		NC_000006.11:g.51503744_51503745dupT	NM_138694.3:c.11408_11409dupA
NM_138694.3:c.11524C>T		NC_000006.11:g.51497504G>A	NM_138694.3:c.11524C>T
NM_138694.3:c.11525G>T		NC_000006.11:g.51497503C>A	NM_138694.3:c.11525G>T
NM_138694.3:c.11611T>C		NC_000006.11:g.51497417A>G	NM_138694.3:c.11611T>C
NM_138694.3:c.11612G>A		NC_000006.11:g.51497416C>T	NM_138694.3:c.11612G>A
NM_138694.3:c.11869C>T		NC_000006.11:g.51484235G>A	NM_138694.3:c.11869C>T	XR_242037.1:n.-2406G>A
