"Caridi et al, 2001",http://jasn.asnjournals.org/content/12/12/2742.full.pdf+html,
"Karle et al, 2002",http://jasn.asnjournals.org/content/13/2/388.full.pdf+html,
"Hinkes et al, 2008",http://jasn.asnjournals.org/content/19/2/365.long,http://jasn.asnjournals.org/content/suppl/2007/08/15/ASN.2007040452.DC1/452.doc
"Ruf et al, 2004",http://jasn.asnjournals.org/content/15/3/722.full.pdf+html,
"Berdeli et al, 2007",http://download.springer.com/static/pdf/98/art%253A10.1007%252Fs00467-007-0595-y.pdf?originUrl=http%3A%2F%2Flink.springer.com%2Farticle%2F10.1007%2Fs00467-007-0595-y&token2=exp=1448013947~acl=%2Fstatic%2Fpdf%2F98%2Fart%25253A10.1007%25252Fs00467-007-0595-y.pdf%3ForiginUrl%3Dhttp%253A%252F%252Flink.springer.com%252Farticle%252F10.1007%252Fs00467-007-0595-y*~hmac=ec726482b15fe5e6f382325bb4bc68754f9059e0fae8ecf55e53ce7096ee5bb6,
"Buscher et al, 2010",http://cjasn.asnjournals.org/content/5/11/2075.full,
"Ismaili et al, 2009",http://download.springer.com/static/pdf/138/art%253A10.1007%252Fs00467-008-0953-4.pdf?originUrl=http%3A%2F%2Flink.springer.com%2Farticle%2F10.1007%2Fs00467-008-0953-4&token2=exp=1448016142~acl=%2Fstatic%2Fpdf%2F138%2Fart%25253A10.1007%25252Fs00467-008-0953-4.pdf%3ForiginUrl%3Dhttp%253A%252F%252Flink.springer.com%252Farticle%252F10.1007%252Fs00467-008-0953-4*~hmac=bc81684b7b3415f82618437b16eba370e9d826cd92b605092050134438d7dc57,
"Jungraithmayr et al, 2011",http://jasn.asnjournals.org/content/22/3/579.full.pdf,
"Kitamura et al, 2008 nphs2 ",http://www.nature.com/ki/journal/v74/n9/full/ki2008297a.html,
"Koziell et al, 2001",http://hmg.oxfordjournals.org/content/11/4/379.full.pdf,
"Mbarek et al, 2011",http://download.springer.com/static/pdf/408/art%253A10.1007%252Fs00467-010-1694-8.pdf?originUrl=http%3A%2F%2Flink.springer.com%2Farticle%2F10.1007%2Fs00467-010-1694-8&token2=exp=1448018099~acl=%2Fstatic%2Fpdf%2F408%2Fart%25253A10.1007%25252Fs00467-010-1694-8.pdf%3ForiginUrl%3Dhttp%253A%252F%252Flink.springer.com%252Farticle%252F10.1007%252Fs00467-010-1694-8*~hmac=e5492d50df8ed596f767fb7edff56b8210be6775193a3d810ff155ca2448ab9c,
sadowski2015,http://jasn.asnjournals.org/content/26/6/1279.full.pdf+html,
"Sako et al, 2005",http://www.nature.com/ki/journal/v67/n4/pdf/4495168a.pdf,
"Santin et al, 2011",http://cjasn.asnjournals.org/content/6/5/1139.long,
"Tonna et al, 2008",http://www.ncbi.nlm.nih.gov/pmc/articles/PMC2569023/,
Tsukagushi et al 2002,,
"Voskarides et al, 2008",http://download.springer.com/static/pdf/622/art%253A10.1007%252Fs00467-008-0804-3.pdf?originUrl=http%3A%2F%2Flink.springer.com%2Farticle%2F10.1007%2Fs00467-008-0804-3&token2=exp=1448019323~acl=%2Fstatic%2Fpdf%2F622%2Fart%25253A10.1007%25252Fs00467-008-0804-3.pdf%3ForiginUrl%3Dhttp%253A%252F%252Flink.springer.com%252Farticle%252F10.1007%252Fs00467-008-0804-3*~hmac=369914cd4f23ab0387c89c60f2ed33abfd6b436bc5bf491aeedf9d88dbda5dfd,
