"nucl","prot","category"
"c.1A>G","p.M1V","Missense/nonsense"
"c.4C>T","p.Q2*","Missense/nonsense"
"c.11C>A","p.S4*","Missense/nonsense"
"c.14C>T","p.P5L","Missense/nonsense"
"c.19G>T","p.E7*","Missense/nonsense"
"c.44T>C","p.L15P","Missense/nonsense"
"c.56G>A","p.W19*","Missense/nonsense"
"c.80G>A","p.G27E","Missense/nonsense"
"c.91C>T","p.R31C","Missense/nonsense"
"c.106G>A","p.D36N","Missense/nonsense"
"c.115C>T","p.Q39*","Missense/nonsense"
"c.125C>T","p.S42F","Missense/nonsense"
"c.167A>G","p.E56G","Missense/nonsense"
"c.166G>A","p.E56K","Missense/nonsense"
"c.169T>G","p.W57G","Missense/nonsense"
"c.170G>A","p.W57*","Missense/nonsense"
"c.178G>A","p.E60K","Missense/nonsense"
"c.178G>T","p.E60*","Missense/nonsense"
"c.200C>T","p.P67L","Missense/nonsense"
"c.220C>T","p.R74W","Missense/nonsense"
"c.224G>A","p.R75Q","Missense/nonsense"
"c.224G>T","p.R75L","Missense/nonsense"
"c.223C>T","p.R75*","Missense/nonsense"
"c.254G>A","p.G85E","Missense/nonsense"
"c.254G>T","p.G85V","Missense/nonsense"
"c.263T>A","p.L88*","Missense/nonsense"
"c.274G>A","p.E92K","Missense/nonsense"
"c.293A>G","p.Q98R","Missense/nonsense"
"c.292C>T","p.Q98*","Missense/nonsense"
"c.328G>C","p.D110H","Missense/nonsense"
"c.349C>T","p.R117C","Missense/nonsense"
"c.350G>A","p.R117H","Missense/nonsense"
"c.358G>A","p.A120T","Missense/nonsense"
"c.377G>A","p.G126D","Missense/nonsense"
"c.416A>G","p.H139R","Missense/nonsense"
"c.443T>C","p.I148T","Missense/nonsense"
"c.449T>A","p.M150K","Missense/nonsense"
"c.455T>G","p.M152R","Missense/nonsense"
"c.473G>A","p.S158N","Missense/nonsense"
"c.476T>C","p.L159S","Missense/nonsense"
"c.482A>G","p.Y161C","Missense/nonsense"
"c.496A>G","p.K166E","Missense/nonsense"
"c.509G>A","p.R170H","Missense/nonsense"
"c.532G>A","p.G178R","Missense/nonsense"
"c.563T>C","p.L188P","Missense/nonsense"
"c.574G>A","p.D192N","Missense/nonsense"
"c.575A>G","p.D192G","Missense/nonsense"
"c.577G>A","p.E193K","Missense/nonsense"
"c.580G>A","p.G194R","Missense/nonsense"
"c.596A>G","p.H199R","Missense/nonsense"
"c.595C>T","p.H199Y","Missense/nonsense"
"c.613C>T","p.P205S","Missense/nonsense"
"c.617T>G","p.L206W","Missense/nonsense"
"c.638G>A","p.G213E","Missense/nonsense"
"c.647G>A","p.W216*","Missense/nonsense"
"c.650A>G","p.E217G","Missense/nonsense"
"c.658C>T","p.Q220*","Missense/nonsense"
"c.695T>A","p.V232D","Missense/nonsense"
"c.709C>G","p.Q237E","Missense/nonsense"
"c.713C>T","p.A238V","Missense/nonsense"
"c.769G>T","p.E257*","Missense/nonsense"
"c.772A>G","p.R258G","Missense/nonsense"
"c.794T>G","p.M265R","Missense/nonsense"
"c.825C>G","p.Y275*","Missense/nonsense"
"c.828C>A","p.C276*","Missense/nonsense"
"c.931T>C","p.F311L","Missense/nonsense"
"c.958T>G","p.L320V","Missense/nonsense"
"c.1001G>A","p.R334Q","Missense/nonsense"
"c.1001G>T","p.R334L","Missense/nonsense"
"c.1000C>T","p.R334W","Missense/nonsense"
"c.1007T>A","p.I336K","Missense/nonsense"
"c.1013C>T","p.T338I","Missense/nonsense"
"c.1040G>A","p.R347H","Missense/nonsense"
"c.1040G>C","p.R347P","Missense/nonsense"
"c.1043T>A","p.M348K","Missense/nonsense"
"c.1046C>T","p.A349V","Missense/nonsense"
"c.1052C>G","p.T351S","Missense/nonsense"
"c.1055G>A","p.R352Q","Missense/nonsense"
"c.1054C>T","p.R352W","Missense/nonsense"
"c.1081T>A","p.W361R","Missense/nonsense"
"c.1094T>C","p.L365P","Missense/nonsense"
"c.1119T>G","p.D373E","Missense/nonsense"
"c.1125A>C","p.L375F","Missense/nonsense"
"c.1135G>T","p.E379*","Missense/nonsense"
"c.1148T>C","p.L383S","Missense/nonsense"
"c.1181T>G","p.M394R","Missense/nonsense"
"c.1196C>A","p.A399D","Missense/nonsense"
"c.1324A>T","p.K442*","Missense/nonsense"
"c.1327G>T","p.D443Y","Missense/nonsense"
"c.1352G>T","p.G451V","Missense/nonsense"
"c.1358T>C","p.L453S","Missense/nonsense"
"c.1364C>A","p.A455E","Missense/nonsense"
"c.1367T>C","p.V456A","Missense/nonsense"
"c.1394C>A","p.T465N","Missense/nonsense"
"c.1397C>A","p.S466*","Missense/nonsense"
"c.1397C>G","p.S466*","Missense/nonsense"
"c.1408A>G","p.M470V","Missense/nonsense"
"c.1435G>T","p.E479*","Missense/nonsense"
"c.1438G>T","p.G480C","Missense/nonsense"
"c.1456G>T","p.G486*","Missense/nonsense"
"c.1466C>A","p.S489*","Missense/nonsense"
"c.1472G>T","p.C491F","Missense/nonsense"
"c.1475C>T","p.S492F","Missense/nonsense"
"c.1477C>T","p.Q493*","Missense/nonsense"
"c.1517T>C","p.I506T","Missense/nonsense"
"c.1516A>G","p.I506V","Missense/nonsense"
"c.1523T>G","p.F508C","Missense/nonsense"
"c.1558G>T","p.V520F","Missense/nonsense"
"c.1573C>T","p.Q525*","Missense/nonsense"
"c.1580A>G","p.E527G","Missense/nonsense"
"c.1582G>T","p.E528*","Missense/nonsense"
"c.1585G>A","p.D529N","Missense/nonsense"
"c.1588A>C","p.I530L","Missense/nonsense"
"c.1624G>T","p.G542*","Missense/nonsense"
"c.1643T>A","p.L548Q","Missense/nonsense"
"c.1647T>G","p.S549R","Missense/nonsense"
"c.1646G>A","p.S549N","Missense/nonsense"
"c.1652G>A","p.G551D","Missense/nonsense"
"c.1654C>T","p.Q552*","Missense/nonsense"
"c.1657C>T","p.R553*","Missense/nonsense"
"c.1666A>G","p.I556V","Missense/nonsense"
"c.1673T>C","p.L558S","Missense/nonsense"
"c.1680A>T","p.R560S","Missense/nonsense"
"c.1679G>C","p.R560T","Missense/nonsense"
"c.1682C>A","p.A561E","Missense/nonsense"
"c.1684G>A","p.V562I","Missense/nonsense"
"c.1697C>A","p.A566D","Missense/nonsense"
"c.1704G>T","p.L568F","Missense/nonsense"
"c.1703T>A","p.L568*","Missense/nonsense"
"c.1705T>G","p.Y569D","Missense/nonsense"
"c.1712T>C","p.L571S","Missense/nonsense"
"c.1721C>A","p.P574H","Missense/nonsense"
"c.1724T>A","p.F575Y","Missense/nonsense"
"c.1736A>G","p.D579G","Missense/nonsense"
"c.1753G>T","p.E585*","Missense/nonsense"
"c.1763A>T","p.E588V","Missense/nonsense"
"c.1826A>G","p.H609R","Missense/nonsense"
"c.1826A>T","p.H609L","Missense/nonsense"
"c.1837G>A","p.A613T","Missense/nonsense"
"c.1841A>G","p.D614G","Missense/nonsense"
"c.1865G>A","p.G622D","Missense/nonsense"
"c.1882G>C","p.G628R","Missense/nonsense"
"c.2017G>T","p.G673*","Missense/nonsense"
"c.2053C>T","p.Q685*","Missense/nonsense"
"c.2125C>T","p.R709*","Missense/nonsense"
"c.2128A>T","p.K710*","Missense/nonsense"
"c.2188G>T","p.E730*","Missense/nonsense"
"c.2195T>G","p.L732*","Missense/nonsense"
"c.2249C>T","p.P750L","Missense/nonsense"
"c.2290C>T","p.R764*","Missense/nonsense"
"c.2335C>T","p.Q779*","Missense/nonsense"
"c.2353C>T","p.R785*","Missense/nonsense"
"c.2417A>G","p.D806G","Missense/nonsense"
"c.2421A>G","p.I807M","Missense/nonsense"
"c.2491G>T","p.E831*","Missense/nonsense"
"c.2506G>T","p.D836Y","Missense/nonsense"
"c.2537G>A","p.W846*","Missense/nonsense"
"c.2547C>A","p.Y849*","Missense/nonsense"
"c.2552G>T","p.R851L","Missense/nonsense"
"c.2551C>T","p.R851*","Missense/nonsense"
"c.2557A>T","p.I853F","Missense/nonsense"
"c.2563G>A","p.V855I","Missense/nonsense"
"c.2668C>T","p.Q890*","Missense/nonsense"
"c.2735C>T","p.S912L","Missense/nonsense"
"c.2739T>A","p.Y913*","Missense/nonsense"
"c.2780T>C","p.L927P","Missense/nonsense"
"c.2797A>G","p.R933G","Missense/nonsense"
"c.2799A>T","p.R933S","Missense/nonsense"
"c.2813T>G","p.V938G","Missense/nonsense"
"c.2834C>T","p.S945L","Missense/nonsense"
"c.2856G>C","p.M952I","Missense/nonsense"
"c.2900T>C","p.L967S","Missense/nonsense"
"c.2908G>C","p.G970R","Missense/nonsense"
"c.2909G>A","p.G970D","Missense/nonsense"
"c.2918T>C","p.L973P","Missense/nonsense"
"c.2930C>T","p.S977F","Missense/nonsense"
"c.2991G>C","p.L997F","Missense/nonsense"
"c.3038C>T","p.P1013L","Missense/nonsense"
"c.3041A>G","p.Y1014C","Missense/nonsense"
"c.3083T>G","p.M1028R","Missense/nonsense"
"c.3095A>G","p.Y1032C","Missense/nonsense"
"c.3107C>A","p.T1036N","Missense/nonsense"
"c.3107C>T","p.T1036I","Missense/nonsense"
"c.3124C>T","p.Q1042*","Missense/nonsense"
"c.3154T>G","p.F1052V","Missense/nonsense"
"c.3160C>G","p.H1054D","Missense/nonsense"
"c.3181G>A","p.G1061R","Missense/nonsense"
"c.3194T>C","p.L1065P","Missense/nonsense"
"c.3196C>T","p.R1066C","Missense/nonsense"
"c.3197G>A","p.R1066H","Missense/nonsense"
"c.3205G>A","p.G1069R","Missense/nonsense"
"c.3209G>A","p.R1070Q","Missense/nonsense"
"c.3208C>T","p.R1070W","Missense/nonsense"
"c.3212A>C","p.Q1071P","Missense/nonsense"
"c.3222T>A","p.F1074L","Missense/nonsense"
"c.3230T>C","p.L1077P","Missense/nonsense"
"c.3254A>G","p.H1085R","Missense/nonsense"
"c.3259G>C","p.A1087P","Missense/nonsense"
"c.3266G>A","p.W1089*","Missense/nonsense"
"c.3275A>G","p.Y1092C","Missense/nonsense"
"c.3274T>C","p.Y1092H","Missense/nonsense"
"c.3276C>A","p.Y1092*","Missense/nonsense"
"c.3297C>A","p.F1099L","Missense/nonsense"
"c.3299A>C","p.Q1100P","Missense/nonsense"
"c.3302T>A","p.M1101K","Missense/nonsense"
"c.3380G>A","p.G1127E","Missense/nonsense"
"c.3389G>C","p.G1130A","Missense/nonsense"
"c.3406G>A","p.A1136T","Missense/nonsense"
"c.3410T>G","p.M1137R","Missense/nonsense"
"c.3409A>G","p.M1137V","Missense/nonsense"
"c.3415A>G","p.I1139V","Missense/nonsense"
"c.3454G>C","p.D1152H","Missense/nonsense"
"c.3472C>T","p.R1158*","Missense/nonsense"
"c.3485G>T","p.R1162L","Missense/nonsense"
"c.3484C>T","p.R1162*","Missense/nonsense"
"c.3503A>G","p.D1168G","Missense/nonsense"
"c.3529A>T","p.K1177*","Missense/nonsense"
"c.3546C>G","p.Y1182*","Missense/nonsense"
"c.3700A>G","p.I1234V","Missense/nonsense"
"c.3719T>G","p.V1240G","Missense/nonsense"
"c.3730G>A","p.G1244R","Missense/nonsense"
"c.3731G>A","p.G1244E","Missense/nonsense"
"c.3739G>C","p.G1247R","Missense/nonsense"
"c.3752G>A","p.S1251N","Missense/nonsense"
"c.3779T>C","p.L1260P","Missense/nonsense"
"c.3793G>A","p.G1265R","Missense/nonsense"
"c.3808G>A","p.D1270N","Missense/nonsense"
"c.3841C>T","p.Q1281*","Missense/nonsense"
"c.3846G>A","p.W1282*","Missense/nonsense"
"c.3872A>G","p.Q1291R","Missense/nonsense"
"c.3873G>C","p.Q1291H","Missense/nonsense"
"c.3909C>G","p.N1303K","Missense/nonsense"
"c.3937C>T","p.Q1313*","Missense/nonsense"
"c.4046G>A","p.G1349D","Missense/nonsense"
"c.4051A>G","p.K1351E","Missense/nonsense"
"c.4124A>C","p.H1375P","Missense/nonsense"
"c.4129G>C","p.D1377H","Missense/nonsense"
"c.4141T>C","p.Y1381H","Missense/nonsense"
"c.4241T>C","p.L1414S","Missense/nonsense"
"c.4333G>A","p.D1445N","Missense/nonsense"
"c.4364C>G","p.S1455*","Missense/nonsense"
"c.4417G>T","p.E1473*","Missense/nonsense"
"c.4426C>T","p.Q1476*","Missense/nonsense"
"c.164+12T>C","","splicing"
"c.165-3C>T","","splicing"
"c.165-1G>A","","splicing"
"c.273+1G>A","","splicing"
"c.274-2A>G","","splicing"
"c.274-1G>A","","splicing"
"c.489+1G>T","","splicing"
"c.489+3A>G","","splicing"
"c.489+25A>G","","splicing"
"c.579+1G>T","","splicing"
"c.579+3A>G","","splicing"
"c.579+3A>T","","splicing"
"c.579+5G>A","","splicing"
"c.580-1G>T","","splicing"
"c.743+1G>A","","splicing"
"c.870-2A>G","","splicing"
"c.1116+1G>A","","splicing"
"c.1209+1G>A","","splicing"
"c.1393-18G>A","","splicing"
"c.1393-1G>A","","splicing"
"c.1584G>A","","splicing"
"c.1585-8G>A","","splicing"
"c.1585-2A>G","","splicing"
"c.1585-1G>A","","splicing"
"c.1679+1634A>G","","splicing"
"c.1680-1G>A","","splicing"
"c.1766+1G>T","","splicing"
"c.1766+3A>C","","splicing"
"c.1766+5G>T","","splicing"
"c.2619+3A>G","","splicing"
"c.2657+5G>A","","splicing"
"c.2658-2A>G","","splicing"
"c.2909-15T>G","","splicing"
"c.2988+1G>A","","splicing"
"c.2989-1G>A","","splicing"
"c.3140-26A>G","","splicing"
"c.3368-2A>G","","splicing"
"c.3717+12191C>T","","splicing"
"c.3718-24G>A","","splicing"
"c.3873+1G>A","","splicing"
"c.3873+5727A>G","","splicing"
"c.42delA","","Small deletions"
"c.217delC","","Small deletions"
"c.262_263delTT","","Small deletions"
"c.289_297delGTACAGCCT","","Small deletions"
"c.424delA","","Small deletions"
"c.442delA","","Small deletions"
"c.531delT","","Small deletions"
"c.744-5_744-2delTACA","","Small deletions"
"c.803delA","","Small deletions"
"c.861_865delCTTAA","","Small deletions"
"c.935_937delTCT","","Small deletions"
"c.948delT","","Small deletions"
"c.1029delC","","Small deletions"
"c.1365_1366delGG","","Small deletions"
"c.1409_1418del10","","Small deletions"
"c.1418delG","","Small deletions"
"c.1477_1478delCA","","Small deletions"
"c.1521_1523delCTT","","Small deletions"
"c.1519_1521delATC","","Small deletions"
"c.1545_1546delTA","","Small deletions"
"c.1611_1612delCA","","Small deletions"
"c.1636_1641delATCACA","","Small deletions"
"c.1911delG","","Small deletions"
"c.2012delT","","Small deletions"
"c.2052delA","","Small deletions"
"c.2215delG","","Small deletions"
"c.2241_2248delGATACTGC","","Small deletions"
"c.2446delA","","Small deletions"
"c.2583delT","","Small deletions"
"c.2776_2777delTT","","Small deletions"
"c.2819_2823delCTCTA","","Small deletions"
"c.2998delA","","Small deletions"
"c.3039delC","","Small deletions"
"c.3067_3072delATAGTG","","Small deletions"
"c.3371_3373delAAG","","Small deletions"
"c.3486_3487delAG","","Small deletions"
"c.3659delC","","Small deletions"
"c.3855delC","","Small deletions"
"c.3883_3886delATTT","","Small deletions"
"c.3908delA","","Small deletions"
"c.4251delA","","Small deletions"
"c.444_445insCTA","","small insertion"
"c.860dupA","","small insertion"
"c.1021_1022dupTC","","small insertion"
"c.1130dupA","","small insertion"
"c.1155_1156dupTA","","small insertion"
"c.1660_1661insA","","small insertion"
"c.1682dupC","","small insertion"
"c.2052dupA","","small insertion"
"c.2083dupG","","small insertion"
"c.2089dupA","","small insertion"
"c.2175dupA","","small insertion"
"c.2554dupT","","small insertion"
"c.2601dupA","","small insertion"
"c.2657+2_2657+3insA","","small insertion"
"c.2737_2738insG","","small insertion"
"c.3532_3535dupTCAA","","small insertion"
"c.3773dupT","","small insertion"
"c.3883_3884insG","","small insertion"
"c.3889dupT","","small insertion"
"c.4025_4028dupGGGG","","small insertion"
"c.325_327delTATinsG","","small indels"
"c.1509_1510delAGinsT","","small indels"
"c.1923_1931delCTCAAAACTinsA","","small indels"
"c.2051_2052delAAinsG","","small indels"
"c.2620-1_2624delGGTGGCinsTTG","","small indels"
"c.2988+1173_3468+2111del","","gross deletions"
"c.3964-78_4242+577del","","gross deletions"
"c.54-5490_273+10250del","","gross deletions"