nucl,biological.pathogenicity,biological.pathogenicity.basis.of.decision.by.hand
c.1A>G,TRUE,hand
c.3G>A,TRUE,hand
c.14C>T,TRUE,hand
c.44T>C,TRUE,hand
c.53+4A>T,TRUE,hand
c.54-5490_273+10250del,TRUE,hand
c.54-5817_273+10124del,TRUE,hand
c.54-1161_164+1603del2875,TRUE,hand
c.80G>A,TRUE,hand
c.91C>T,TRUE,hand
c.106G>A,TRUE,hand
c.148T>C,TRUE,hand
c.164+12T>C,TRUE,hand
c.165-3C>T,TRUE,hand
c.166G>A,TRUE,hand
c.167A>G,TRUE,hand
c.169T>G,TRUE,hand
c.172G>A,TRUE,hand
c.173A>G,TRUE,hand
c.200C>T,TRUE,hand
c.220C>T,TRUE,hand
c.221G>A,TRUE,hand
c.224G>T,TRUE,hand
c.224G>A,TRUE,hand
c.228T>G,TRUE,hand
c.254G>A,TRUE,hand
c.274G>A,TRUE,hand
c.293A>G,TRUE,hand
c.328G>C,TRUE,hand
c.328G>T,TRUE,hand
c.332C>T,TRUE,hand
c.349C>T,TRUE,hand
c.349C>G,TRUE,hand
c.350G>A,TRUE,hand
c.358G>A,TRUE,hand
c.377G>A,TRUE,hand
c.416A>G,TRUE,hand
c.443T>C,TRUE,hand
c.445G>A,TRUE,hand
c.446G>T,TRUE,hand
c.449T>A,TRUE,hand
c.455T>G,TRUE,hand
c.473G>A,TRUE,hand
c.476T>C,TRUE,hand
c.482A>C,TRUE,hand
c.482A>G,TRUE,hand
c.489+3A>G,TRUE,hand
c.496A>G,TRUE,hand
c.509G>A,TRUE,hand
c.532G>A,TRUE,hand
c.547C>A,TRUE,hand
c.563T>C,TRUE,hand
c.574G>A,TRUE,hand
c.575A>G,TRUE,hand
c.577G>A,TRUE,hand
c.579+3A>T,TRUE,hand
c.579+5G>A,TRUE,hand
c.579+3A>G,TRUE,hand
c.580G>A,TRUE,hand
c.595C>T,TRUE,hand
c.596A>G,TRUE,hand
c.598T>A,TRUE,hand
c.601G>A,TRUE,hand
c.609C>G,TRUE,hand
c.613C>T,TRUE,hand
c.614_870-1547del3273,TRUE,hand
c.617T>G,TRUE,hand
c.638G>A,TRUE,hand
c.650A>G,TRUE,hand
c.695T>A,TRUE,hand
c.709C>G,TRUE,hand
c.731T>A,TRUE,hand
c.744-6del4,TRUE,hand
c.772A>G,TRUE,hand
c.794T>G,TRUE,hand
c.869+11C>T,TRUE,hand
c.890G>A,TRUE,hand
c.931T>C,TRUE,hand
c.958T>G,TRUE,hand
c.1000C>T,TRUE,hand
c.1001G>T,TRUE,hand
c.1001G>A,TRUE,hand
c.1007T>A,TRUE,hand
c.1013C>T,TRUE,hand
c.1040G>A,TRUE,hand
c.1040G>C,TRUE,hand
c.1042A>G,TRUE,hand
c.1043T>A,TRUE,hand
c.1046C>T,TRUE,hand
c.1052C>G,TRUE,hand
c.1055G>A,TRUE,hand
c.1072G>A,TRUE,hand
c.1081T>A,TRUE,hand
c.1094T>C,TRUE,hand
c.1125A>C,TRUE,hand
c.1135G>A,TRUE,hand
c.1148T>C,TRUE,hand
c.1163C>T,TRUE,hand
c.1181T>G,TRUE,hand
c.1196C>A,TRUE,hand
c.1210-7_1210-6dupTT,TRUE,hand
c.1210-7_1210-6delTT,TRUE,hand
c.1210-13_1210-12dupGT,TRUE,hand
c.1210-13_1210-12delGT,TRUE,hand
c.1210-15_1210-12dupGTGT,TRUE,hand
c.1210-14T>G,TRUE,hand
c.1327G>T,TRUE,hand
c.1352G>T,TRUE,hand
c.1358T>C,TRUE,hand
c.1364C>A,TRUE,hand
c.1367T>C,TRUE,hand
c.1381G>A,TRUE,hand
c.1393-18G>A,TRUE,hand
c.1394C>A,TRUE,hand
c.1397C>T,TRUE,hand
c.1408G>A,TRUE,hand
c.1450C>T,TRUE,hand
c.1475C>T,TRUE,hand
c.1516A>G,TRUE,hand
c.1517T>C,TRUE,hand
c.1523T>G,TRUE,hand
c.1558G>T,TRUE,hand
c.1584G>A,TRUE,hand
c.1585G>A,TRUE,hand
c.1585-8G>A,TRUE,hand
c.1588A>C,TRUE,hand
c.1591T>C,TRUE,hand
c.1631G>T,TRUE,hand
c.1643T>A,TRUE,hand
c.1645A>C,TRUE,hand
c.1646G>A,TRUE,hand
c.1647T>G,TRUE,hand
c.1652G>A,TRUE,hand
c.1666A>G,TRUE,hand
c.1673T>C,TRUE,hand
c.1679G>C,TRUE,hand
c.1680A>T,TRUE,hand
c.1682C>A,TRUE,hand
c.1684G>A,TRUE,hand
c.1697C>A,TRUE,hand
c.1704G>T,TRUE,hand
c.1705T>G,TRUE,hand
c.1712T>C,TRUE,hand
c.1721C>A,TRUE,hand
c.1724T>A,TRUE,hand
c.1727G>C,TRUE,hand
c.1736A>G,TRUE,hand
c.1763A>T,TRUE,hand
c.1766+5G>T,TRUE,hand
c.1766+3A>C,TRUE,hand
c.1775G>A,TRUE,hand
c.1775G>T,TRUE,hand
c.1792A>G,TRUE,hand
c.1801A>T,TRUE,hand
c.1826A>G,TRUE,hand
c.1826A>T,TRUE,hand
c.1837G>A,TRUE,hand
c.1841A>G,TRUE,hand
c.1865G>A,TRUE,hand
c.1882G>A,TRUE,hand
c.1999C>T,TRUE,hand
c.2002C>T,TRUE,hand
c.2047A>G,TRUE,hand
c.2105-2117del13insAGAAA,TRUE,hand
c.2249C>T,TRUE,hand
c.2354G>A,TRUE,hand
c.2399C>G,TRUE,hand
c.2417A>G,TRUE,hand
c.2421A>G,TRUE,hand
c.2502T>G,TRUE,hand
c.2506G>T,TRUE,hand
c.2552G>T,TRUE,hand
c.2557A>T,TRUE,hand
c.2563G>A,TRUE,hand
c.2597G>A,TRUE,hand
c.2619+3A>G,TRUE,hand
c.2619+15A>G,TRUE,hand
c.2619+1355_2908+243del7613,TRUE,hand
c.2620-1_2624delGGTGGCinsTTG,TRUE,hand
c.2620-674_3367+198del9858,TRUE,hand
c.2657+5G>A,TRUE,hand
c.2657+2_2657+3insA,TRUE,hand
c.2735C>T,TRUE,hand
c.2758G>A,TRUE,hand
c.2780T>C,TRUE,hand
c.2797A>G,TRUE,hand
c.2799A>T,TRUE,hand
c.2813T>G,TRUE,hand
c.2834C>T,TRUE,hand
c.2855T>C,TRUE,hand
c.2856G>C,TRUE,hand
c.2900T>C,TRUE,hand
c.2908G>C,TRUE,hand
c.2909-15T>G,TRUE,hand
c.2909-13del7,TRUE,hand
c.2909G>A,TRUE,hand
c.2918T>C,TRUE,hand
c.2930C>T,TRUE,hand
c.2936A>C,TRUE,hand
c.2939T>A,TRUE,hand
c.2988+1173_3468+2111del,TRUE,hand
c.2991G>C,TRUE,hand
c.3017C>A,TRUE,hand
c.3038C>T,TRUE,hand
c.3041A>G,TRUE,hand
c.3061C>T,TRUE,hand
c.3080T>C,TRUE,hand
c.3083T>G,TRUE,hand
c.3095A>G,TRUE,hand
c.3107C>A,TRUE,hand
c.3107C>T,TRUE,hand
c.3154T>G,TRUE,hand
c.3160C>G,TRUE,hand
c.3179A>C,TRUE,hand
c.3181G>A,TRUE,hand
c.3194T>C,TRUE,hand
c.3196C>T,TRUE,hand
c.3197G>A,TRUE,hand
c.3200C>T,TRUE,hand
c.3205G>A,TRUE,hand
c.3208C>T,TRUE,hand
c.3209G>A,TRUE,hand
c.3222T>A,TRUE,hand
c.3230T>C,TRUE,hand
c.3254A>G,TRUE,hand
c.3259G>C,TRUE,hand
c.3274T>C,TRUE,hand
c.3275A>G,TRUE,hand
c.3297C>A,TRUE,hand
c.3299A>C,TRUE,hand
c.3302T>A,TRUE,hand
c.3368-19G>A,TRUE,hand
c.3380G>A,TRUE,hand
c.3389G>C,TRUE,hand
c.3406G>A,TRUE,hand
c.3407C>T,TRUE,hand
c.3409A>G,TRUE,hand
c.3410T>G,TRUE,hand
c.3415A>G,TRUE,hand
c.3454G>C,TRUE,hand
c.3458T>A,TRUE,hand
c.3469-2880_3717+2150del5279,TRUE,hand
c.3469-3C>A,TRUE,hand
c.3469-420_3717+1230del1899,TRUE,hand
c.3485G>T,TRUE,hand
c.3503A>G,TRUE,hand
c.3672T>A,TRUE,hand
c.3680T>C,TRUE,hand
c.3700A>G,TRUE,hand
c.3705T>G,TRUE,hand
c.3718-24_3873+601del781,TRUE,hand
c.3719T>G,TRUE,hand
c.3730G>A,TRUE,hand
c.3731G>A,TRUE,hand
c.3739G>C,TRUE,hand
c.3752G>A,TRUE,hand
c.3779T>C,TRUE,hand
c.3793G>A,TRUE,hand
c.3808G>A,TRUE,hand
c.3864-78_4242+577del1532,TRUE,hand
c.3872A>G,TRUE,hand
c.3873G>C,TRUE,hand
c.3874-46del5,TRUE,hand
c.3909C>G,TRUE,hand
c.3915T>A,TRUE,hand
c.3964-78_4242+577del,TRUE,hand
c.3964-3890_4443+3143del9454insTAACT,TRUE,hand
c.4046G>A,TRUE,hand
c.4051A>G,TRUE,hand
c.4056G>C,TRUE,hand
c.4091C>T,TRUE,hand
c.4124A>C,TRUE,hand
c.4129G>C,TRUE,hand
c.4141T>C,TRUE,hand
c.4163T>A,TRUE,hand
c.4242_4242+1delinsT,TRUE,hand
c.4276T>C,TRUE,hand
c.4333G>A,TRUE,hand
c.4433C>G,TRUE,hand
